0.02 0 -2 0 -2 0 -2 209 0 
0.04 0 -16 0 -14 0 -12 238 0 
0.06 0 -54 0 -38 0 -24 267 0 
0.08 0 -129 0 -75 0 -37 296 0 
0.10 0 -252 0 -123 0 -48 325 0 
0.12 0 -435 0 -183 0 -60 354 0 
0.14 -14 -678 -14 -243 -14 -60 383 0 
0.16 -58 -975 -44 -297 -30 -54 412 0 
0.18 -108 -1363 -50 -388 -6 -91 441 0 
0.20 -159 -1859 -51 -496 -1 -108 470 0 
0.22 -257 -2429 -98 -570 -47 -74 499 0 
0.24 -435 -3052 -178 -623 -80 -53 528 0 
0.26 -734 -3700 -299 -648 -121 -25 557 0 
0.28 -1156 -4369 -422 -669 -123 -21 586 0 
0.30 -1728 -5021 -572 -652 -150 17 615 0 
0.32 -2467 -5627 -739 -606 -167 46 644 0 
0.34 -3397 -6152 -930 -525 -191 81 673 0 
0.36 -4536 -6564 -1139 -412 -209 113 702 0 
0.38 -5877 -6859 -1341 -295 -202 117 731 0 
0.40 -7420 -7024 -1543 -165 -202 130 760 0 
0.42 -9168 -7046 -1748 -22 -205 143 789 0 
0.44 -11095 -6936 -1927 110 -179 132 818 0 
0.46 -13196 -6689 -2101 247 -174 137 847 0 
0.48 -15469 -6295 -2273 394 -172 147 818 0 
0.50 -17862 -5792 -2393 503 -120 109 789 0 
0.52 -20277 -5269 -2415 523 -22 20 760 0 
0.54 -22780 -4659 -2503 610 -88 87 731 0 
0.56 -25286 -4045 -2506 614 -3 4 702 0 
0.58 -27746 -3477 -2460 568 46 -46 673 0 
0.60 -30139 -2977 -2393 500 67 -68 644 0 
0.62 -32434 -2574 -2295 403 98 -97 615 0 
0.64 -34591 -2309 -2157 265 138 -138 586 0 
0.66 -36592 -2201 -2001 108 156 -157 590 0 
0.68 -38438 -2247 -1846 -46 155 -154 619 0 
0.70 -40161 -2416 -1723 -169 123 -123 648 0 
0.72 -41803 -2667 -1642 -251 81 -82 677 0 
0.74 -43392 -2970 -1589 -303 53 -52 706 0 
0.76 -44988 -3267 -1596 -297 -7 6 735 0 
0.78 -46606 -3541 -1618 -274 -22 23 764 0 
0.80 -48298 -3741 -1692 -200 -74 74 793 0 
0.82 -50086 -3846 -1788 -105 -96 95 822 0 
0.84 -51972 -3852 -1886 -6 -98 99 851 0 
0.86 -53975 -3741 -2003 111 -117 117 880 0 
0.88 -56109 -3500 -2134 241 -131 130 851 0 
0.90 -58377 -3124 -2268 376 -134 135 822 0 
0.92 -60716 -2677 -2339 447 -71 71 793 0 
0.94 -63073 -2213 -2357 464 -18 17 764 0 
0.96 -65421 -1757 -2348 456 9 -8 735 0 
0.98 -67726 -1344 -2305 413 43 -43 706 0 
1.00 -69970 -993 -2244 351 61 -62 677 0 
1.02 -72131 -724 -2161 269 83 -82 648 0 
1.04 -74192 -556 -2061 168 100 -101 619 0 
1.06 -76108 -532 -1916 24 145 -144 625 0 
1.08 -77885 -647 -1777 -115 139 -139 654 0 
1.10 -79547 -878 -1662 -231 115 -116 683 0 
1.12 -81156 -1161 -1609 -283 53 -52 712 0 
1.14 -82753 -1456 -1597 -295 12 -12 741 0 
1.16 -84344 -1758 -1591 -302 6 -7 770 0 
1.18 -85994 -2000 -1650 -242 -59 60 799 0 
1.20 -87718 -2168 -1724 -168 -74 74 828 0 
1.22 -89564 -2215 -1846 -47 -122 121 857 0 
1.24 -91537 -2134 -1973 81 -127 128 886 0 
1.26 -93559 -2004 -2022 130 -49 49 857 0 
1.28 -95429 -2027 -1870 -23 152 -153 886 0 
1.30 -97038 -2310 -1609 -283 261 -260 915 0 
1.32 -98428 -2812 -1390 -502 219 -219 944 0 
1.34 -99723 -3410 -1295 -598 95 -96 973 0 
1.36 -101101 -3924 -1378 -514 -83 84 1002 0 
1.38 -102655 -4263 -1554 -339 -176 175 1031 0 
1.40 -104474 -4336 -1819 -73 -265 266 1060 0 
1.42 -106610 -4092 -2136 244 -317 317 1031 0 
1.44 -108994 -3601 -2384 491 -248 247 1002 0 
1.46 -111517 -2970 -2523 631 -139 140 973 0 
1.48 -114081 -2298 -2564 672 -41 41 944 0 
1.50 -116633 -1639 -2552 659 12 -13 915 0 
1.52 -119159 -1005 -2526 634 26 -25 886 0 
1.54 -121601 -455 -2442 550 84 -84 857 0 
1.56 -123971 22 -2370 477 72 -73 828 0 
1.58 -126293 452 -2322 430 48 -47 799 0 
1.60 -128602 869 -2309 417 13 -13 770 0 
1.62 -130920 1294 -2318 425 -9 8 741 0 
1.64 -133217 1699 -2297 405 21 -20 712 0 
1.66 -135476 2066 -2259 367 38 -38 683 0 
1.68 -137672 2369 -2196 303 63 -64 654 0 
1.70 -139798 2603 -2126 234 70 -69 625 0 
1.72 -141844 2756 -2046 153 80 -81 596 0 
1.74 -143808 2828 -1964 72 82 -81 567 0 
1.76 -145680 2808 -1872 -20 92 -92 538 0 
1.78 -147476 2711 -1796 -97 76 -77 509 0 
1.80 -149185 2528 -1709 -183 87 -86 538 0 
1.82 -150860 2311 -1675 -217 34 -34 567 0 
1.84 -152565 2123 -1705 -188 -30 29 596 0 
1.86 -154304 1970 -1739 -153 -34 35 625 0 
1.88 -156090 1864 -1786 -106 -47 47 653 0 
1.90 -157929 1810 -1839 -54 -53 52 624 0 
1.92 -159811 1800 -1882 -10 -43 44 595 0 
1.94 -161677 1774 -1866 -26 16 -16 566 0 
1.96 -163482 1686 -1805 -88 61 -62 574 0 
1.98 -165231 1543 -1749 -143 56 -55 603 0 
2.00 -166948 1367 -1717 -176 32 -33 632 0 
2.02 -168673 1200 -1725 -167 -8 9 661 0 
2.04 -170427 1062 -1754 -138 -29 29 690 0 
2.06 -172243 985 -1816 -77 -62 61 719 0 
2.08 -174115 965 -1872 -20 -56 57 690 0 
2.10 -176034 992 -1919 27 -47 47 661 0 
2.12 -177961 1026 -1927 34 -8 7 632 0 
2.14 -179890 1063 -1929 37 -2 3 603 0 
2.16 -181795 1076 -1905 13 24 -24 574 0 
2.18 -183636 1024 -1841 -52 64 -65 576 0 
2.20 -185423 919 -1787 -105 54 -53 605 0 
2.22 -187156 760 -1733 -159 54 -54 634 0 
2.24 -188852 563 -1696 -197 37 -38 663 0 
2.26 -190515 334 -1663 -229 33 -32 692 0 
2.28 -192187 114 -1672 -220 -9 9 721 0 
2.30 -193958 -8 -1771 -122 -99 98 750 0 
2.32 -195806 -52 -1848 -44 -77 78 779 0 
2.34 -197680 -71 -1874 -19 -26 25 808 0 
2.36 -199498 -145 -1818 -74 56 -55 837 0 
2.38 -201243 -292 -1745 -147 73 -73 866 0 
2.40 -202954 -474 -1711 -182 34 -35 895 0 
2.42 -204675 -645 -1721 -171 -10 11 924 0 
2.44 -206412 -800 -1737 -155 -16 16 953 0 
2.46 -208201 -904 -1789 -104 -52 51 982 0 
2.48 -210053 -944 -1852 -40 -63 64 1011 0 
2.50 -212011 -878 -1958 66 -106 106 982 0 
2.52 -213874 -906 -1863 -28 95 -94 1011 0 
2.54 -215684 -974 -1810 -68 53 -40 1040 0 
2.56 -217486 -1026 -1802 -52 8 16 1069 0 
2.58 -219321 -1009 -1835 17 -33 69 1098 0 
2.60 -221175 -924 -1854 85 -19 68 1069 0 
2.62 -222975 -832 -1800 92 54 7 1040 0 
2.64 -224661 -782 -1686 50 114 -42 1016 0 
2.66 -226181 -814 -1520 -32 166 -82 1045 0 
2.68 -227528 -921 -1347 -107 173 -75 1074 0 
2.70 -228800 -994 -1272 -73 75 34 1103 0 
2.72 -230099 -920 -1299 74 -27 147 1074 0 
2.74 -231360 -750 -1261 170 38 96 1045 0 
2.76 -232475 -581 -1115 169 146 -1 1016 0 
2.78 -233405 -452 -930 129 185 -40 987 0 
2.80 -234131 -394 -726 58 204 -71 958 0 
2.82 -234663 -409 -532 -15 194 -73 987 0 
2.84 -235121 -389 -458 20 74 35 986 0 
2.86 -235576 -275 -455 114 3 94 957 0 
2.88 -235952 -156 -376 119 79 5 928 0 
2.90 -236171 -120 -219 36 157 -83 899 0 
2.92 -236219 -195 -48 -75 171 -111 928 0 
2.94 -236220 -269 -1 -74 47 1 957 0 
2.96 -236237 -290 -17 -21 -16 53 986 0 
2.98 -236292 -249 -55 41 -38 62 957 0 
3.00 -236370 -174 -78 75 -23 34 928 0 
3.02 -236453 -91 -83 83 -5 8 899 0 
3.04 -236469 -75 -16 16 67 -67 872 0 
3.06 -236469 -75 0 0 16 -16 880 0 
3.08 -236469 -75 0 0 0 0 888 0 
3.10 -236469 -75 0 0 0 0 896 0 
3.12 -236470 -74 -1 1 -1 1 902 0 
3.14 -236470 -74 0 0 1 -1 910 0 
3.16 -236470 -74 0 0 0 0 918 0 
3.18 -236470 -74 0 0 0 0 926 0 
3.20 -236470 -74 0 0 0 0 934 0 
3.22 -236470 -74 0 0 0 0 942 0 
3.24 -236470 -74 0 0 0 0 950 0 
3.26 -236470 -74 0 0 0 0 958 0 
3.28 -236470 -74 0 0 0 0 966 0 
3.30 -236471 -73 -1 1 -1 1 972 0 
3.32 -236471 -73 0 0 1 -1 980 0 
3.34 -236474 -70 -3 3 -3 3 981 0 
3.36 -236485 -59 -11 11 -8 8 963 0 
3.38 -236493 -51 -8 8 3 -3 951 0 
3.40 -236493 -51 0 0 8 -8 957 0 
3.42 -236493 -51 0 0 0 0 963 0 
3.44 -236496 -48 -3 3 -3 3 962 0 
3.46 -236498 -46 -2 2 1 -1 963 0 
3.48 -236500 -44 -2 2 0 0 963 0 
3.50 -236501 -43 -1 1 1 -1 966 0 
3.52 -236501 -43 0 0 1 -1 971 0 
3.54 -236501 -43 0 0 0 0 976 0 
3.56 -236501 -43 0 0 0 0 981 0 
3.58 -236501 -43 0 0 0 0 986 0 
3.60 -236501 -43 0 0 0 0 991 0 
3.62 -236501 -43 0 0 0 0 996 0 
3.64 -236501 -43 0 0 0 0 1001 0 
3.66 -236501 -43 0 0 0 0 1006 0 
3.68 -236501 -43 0 0 0 0 1011 0 
3.70 -236501 -43 0 0 0 0 1016 0 
3.72 -236502 -42 -1 1 -1 1 1018 0 
3.74 -236503 -41 -1 1 0 0 1020 0 
3.76 -236505 -39 -2 2 -1 1 1020 0 
3.78 -236507 -37 -2 2 0 0 1020 0 
3.80 -236507 -37 0 0 2 -2 1024 0 
3.82 -236507 -37 0 0 0 0 1028 0 
3.84 -236508 -36 -1 1 -1 1 1030 0 
3.86 -236508 -36 0 0 1 -1 1034 0 
3.88 -236508 -36 0 0 0 0 1038 0 
3.90 -236508 -36 0 0 0 0 1042 0 
3.92 -236509 -35 -1 1 -1 1 1044 0 
3.94 -236511 -33 -2 2 -1 1 1043 0 
3.96 -236515 -29 -4 4 -2 2 1037 0 
3.98 -236515 -29 0 0 4 -4 1040 0 