0.02 0 1 0 1 0 1 16973 
0.04 1 3 1 2 1 1 22478 
0.06 4 6 3 3 2 1 27983 
0.08 10 8 6 2 3 -1 33488 
0.10 20 8 10 0 4 -2 37878 
0.12 33 8 13 0 3 0 42268 
0.14 51 5 18 -3 5 -3 36763 
0.16 73 0 22 -5 4 -2 31258 
0.18 97 -4 24 -4 2 1 25753 
0.20 122 -7 25 -3 1 1 20248 
0.22 147 -8 25 -1 0 2 14743 
0.24 173 -7 26 1 1 2 19133 
0.26 199 -4 26 3 0 2 24638 
0.28 226 -3 27 1 1 -2 30143 
0.30 254 -2 28 1 1 0 35648 
0.32 284 -3 30 -1 2 -2 30143 
0.34 315 -5 31 -2 1 -1 24638 
0.36 347 -8 32 -3 1 -1 19133 
0.38 378 -10 31 -2 -1 1 13628 
0.40 409 -12 31 -2 0 0 8123 
0.42 440 -14 31 -2 0 0 2618 
0.44 469 -14 29 0 -2 2 2887 
0.46 496 -13 27 1 -2 1 1790 
0.48 522 -10 26 3 -1 2 3715 
0.50 546 -5 24 5 -2 2 9220 
0.52 568 2 22 7 -2 2 14725 
0.54 589 10 21 8 -1 1 20230 
0.56 611 17 22 7 1 -1 25735 
0.58 633 24 22 7 0 0 31240 
0.60 657 29 24 5 2 -2 36745 
0.62 682 33 25 4 1 -1 42250 
0.64 709 35 27 2 2 -2 45874 
0.66 739 33 30 -2 3 -4 45874 
0.68 771 30 32 -3 2 -1 40369 
0.70 806 24 35 -6 3 -3 34864 
0.72 841 18 35 -6 0 0 29359 
0.74 876 12 35 -6 0 0 23854 
0.76 911 6 35 -6 0 0 18349 
0.78 946 0 35 -6 0 0 12844 
0.80 980 -5 34 -5 -1 1 7339 
0.82 1012 -8 32 -3 -2 2 1834 
0.84 1042 -10 30 -2 -2 1 3671 
0.86 1069 -8 27 2 -3 4 1834 
0.88 1095 -5 26 3 -1 1 7339 
0.90 1119 0 24 5 -2 2 12844 
0.92 1141 7 22 7 -2 2 18349 
0.94 1163 14 22 7 0 0 23854 
0.96 1184 22 21 8 -1 1 29359 
0.98 1207 28 23 6 2 -2 34864 
1.00 1230 34 23 6 0 0 40369 
1.02 1256 36 26 2 3 -4 45874 
1.04 1284 37 28 1 2 -1 45874 
1.06 1314 36 30 -1 2 -2 45874 
1.08 1347 32 33 -4 3 -3 40369 
1.10 1381 27 34 -5 1 -1 34864 
1.12 1416 21 35 -6 1 -1 29359 
1.14 1450 16 34 -5 -1 1 23854 
1.16 1484 11 34 -5 0 0 18349 
1.18 1517 7 33 -4 -1 1 12844 
1.20 1548 5 31 -2 -2 2 7339 
1.22 1577 4 29 -1 -2 1 1834 
1.24 1604 6 27 2 -2 3 7339 
1.26 1628 11 24 5 -3 3 12844 
1.28 1651 14 23 3 -1 -2 18349 
1.30 1672 18 21 4 -2 1 23854 
1.32 1693 18 21 0 0 -4 29359 
1.34 1714 17 21 -1 0 -1 30456 
1.36 1736 12 22 -5 1 -4 24951 
1.38 1758 5 22 -7 0 -2 19446 
1.40 1780 -4 22 -9 0 -2 13941 
1.42 1802 -16 22 -12 0 -3 8436 
1.44 1821 -27 19 -11 -3 1 2931 
1.46 1839 -39 18 -12 -1 -1 2574 
1.48 1853 -50 14 -11 -4 1 8079 
1.50 1864 -59 11 -9 -3 2 13584 
1.52 1872 -67 8 -8 -3 1 19089 
1.54 1874 -69 2 -2 -6 6 24594 
1.56 1872 -67 -2 2 -4 4 30099 
1.58 1865 -60 -7 7 -5 5 24594 
1.60 1856 -51 -9 9 -2 2 19089 
1.62 1844 -39 -12 12 -3 3 13584 
1.64 1831 -26 -13 13 -1 1 8079 
1.66 1818 -13 -13 13 0 0 2574 
1.68 1805 0 -13 13 0 0 2931 
1.70 1793 12 -12 12 1 -1 8436 
1.72 1782 23 -11 11 1 -1 13941 
1.74 1774 31 -8 8 3 -3 19446 
1.76 1769 36 -5 5 3 -3 24951 
1.78 1768 37 -1 1 4 -4 30456 
1.80 1769 36 1 -1 2 -2 35961 
1.82 1775 30 6 -6 5 -5 30456 
1.84 1783 22 8 -8 2 -2 24951 
1.86 1793 12 10 -10 2 -2 19446 
1.88 1804 1 11 -11 1 -1 13941 
1.90 1814 -9 10 -10 -1 1 8436 
1.92 1823 -18 9 -9 -1 1 2931 
1.94 1829 -24 6 -6 -3 3 2574 
1.96 1833 -28 4 -4 -2 2 8079 
1.98 1834 -29 1 -1 -3 3 13584 
2.00 1833 -28 -1 1 -2 2 19089 