0.02 0 40 0 40 0 40 2 1 0 1 0 0.000 1.000 0.000 
0.04 0 161 0 121 0 81 6 3 0 2 0 0.000 1.000 0.000 
0.06 0 363 0 202 0 81 12 7 0 4 0 0.000 1.000 0.000 
0.08 382 264 382 -99 382 -301 4 5 1 -2 0 0.000 1.000 0.000 
0.10 508 502 126 238 -256 337 16 10 1 5 0 0.000 1.000 0.000 
0.12 885 570 377 68 251 -170 14 11 2 1 0 0.000 1.000 0.000 
0.14 1399 581 514 11 137 -57 14 12 2 0 0 0.000 1.000 0.000 
0.16 1922 665 523 84 9 73 18 13 3 2 0 0.000 1.000 0.000 
0.18 2445 829 523 164 0 80 23 17 4 3 0 0.000 1.000 0.000 
0.20 2970 1072 525 243 2 79 31 21 5 5 0 0.000 1.000 0.000 
0.22 3500 1391 530 319 5 76 40 28 6 6 0 0.000 1.000 0.000 
0.24 4351 1470 851 79 321 -240 38 29 7 2 0 0.000 1.000 0.000 
0.26 5286 1546 935 76 84 -3 41 31 9 2 0 0.000 1.000 0.000 
0.28 6280 1643 994 97 59 21 45 33 10 2 0 0.000 1.000 0.000 
0.30 7341 1755 1061 112 67 15 49 35 12 2 0 0.000 1.000 0.000 
0.32 8423 1926 1082 171 21 59 56 39 14 3 0 0.000 1.000 0.000 
0.34 9518 2165 1095 239 13 68 64 43 16 5 0 0.000 1.000 0.000 
0.36 10610 2488 1092 323 -3 84 75 50 18 6 0 0.000 1.000 0.000 
0.38 11966 2628 1356 140 264 -183 76 53 21 3 0 0.000 1.000 0.000 
0.40 13568 2603 1602 -25 246 -165 75 52 23 -1 0 0.000 1.000 0.000 
0.42 15326 2502 1758 -101 156 -76 74 50 26 -2 0 0.000 1.000 0.000 
0.44 17282 2284 1956 -218 198 -117 69 46 28 -4 0 0.000 1.000 0.000 
0.46 19438 1948 2156 -336 200 -118 62 39 30 -7 0 0.000 1.000 0.000 
0.48 21732 1554 2294 -394 138 -58 55 31 32 -8 0 0.000 1.000 0.000 
0.50 24021 1246 2289 -308 -5 86 52 25 33 -6 0 0.000 1.000 0.000 
0.52 26289 1039 2268 -207 -21 101 51 21 34 -4 0 0.000 1.000 0.000 
0.54 28526 945 2237 -94 -31 113 52 19 35 -2 0 0.000 1.000 0.000 
0.56 30728 967 2202 22 -35 116 56 19 36 0 0 0.000 1.000 0.000 
0.58 32886 1113 2158 146 -44 124 62 22 37 3 0 0.000 1.000 0.000 
0.60 35120 1264 2234 151 76 5 66 25 38 3 0 0.000 1.000 0.000 
0.62 37498 1352 2378 88 144 -63 68 27 39 2 0 0.000 1.000 0.000 
0.64 39961 1436 2463 84 85 -4 71 29 41 2 0 0.000 1.000 0.000 
0.66 42553 1472 2592 36 129 -48 72 29 42 1 0 0.000 1.000 0.000 
0.68 45345 1389 2792 -83 200 -119 70 28 44 -2 0 0.000 1.000 0.000 
0.70 48224 1299 2879 -90 87 -7 69 26 45 -2 0 0.000 1.000 0.000 
0.72 51154 1240 2930 -59 51 31 70 25 46 -1 0 0.000 1.000 0.000 
0.74 54142 1203 2988 -37 58 22 71 24 47 -1 0 0.000 1.000 0.000 
0.76 57184 1193 3042 -10 54 27 72 24 48 0 0 0.000 1.000 0.000 
0.78 60275 1215 3091 22 49 32 74 24 50 0 0 0.000 1.000 0.000 
0.80 63426 1258 3151 43 60 21 77 25 51 1 0 0.000 1.000 0.000 
0.82 66650 1308 3224 50 73 7 79 26 52 1 0 0.000 1.000 0.000 
0.84 69958 1356 3308 48 84 -2 81 27 53 1 0 0.000 1.000 0.000 
0.86 73355 1395 3397 39 89 -9 83 28 55 1 0 0.000 1.000 0.000 
0.88 76851 1416 3496 21 99 -18 85 28 56 0 0 0.000 1.000 0.000 
0.90 80450 1415 3599 -1 103 -22 86 28 57 0 0 0.000 1.000 0.000 
0.92 84162 1382 3712 -33 113 -32 86 28 59 -1 0 0.000 1.000 0.000 
0.94 87970 1334 3808 -48 96 -15 86 27 60 -1 0 0.000 1.000 0.000 
0.96 91845 1299 3875 -35 67 13 86 26 61 -1 0 0.000 1.000 0.000 
0.98 95800 1266 3955 -33 80 2 87 25 62 -1 0 0.000 1.000 0.000 
1.00 99909 1159 4109 -107 154 -74 85 23 63 -2 0 0.000 1.000 0.000 
1.02 104008 1143 4099 -16 -10 91 87 23 65 0 0 0.000 1.000 0.000 
1.04 108283 1032 4275 -111 176 -95 84 21 65 -2 0 0.000 1.000 0.000 
1.06 112728 832 4445 -200 170 -89 79 17 66 -4 0 0.000 1.000 0.000 
1.08 117267 619 4539 -213 94 -13 75 12 67 -4 0 0.000 1.000 0.000 
1.10 121651 642 4384 23 -155 236 81 13 67 0 0 0.000 1.000 0.000 
1.12 126114 666 4463 24 79 1 82 13 68 0 0 0.000 1.000 0.000 
1.14 130765 584 4651 -82 188 -106 78 12 68 -2 0 0.000 1.000 0.000 
1.16 135318 680 4553 96 -98 178 85 14 69 2 0 0.000 1.000 0.000 
1.18 139943 785 4625 105 72 9 88 16 70 2 0 0.000 1.000 0.000 
1.20 144876 663 4933 -122 308 -227 81 13 70 -2 0 0.000 1.000 0.000 
1.22 149667 763 4791 100 -142 222 88 15 71 2 0 0.000 1.000 0.000 
1.24 154504 899 4837 136 46 36 92 18 72 3 0 0.000 1.000 0.000 
1.26 159655 801 5151 -98 314 -234 87 16 72 -2 0 0.000 1.000 0.000 
1.28 164745 846 5090 45 -61 143 91 17 73 1 0 0.000 1.000 0.000 
1.30 169881 925 5136 79 46 34 94 19 74 2 0 0.000 1.000 0.000 
1.32 175193 909 5312 -16 176 -95 93 18 75 0 0 0.000 1.000 0.000 
1.34 180542 937 5349 28 37 44 95 19 76 1 0 0.000 1.000 0.000 
1.36 185948 988 5406 51 57 23 97 20 77 1 0 0.000 1.000 0.000 
1.38 191462 1013 5514 25 108 -26 98 20 78 1 0 0.000 1.000 0.000 
1.40 197057 1037 5595 24 81 -1 100 21 78 0 0 0.000 1.000 0.000 
1.42 202747 1048 5690 11 95 -13 101 21 79 0 0 0.000 1.000 0.000 
1.44 208517 1059 5770 11 80 0 102 21 80 0 0 0.000 1.000 0.000 
1.46 214346 1092 5829 33 59 22 104 22 81 1 0 0.000 1.000 0.000 
1.48 220271 1110 5925 18 96 -15 105 22 82 0 0 0.000 1.000 0.000 
1.50 226274 1130 6003 20 78 2 106 23 83 0 0 0.000 1.000 0.000 
1.52 232333 1176 6059 46 56 26 109 24 84 1 0 0.000 1.000 0.000 
1.54 238515 1179 6182 3 123 -43 109 24 85 0 0 0.000 1.000 0.000 
1.56 244767 1193 6252 14 70 11 111 24 87 0 0 0.000 1.000 0.000 
1.58 251093 1215 6326 22 74 8 112 24 88 0 0 0.000 1.000 0.000 
1.60 257490 1246 6397 31 71 9 114 25 89 1 0 0.000 1.000 0.000 
1.62 263983 1261 6493 15 96 -16 115 25 90 0 0 0.000 1.000 0.000 
1.64 270551 1283 6568 22 75 7 117 26 91 0 0 0.000 1.000 0.000 
1.66 277202 1303 6651 20 83 -2 119 26 92 0 0 0.000 1.000 0.000 
1.68 283976 1280 6774 -23 123 -43 118 26 93 0 0 0.000 1.000 0.000 
1.70 290759 1329 6783 49 9 72 122 27 95 1 0 0.000 1.000 0.000 
1.72 297656 1345 6897 16 114 -33 123 27 96 0 0 0.000 1.000 0.000 
1.74 304666 1329 7010 -16 113 -32 123 27 97 0 0 0.000 1.000 0.000 
1.76 311705 1365 7039 36 29 52 126 27 98 1 0 0.000 1.000 0.000 
1.78 318858 1368 7153 3 114 -33 127 27 99 0 0 0.000 1.000 0.000 
1.80 326078 1384 7220 16 67 13 129 28 101 0 0 0.000 1.000 0.000 
1.82 333410 1370 7332 -14 112 -30 129 27 102 0 0 0.000 1.000 0.000 
1.84 340778 1400 7368 30 36 44 132 28 103 1 0 0.000 1.000 0.000 
1.86 348256 1401 7478 1 110 -29 132 28 104 0 0 0.000 1.000 0.000 
1.88 355777 1440 7521 39 43 38 135 29 106 1 0 0.000 1.000 0.000 
1.90 363418 1440 7641 0 120 -39 136 29 107 0 0 0.000 1.000 0.000 
1.92 371124 1455 7706 15 65 15 138 29 108 0 0 0.000 1.000 0.000 
1.94 378936 1446 7812 -9 106 -24 138 29 109 0 0 0.000 1.000 0.000 
1.96 386788 1477 7852 31 40 40 141 30 111 1 0 0.000 1.000 0.000 
1.98 394719 1511 7931 34 79 3 143 30 112 1 0 0.000 1.000 0.000 
2.00 402808 1467 8089 -44 158 -78 142 29 113 -1 0 0.000 1.000 0.000 
2.02 410867 1493 8059 26 -30 70 145 30 115 1 0 0.000 1.000 0.000 
2.04 419016 1430 8149 -63 90 -89 143 29 116 -1 0 0.000 1.000 0.000 
2.06 427149 1382 8133 -48 -16 15 144 28 117 -1 0 0.000 1.000 0.000 
2.08 435278 1339 8129 -43 -4 5 144 27 118 -1 0 0.000 1.000 0.000 
2.10 443419 1283 8141 -56 12 -13 144 26 119 -1 0 0.000 1.000 0.000 
2.12 451563 1225 8144 -58 3 -2 144 25 120 -1 0 0.000 1.000 0.000 
2.14 459704 1169 8141 -56 -3 2 144 23 121 -1 0 0.000 1.000 0.000 
2.16 467861 1098 8157 -71 16 -15 143 22 122 -1 0 0.000 1.000 0.000 
2.18 475987 1057 8126 -41 -31 30 144 21 123 -1 0 0.000 1.000 0.000 
2.20 484137 993 8150 -64 24 -23 143 20 124 -1 0 0.000 1.000 0.000 
2.22 492259 956 8122 -37 -28 27 143 19 125 -1 0 0.000 1.000 0.000 
2.24 500360 941 8101 -15 -21 22 144 19 126 0 0 0.000 1.000 0.000 
2.26 508500 886 8140 -55 39 -40 143 18 126 -1 0 0.000 1.000 0.000 
2.28 516624 848 8124 -38 -16 17 143 17 127 -1 0 0.000 1.000 0.000 
2.30 524724 833 8100 -15 -24 23 144 17 127 0 0 0.000 1.000 0.000 
2.32 532862 781 8138 -52 38 -37 143 16 128 -1 0 0.000 1.000 0.000 
2.34 540999 729 8137 -52 -1 0 142 15 129 -1 0 0.000 1.000 0.000 
2.36 549086 728 8087 -1 -50 51 144 15 129 0 0 0.000 1.000 0.000 
2.38 557206 693 8120 -35 33 -34 143 14 130 -1 0 0.000 1.000 0.000 
2.40 565318 667 8112 -26 -8 9 143 13 130 -1 0 0.000 1.000 0.000 
2.42 573431 639 8113 -28 1 -2 143 13 130 -1 0 0.000 1.000 0.000 
2.44 581525 631 8094 -8 -19 20 143 13 131 0 0 0.000 1.000 0.000 
2.46 589626 615 8101 -16 7 -8 143 12 131 0 0 0.000 1.000 0.000 
2.48 597709 618 8083 3 -18 19 144 12 132 0 0 0.000 1.000 0.000 
2.50 605854 558 8145 -60 62 -63 142 11 132 -1 0 0.000 1.000 0.000 
2.52 613941 557 8087 -1 -58 59 144 11 132 0 0 0.000 1.000 0.000 
2.54 622026 557 8085 0 -2 1 144 11 133 0 0 0.000 1.000 0.000 
2.56 630166 503 8140 -54 55 -54 142 10 133 -1 0 0.000 1.000 0.000 
2.58 638266 488 8100 -15 -40 39 143 10 133 0 0 0.000 1.000 0.000 
2.60 646345 495 8079 7 -21 22 144 10 134 0 0 0.000 1.000 0.000 
2.62 654468 457 8123 -38 44 -45 142 9 134 -1 0 0.000 1.000 0.000 
2.64 662554 457 8086 0 -37 38 143 9 134 0 0 0.000 1.000 0.000 
2.66 670649 447 8095 -10 9 -10 143 9 134 0 0 0.000 1.000 0.000 
2.68 678733 449 8084 2 -11 12 144 9 135 0 0 0.000 1.000 0.000 
2.70 686836 431 8103 -18 19 -20 143 9 135 0 0 0.000 1.000 0.000 
2.72 694954 399 8118 -32 15 -14 142 8 135 -1 0 0.000 1.000 0.000 
2.74 703009 429 8055 30 -63 62 144 9 135 1 0 0.000 1.000 0.000 
2.76 711104 420 8095 -9 40 -39 144 8 135 0 0 0.000 1.000 0.000 
2.78 719226 383 8122 -37 27 -28 142 8 135 -1 0 0.000 1.000 0.000 
2.80 727324 371 8098 -12 -24 25 143 7 136 0 0 0.000 1.000 0.000 
2.82 735408 372 8084 1 -14 13 143 7 136 0 0 0.000 1.000 0.000 
2.84 743504 362 8096 -10 12 -11 143 7 136 0 0 0.000 1.000 0.000 
2.86 751607 344 8103 -18 7 -8 143 7 136 0 0 0.000 1.000 0.000 
2.88 759697 340 8090 -4 -13 14 143 7 136 0 0 0.000 1.000 0.000 
2.90 767782 340 8085 0 -5 4 143 7 136 0 0 0.000 1.000 0.000 
2.92 775883 325 8101 -15 16 -15 143 7 136 0 0 0.000 1.000 0.000 
2.94 783963 330 8080 5 -21 20 143 7 137 0 0 0.000 1.000 0.000 
2.96 792121 258 8158 -72 78 -77 140 5 137 -1 0 0.000 1.000 0.000 
2.98 800071 393 7950 135 -208 207 147 8 137 3 0 0.000 1.000 0.000 
3.00 808236 314 8165 -79 215 -214 142 6 137 -2 0 0.000 1.000 0.000 
3.02 816363 272 8127 -42 -38 37 141 5 137 -1 0 0.000 1.000 0.000 
3.04 824384 337 8021 65 -106 107 145 7 137 1 0 0.000 1.000 0.000 
3.06 832498 308 8114 -29 93 -94 143 6 137 -1 0 0.000 1.000 0.000 
3.08 840611 281 8113 -27 -1 2 142 6 137 -1 0 0.000 1.000 0.000 
3.10 848684 293 8073 12 -40 39 143 6 137 0 0 0.000 1.000 0.000 
3.12 856763 300 8079 7 6 -5 143 6 137 0 0 0.000 1.000 0.000 
3.14 864850 298 8087 -2 8 -9 143 6 137 0 0 0.000 1.000 0.000 
3.16 872951 283 8101 -15 14 -13 143 6 137 0 0 0.000 1.000 0.000 
3.18 881041 278 8090 -5 -11 10 143 6 137 0 0 0.000 1.000 0.000 
3.20 889131 274 8090 -4 0 1 143 5 137 0 0 0.000 1.000 0.000 
3.22 897213 277 8082 3 -8 7 143 6 138 0 0 0.000 1.000 0.000 
3.24 905305 271 8092 -6 10 -9 143 5 138 0 0 0.000 1.000 0.000 
3.26 913408 253 8103 -18 11 -12 142 5 138 0 0 0.000 1.000 0.000 
3.28 921464 283 8056 30 -47 48 144 6 138 1 0 0.000 1.000 0.000 
3.30 929566 266 8102 -17 46 -47 143 5 138 0 0 0.000 1.000 0.000 
3.32 937663 255 8097 -11 -5 6 143 5 138 0 0 0.000 1.000 0.000 
3.34 945739 264 8076 9 -21 20 143 5 138 0 0 0.000 1.000 0.000 
3.36 953800 289 8061 25 -15 16 144 6 138 1 0 0.000 1.000 0.000 
3.38 961920 254 8120 -35 59 -60 142 5 138 -1 0 0.000 1.000 0.000 
3.40 969971 289 8051 35 -69 70 144 6 138 1 0 0.000 1.000 0.000 
3.42 978070 275 8099 -14 48 -49 143 6 138 0 0 0.000 1.000 0.000 
3.44 986164 267 8094 -8 -5 6 143 5 138 0 0 0.000 1.000 0.000 
3.46 994250 266 8086 -1 -8 7 143 5 138 0 0 0.000 1.000 0.000 
3.48 1002317 285 8067 19 -19 20 144 6 138 0 0 0.000 1.000 0.000 
3.50 1010431 256 8114 -29 47 -48 143 5 138 -1 0 0.000 1.000 0.000 
3.52 1018535 238 8104 -18 -10 11 143 5 138 0 0 0.000 1.000 0.000 
3.54 1026600 258 8065 20 -39 38 144 5 138 0 0 0.000 1.000 0.000 
3.56 1034707 237 8107 -21 42 -41 143 5 138 0 0 0.000 1.000 0.000 
3.58 1042782 247 8075 10 -32 31 143 5 138 0 0 0.000 1.000 0.000 
3.60 1050867 248 8085 1 10 -9 143 5 138 0 0 0.000 1.000 0.000 
3.62 1058964 236 8097 -12 12 -13 143 5 138 0 0 0.000 1.000 0.000 
3.64 1067054 232 8090 -4 -7 8 143 5 138 0 0 0.000 1.000 0.000 
3.66 1075154 217 8100 -15 10 -11 142 4 138 0 0 0.000 1.000 0.000 
3.68 1083208 249 8054 32 -46 47 144 5 138 1 0 0.000 1.000 0.000 
3.70 1091310 232 8102 -17 48 -49 143 5 138 0 0 0.000 1.000 0.000 
3.72 1099416 212 8106 -20 4 -3 142 4 138 0 0 0.000 1.000 0.000 
3.74 1107478 235 8062 23 -44 43 143 5 138 0 0 0.000 1.000 0.000 
3.76 1115548 251 8070 16 8 -7 144 5 138 0 0 0.000 1.000 0.000 
3.78 1123670 214 8122 -37 52 -53 142 4 138 -1 0 0.000 1.000 0.000 
3.80 1131745 225 8075 11 -47 48 143 5 138 0 0 0.000 1.000 0.000 
3.82 1139823 232 8078 7 3 -4 143 5 138 0 0 0.000 1.000 0.000 
3.84 1147893 248 8070 16 -8 9 144 5 138 0 0 0.000 1.000 0.000 
3.86 1155985 241 8092 -7 22 -23 143 5 138 0 0 0.000 1.000 0.000 
3.88 1164056 256 8071 15 -21 22 144 5 138 0 0 0.000 1.000 0.000 
3.90 1172168 217 8112 -39 41 -54 142 4 138 -1 0 0.000 1.000 0.000 
3.92 1180229 156 8061 -61 -51 -22 140 3 138 -1 0 0.000 1.000 0.000 
3.94 1188208 96 7979 -60 -82 1 139 2 138 -1 0 0.000 1.000 0.000 
3.96 1196100 43 7892 -53 -87 7 138 1 138 -1 0 0.000 1.000 0.000 
3.98 1203930 -29 7830 -72 -62 -19 136 -1 138 -1 0 0.000 1.000 0.000 
4.00 1211647 -70 7717 -41 -113 31 135 -1 137 -1 0 0.000 1.000 0.000 
4.02 1219331 -158 7684 -88 -33 -47 132 -3 137 -2 0 0.000 1.000 0.000 
4.04 1226900 -212 7569 -54 -115 34 131 -4 137 -1 0 0.000 1.000 0.000 
4.06 1234370 -248 7470 -36 -99 18 130 -5 136 -1 0 0.000 1.000 0.000 
4.08 1241786 -310 7416 -62 -54 -26 128 -6 136 -1 0 0.000 1.000 0.000 
4.10 1249115 -367 7329 -57 -87 5 127 -7 135 -1 0 0.000 1.000 0.000 
4.12 1256345 -405 7230 -38 -99 19 126 -8 134 -1 0 0.000 1.000 0.000 
4.14 1263524 -474 7179 -69 -51 -31 123 -9 134 -1 0 0.000 1.000 0.000 
4.16 1270607 -527 7083 -53 -96 16 121 -11 133 -1 0 0.000 1.000 0.000 
4.18 1277554 -525 6947 2 -136 55 122 -11 132 0 0 0.000 1.000 0.000 
4.20 1284470 -573 6916 -48 -31 -50 119 -11 131 -1 0 0.000 1.000 0.000 
4.22 1291311 -626 6841 -53 -75 -5 117 -13 131 -1 0 0.000 1.000 0.000 
4.24 1298027 -636 6716 -10 -125 43 117 -13 130 0 0 0.000 1.000 0.000 
4.26 1304700 -683 6673 -47 -43 -37 114 -14 129 -1 0 0.000 1.000 0.000 
4.28 1311273 -711 6573 -28 -100 19 113 -14 128 -1 0 0.000 1.000 0.000 
4.30 1317741 -715 6468 -4 -105 24 113 -14 127 0 0 0.000 1.000 0.000 
4.32 1324181 -772 6440 -57 -28 -53 110 -15 126 -1 0 0.000 1.000 0.000 
4.34 1330520 -809 6339 -37 -101 20 108 -16 125 -1 0 0.000 1.000 0.000 
4.36 1336731 -799 6211 10 -128 47 108 -16 124 0 0 0.000 1.000 0.000 
4.38 1342895 -822 6164 -23 -47 -33 106 -16 123 0 0 0.000 1.000 0.000 
4.40 1348978 -846 6083 -24 -81 -1 105 -17 122 0 0 0.000 1.000 0.000 
4.42 1354985 -874 6007 -28 -76 -4 103 -17 121 -1 0 0.000 1.000 0.000 
4.44 1360900 -891 5915 -17 -92 11 102 -18 120 0 0 0.000 1.000 0.000 
4.46 1366731 -905 5831 -14 -84 3 100 -18 119 0 0 0.000 1.000 0.000 
4.48 1372461 -899 5730 6 -101 20 100 -18 118 0 0 0.000 1.000 0.000 
4.50 1378151 -933 5690 -34 -40 -40 97 -19 117 -1 0 0.000 1.000 0.000 
4.52 1383734 -942 5583 -9 -107 25 96 -19 115 0 0 0.000 1.000 0.000 
4.54 1389217 -931 5483 11 -100 20 96 -19 114 0 0 0.000 1.000 0.000 
4.56 1394669 -970 5452 -39 -31 -50 93 -19 113 -1 0 0.000 1.000 0.000 
4.58 1400022 -991 5353 -21 -99 18 92 -20 112 0 0 0.000 1.000 0.000 
4.60 1405276 -994 5254 -3 -99 18 91 -20 111 0 0 0.000 1.000 0.000 
4.62 1410467 -1015 5191 -21 -63 -18 89 -20 110 0 0 0.000 1.000 0.000 
4.64 1415559 -1018 5092 -3 -99 18 88 -20 108 0 0 0.000 1.000 0.000 
4.66 1420565 -1015 5006 3 -86 6 87 -20 107 0 0 0.000 1.000 0.000 
4.68 1425506 -1029 4941 -14 -65 -17 85 -21 106 0 0 0.000 1.000 0.000 
4.70 1430359 -1035 4853 -6 -88 8 84 -21 105 0 0 0.000 1.000 0.000 
4.72 1435130 -1040 4771 -5 -82 1 83 -21 104 0 0 0.000 1.000 0.000 
4.74 1439844 -1069 4714 -29 -57 -24 81 -21 102 -1 0 0.000 1.000 0.000 
4.76 1444475 -1096 4631 -27 -83 2 79 -22 101 -1 0 0.000 1.000 0.000 
4.78 1448983 -1080 4508 16 -123 43 79 -22 100 0 0 0.000 1.000 0.000 
4.80 1453446 -1101 4463 -21 -45 -37 76 -22 99 0 0 0.000 1.000 0.000 
4.82 1457804 -1097 4358 4 -105 25 76 -22 98 0 0 0.000 1.000 0.000 
4.84 1462096 -1108 4292 -11 -66 -15 74 -22 96 0 0 0.000 1.000 0.000 
4.86 1466312 -1124 4216 -16 -76 -5 72 -22 95 0 0 0.000 1.000 0.000 
4.88 1470416 -1109 4104 15 -112 31 72 -22 94 0 0 0.000 1.000 0.000 
4.90 1474469 -1124 4053 -15 -51 -30 70 -22 92 0 0 0.000 1.000 0.000 
4.92 1478450 -1147 3981 -23 -72 -8 68 -23 91 0 0 0.000 1.000 0.000 
4.94 1482319 -1140 3869 7 -112 30 67 -23 90 0 0 0.000 1.000 0.000 
4.96 1486107 -1132 3788 8 -81 1 66 -23 89 0 0 0.000 1.000 0.000 
4.98 1489835 -1145 3728 -13 -60 -21 64 -23 87 0 0 0.000 1.000 0.000 
5.00 1493463 -1139 3628 6 -100 19 63 -23 86 0 0 0.000 1.000 0.000 
5.02 1497014 -1137 3551 2 -77 -4 62 -23 85 0 0 0.000 1.000 0.000 
5.04 1500501 -1152 3487 -15 -64 -17 60 -23 84 0 0 0.000 1.000 0.000 
5.06 1503895 -1154 3394 -2 -93 13 59 -23 82 0 0 0.000 1.000 0.000 
5.08 1507210 -1159 3315 -5 -79 -3 58 -23 81 0 0 0.000 1.000 0.000 
5.10 1510460 -1179 3250 -20 -65 -15 56 -24 80 0 0 0.000 1.000 0.000 
5.12 1513608 -1178 3148 1 -102 21 55 -24 78 0 0 0.000 1.000 0.000 
5.14 1516676 -1178 3068 0 -80 -1 54 -24 77 0 0 0.000 1.000 0.000 
5.16 1519679 -1194 3003 -16 -65 -16 52 -24 76 0 0 0.000 1.000 0.000 
5.18 1522594 -1203 2915 -9 -88 7 50 -24 75 0 0 0.000 1.000 0.000 
5.20 1525393 -1176 2799 27 -116 36 50 -24 73 1 0 0.000 1.000 0.000 
5.22 1528060 -1099 2667 77 -132 50 52 -22 72 2 0 0.000 1.000 0.000 
5.24 1530519 -894 2459 205 -208 128 57 -18 71 4 0 0.000 1.000 0.000 
5.26 1532753 -545 2234 349 -225 144 67 -11 71 7 0 0.000 1.000 0.000 
5.28 1534897 -187 2144 358 -90 9 74 -4 70 7 0 0.000 1.000 0.000 
5.30 1537098 33 2201 220 57 -138 75 1 70 4 0 0.000 1.000 0.000 
5.32 1539359 112 2261 79 60 -141 74 2 70 2 0 0.000 1.000 0.000 
5.34 1541676 55 2317 -57 56 -136 70 1 70 -1 0 0.000 1.000 0.000 
5.36 1544046 -137 2370 -192 53 -135 63 -3 70 -4 0 0.000 1.000 0.000 
5.38 1546367 -360 2321 -223 -49 -31 58 -7 69 -4 0 0.000 1.000 0.000 
5.40 1548564 -540 2197 -180 -124 43 54 -11 69 -4 0 0.000 1.000 0.000 
5.42 1550625 -665 2061 -125 -136 55 52 -13 68 -3 0 0.000 1.000 0.000 
5.44 1552576 -761 1951 -96 -110 29 50 -15 67 -2 0 0.000 1.000 0.000 
5.46 1554379 -790 1803 -29 -148 67 50 -16 66 -1 0 0.000 1.000 0.000 
5.48 1555999 -716 1620 74 -183 103 53 -14 66 1 0 0.000 1.000 0.000 
5.50 1557480 -585 1481 131 -139 57 56 -12 65 3 0 0.000 1.000 0.000 
5.52 1558830 -403 1350 182 -131 51 60 -8 64 4 0 0.000 1.000 0.000 
5.54 1559994 -116 1164 287 -186 105 68 -2 64 6 0 0.000 1.000 0.000 
5.56 1561048 200 1054 316 -110 29 75 4 64 6 0 0.000 1.000 0.000 
5.58 1562381 156 1333 -44 279 -360 67 3 64 -1 0 0.000 1.000 0.000 
5.60 1563845 -99 1464 -255 131 -211 57 -2 64 -5 0 0.000 1.000 0.000 
5.62 1565227 -354 1382 -255 -82 0 52 -7 64 -5 0 0.000 1.000 0.000 
5.64 1566432 -512 1205 -158 -177 97 50 -10 63 -3 0 0.000 1.000 0.000 
5.66 1567480 -594 1048 -82 -157 76 49 -12 63 -2 0 0.000 1.000 0.000 
5.68 1568484 -714 1004 -120 -44 -38 45 -14 62 -2 0 0.000 1.000 0.000 
5.70 1569476 -901 992 -187 -12 -67 39 -18 61 -4 0 0.000 1.000 0.000 
5.72 1570417 -1119 941 -218 -51 -31 33 -22 60 -4 0 0.000 1.000 0.000 
5.74 1571157 -1217 740 -98 -201 120 32 -24 58 -2 0 0.000 1.000 0.000 
5.76 1571660 -1158 503 59 -237 157 35 -23 57 1 0 0.000 1.000 0.000 
5.78 1572138 -1156 478 2 -25 -57 33 -23 56 0 0 0.000 1.000 0.000 
5.80 1572615 -1233 477 -77 -1 -79 28 -25 55 -2 0 0.000 1.000 0.000 
5.82 1573087 -1386 472 -153 -5 -76 22 -28 53 -3 0 0.000 1.000 0.000 
5.84 1573557 -1618 470 -232 -2 -79 14 -32 51 -5 0 0.000 1.000 0.000 
5.86 1574030 -1934 473 -316 3 -84 5 -39 50 -6 0 0.000 1.000 0.000 
5.88 1574118 -1946 88 -12 -385 304 8 -39 48 0 0 0.000 1.000 0.000 
5.90 1574320 -2139 202 -193 114 -181 -1 -43 45 -4 0 0.000 1.000 0.000 
5.92 1574364 -2183 44 -44 -158 149 -1 -44 43 -1 0 0.000 1.000 0.000 
5.94 1574357 -2176 -7 7 -51 51 -2 -44 41 0 0 0.000 1.000 0.000 
5.96 1574354 -2173 -3 3 4 -4 -5 -43 39 0 0 0.000 1.000 0.000 
5.98 1574353 -2172 -1 1 2 -2 -7 -43 36 0 0 0.000 1.000 0.000 
6.00 1573990 -1809 -363 363 -362 362 6 -36 35 7 0 0.000 1.000 0.000 
6.02 1573843 -1662 -147 147 216 -216 3 -33 33 3 0 0.000 1.000 0.000 
6.04 1573843 -1662 0 0 147 -147 -2 -33 31 0 0 0.000 1.000 0.000 
6.06 1573843 -1662 0 0 0 0 -4 -33 30 0 0 0.000 1.000 0.000 
6.08 1573843 -1662 0 0 0 0 -5 -33 28 0 0 0.000 1.000 0.000 
6.10 1573843 -1662 0 0 0 0 -7 -33 26 0 0 0.000 1.000 0.000 
6.12 1573432 -1251 -411 411 -411 411 8 -25 25 8 0 0.000 1.000 0.000 
6.14 1573484 -1303 52 -52 463 -463 -3 -26 24 -1 0 0.000 1.000 0.000 
6.16 1573528 -1347 44 -44 -8 8 -6 -27 22 -1 0 0.000 1.000 0.000 
6.18 1573527 -1346 -1 1 -45 45 -6 -27 21 0 0 0.000 1.000 0.000 
6.20 1573527 -1346 0 0 1 -1 -8 -27 19 0 0 0.000 1.000 0.000 
6.22 1573144 -963 -383 383 -383 383 7 -19 18 8 0 0.000 1.000 0.000 
6.24 1573134 -953 -10 10 373 -373 -2 -19 17 0 0 0.000 1.000 0.000 
6.26 1573158 -977 24 -24 34 -34 -4 -20 16 0 0 0.000 1.000 0.000 
6.28 1573157 -976 -1 1 -25 25 -4 -20 15 0 0 0.000 1.000 0.000 
6.30 1573157 -976 0 0 1 -1 -5 -20 14 0 0 0.000 1.000 0.000 
6.32 1573157 -976 0 0 0 0 -7 -20 13 0 0 0.000 1.000 0.000 
6.34 1572845 -664 -312 312 -312 312 5 -13 12 6 0 0.000 1.000 0.000 
6.36 1572693 -512 -152 152 160 -160 4 -10 12 3 0 0.000 1.000 0.000 
6.38 1572692 -511 -1 1 151 -151 1 -10 11 0 0 0.000 1.000 0.000 
6.40 1572692 -511 0 0 1 -1 0 -10 10 0 0 0.000 1.000 0.000 
6.42 1572692 -511 0 0 0 0 0 -10 10 0 0 0.000 1.000 0.000 
6.44 1572692 -511 0 0 0 0 -1 -10 9 0 0 0.000 1.000 0.000 
6.46 1572692 -511 0 0 0 0 -1 -10 9 0 0 0.000 1.000 0.000 
6.48 1572692 -511 0 0 0 0 -2 -10 8 0 0 0.000 1.000 0.000 
6.50 1572692 -511 0 0 0 0 -3 -10 8 0 0 0.000 1.000 0.000 
6.52 1572692 -511 0 0 0 0 -3 -10 7 0 0 0.000 1.000 0.000 
6.54 1572692 -511 0 0 0 0 -4 -10 6 0 0 0.000 1.000 0.000 
6.56 1572692 -511 0 0 0 0 -4 -10 6 0 0 0.000 1.000 0.000 
6.58 1572692 -511 0 0 0 0 -5 -10 5 0 0 0.000 1.000 0.000 
6.60 1572692 -511 0 0 0 0 -6 -10 5 0 0 0.000 1.000 0.000 
6.62 1572692 -511 0 0 0 0 -6 -10 4 0 0 0.000 1.000 0.000 
6.64 1572692 -511 0 0 0 0 -7 -10 4 0 0 0.000 1.000 0.000 
6.66 1572390 -209 -302 302 -302 302 5 -4 3 6 0 0.000 1.000 0.000 
6.68 1572258 -77 -132 132 170 -170 4 -2 3 3 0 0.000 1.000 0.000 
6.70 1572258 -77 0 0 132 -132 1 -2 3 0 0 0.000 1.000 0.000 
6.72 1572258 -77 0 0 0 0 1 -2 3 0 0 0.000 1.000 0.000 
6.74 1572258 -77 0 0 0 0 1 -2 3 0 0 0.000 1.000 0.000 
6.76 1572258 -77 0 0 0 0 1 -2 3 0 0 0.000 1.000 0.000 
6.78 1572258 -77 0 0 0 0 1 -2 2 0 0 0.000 1.000 0.000 
6.80 1572258 -77 0 0 0 0 1 -2 2 0 0 0.000 1.000 0.000 
6.82 1572258 -77 0 0 0 0 1 -2 2 0 0 0.000 1.000 0.000 
6.84 1572258 -77 0 0 0 0 1 -2 2 0 0 0.000 1.000 0.000 
6.86 1572258 -77 0 0 0 0 0 -2 2 0 0 0.000 1.000 0.000 
6.88 1572258 -77 0 0 0 0 0 -2 2 0 0 0.000 1.000 0.000 
6.90 1572258 -77 0 0 0 0 0 -2 2 0 0 0.000 1.000 0.000 
6.92 1572258 -77 0 0 0 0 0 -2 2 0 0 0.000 1.000 0.000 
6.94 1572258 -77 0 0 0 0 0 -2 1 0 0 0.000 1.000 0.000 
6.96 1572258 -77 0 0 0 0 0 -2 1 0 0 0.000 1.000 0.000 
6.98 1572258 -77 0 0 0 0 0 -2 1 0 0 0.000 1.000 0.000 