0.02 0 18 0 18 0 18 14 5 1 7 41 0.000 1.000 0.000 
0.04 0 75 0 57 0 39 12 23 -34 23 38 0.000 1.000 0.000 
0.06 0 170 0 95 0 38 31 51 -58 38 35 0.000 1.000 0.000 
0.08 0 302 0 132 0 37 75 91 -69 53 34 0.000 1.000 0.000 
0.10 0 473 0 171 0 39 145 142 -65 68 34 0.000 1.000 0.000 
0.12 0 681 0 208 0 37 243 204 -45 83 36 0.000 1.000 0.000 
0.14 0 927 0 246 0 38 369 278 -7 98 40 0.000 1.000 0.000 
0.16 20 1191 20 264 20 18 511 357 48 106 46 0.000 1.000 0.000 
0.18 124 1408 104 217 84 -47 624 422 115 87 52 0.000 1.000 0.000 
0.20 295 1597 171 189 67 -28 745 479 190 76 60 0.000 1.000 0.000 
0.22 453 1836 158 239 -13 50 923 551 277 96 69 0.000 1.000 0.000 
0.24 639 2085 186 249 28 10 1100 626 375 100 78 0.000 1.000 0.000 
0.26 935 2263 296 178 110 -71 1228 679 478 71 7 0.000 1.000 0.000 
0.28 1394 2315 459 52 163 -126 1371 695 656 21 25 0.000 1.000 0.000 
0.30 2027 2230 633 -85 174 -137 1445 669 810 -34 40 0.000 1.000 0.000 
0.32 2769 2075 742 -155 109 -70 1496 623 936 -62 53 0.000 1.000 0.000 
0.34 3595 1873 826 -202 84 -47 1514 562 1033 -81 62 0.000 1.000 0.000 
0.36 4545 1586 950 -287 124 -85 1459 476 1098 -115 69 0.000 1.000 0.000 
0.38 5575 1256 1030 -330 80 -43 1374 377 1129 -132 72 0.000 1.000 0.000 
0.40 6456 1113 881 -143 -149 187 1423 334 1146 -57 74 0.000 1.000 0.000 
0.42 7276 1069 820 -44 -61 99 1461 321 1158 -18 75 0.000 1.000 0.000 
0.44 8228 930 952 -139 132 -95 1381 279 1158 -56 75 0.000 1.000 0.000 
0.46 9165 845 937 -85 -15 54 1370 254 1150 -34 74 0.000 1.000 0.000 
0.48 9998 901 833 56 -104 141 1441 270 1148 22 74 0.000 1.000 0.000 
0.50 10896 931 898 30 65 -26 1440 279 1149 12 74 0.000 1.000 0.000 
0.52 11899 893 1003 -38 105 -68 1399 268 1147 -15 74 0.000 1.000 0.000 
0.54 12925 870 1026 -23 23 15 1394 261 1142 -9 73 0.000 1.000 0.000 
0.56 13867 969 942 99 -84 122 1477 291 1147 40 74 0.000 1.000 0.000 
0.58 14817 1097 950 128 8 29 1541 329 1161 51 75 0.000 1.000 0.000 
0.60 15990 1041 1173 -56 223 -184 1459 312 1169 -22 76 0.000 1.000 0.000 
0.62 17198 987 1208 -54 35 2 1446 296 1172 -22 76 0.000 1.000 0.000 
0.64 18278 1099 1080 112 -128 166 1558 330 1184 45 77 0.000 1.000 0.000 
0.66 19407 1200 1129 101 49 -11 1603 360 1202 40 79 0.000 1.000 0.000 
0.68 20785 1090 1378 -110 249 -211 1493 327 1210 -44 80 0.000 1.000 0.000 
0.70 22206 975 1421 -115 43 -5 1455 293 1208 -46 80 0.000 1.000 0.000 
0.72 23476 1048 1270 73 -151 188 1556 314 1212 29 80 0.000 1.000 0.000 
0.74 24790 1116 1314 68 44 -5 1583 335 1221 27 81 0.000 1.000 0.000 
0.76 26302 1023 1512 -93 198 -161 1491 307 1222 -37 81 0.000 1.000 0.000 
0.78 27819 963 1517 -60 5 33 1482 289 1218 -24 81 0.000 1.000 0.000 
0.80 29244 1033 1425 70 -92 130 1557 310 1219 28 81 0.000 1.000 0.000 
0.82 30646 1164 1402 131 -23 61 1633 349 1232 52 82 0.000 1.000 0.000 
0.84 32233 1148 1587 -16 185 -147 1579 344 1241 -6 83 0.000 1.000 0.000 
0.86 33996 993 1763 -155 176 -139 1473 298 1237 -62 83 0.000 1.000 0.000 
0.88 35662 973 1666 -20 -97 135 1516 292 1232 -8 82 0.000 1.000 0.000 
0.90 37216 1104 1554 131 -112 151 1622 331 1238 52 83 0.000 1.000 0.000 
0.92 38934 1108 1718 4 164 -127 1578 332 1244 2 83 0.000 1.000 0.000 
0.94 40703 1099 1769 -9 51 -13 1575 330 1249 -4 84 0.000 1.000 0.000 
0.96 42282 1317 1579 218 -190 227 1752 395 1270 87 86 0.000 1.000 0.000 
0.98 43868 1567 1586 250 7 32 1880 470 1309 100 90 0.000 1.000 0.000 
1.00 45710 1598 1842 31 256 -219 1839 479 1347 12 94 0.000 1.000 0.000 
1.02 47662 1539 1952 -59 110 -90 1815 462 1377 -24 97 0.000 1.000 0.000 
1.04 49595 1498 1933 -41 -19 18 1833 449 1400 -16 99 0.000 1.000 0.000 
1.06 51572 1413 1977 -85 44 -44 1804 424 1414 -34 100 0.000 1.000 0.000 
1.08 53600 1278 2028 -135 51 -50 1745 383 1416 -54 101 0.000 1.000 0.000 
1.10 55645 1125 2045 -153 17 -18 1681 338 1405 -61 100 0.000 1.000 0.000 
1.12 57563 1099 1918 -26 -127 127 1713 330 1393 -10 98 0.000 1.000 0.000 
1.14 59391 1164 1828 65 -90 91 1763 349 1388 26 98 0.000 1.000 0.000 
1.16 61281 1166 1890 2 62 -63 1734 350 1383 1 97 0.000 1.000 0.000 
1.18 63223 1117 1942 -49 52 -51 1691 335 1375 -20 97 0.000 1.000 0.000 
1.20 65065 1167 1842 50 -100 99 1742 350 1372 20 96 0.000 1.000 0.000 
1.22 66933 1191 1868 24 26 -26 1738 357 1371 10 96 0.000 1.000 0.000 
1.24 68912 1105 1979 -86 111 -110 1661 332 1363 -34 95 0.000 1.000 0.000 
1.26 70903 1006 1991 -99 12 -13 1611 302 1349 -40 94 0.000 1.000 0.000 
1.28 72837 964 1934 -42 -57 57 1604 289 1332 -17 92 0.000 1.000 0.000 
1.30 74745 949 1908 -15 -26 27 1594 285 1315 -6 91 0.000 1.000 0.000 
1.32 76649 937 1904 -12 -4 3 1576 281 1300 -5 89 0.000 1.000 0.000 
1.34 78563 915 1914 -22 10 -10 1550 275 1284 -9 87 0.000 1.000 0.000 
1.36 80443 928 1880 13 -34 35 1554 278 1271 5 86 0.000 1.000 0.000 
1.38 82252 1011 1809 83 -71 70 1602 303 1266 33 86 0.000 1.000 0.000 
1.40 84144 1011 1892 0 83 -83 1564 303 1261 0 85 0.000 1.000 0.000 
1.42 86083 965 1939 -46 47 -46 1524 290 1253 -18 84 0.000 1.000 0.000 
1.44 87987 953 1904 -12 -35 34 1526 286 1245 -5 84 0.000 1.000 0.000 
1.46 89906 927 1919 -26 15 -14 1503 278 1235 -10 83 0.000 1.000 0.000 
1.48 91861 864 1955 -63 36 -37 1456 259 1222 -25 81 0.000 1.000 0.000 
1.50 93833 784 1972 -80 17 -17 1407 235 1203 -32 79 0.000 1.000 0.000 
1.52 95782 728 1949 -56 -23 24 1378 218 1182 -22 77 0.000 1.000 0.000 
1.54 97668 734 1886 6 -63 62 1386 220 1164 2 75 0.000 1.000 0.000 
1.56 99511 783 1843 49 -43 43 1405 235 1151 20 74 0.000 1.000 0.000 
1.58 101376 811 1865 28 22 -21 1396 243 1142 11 73 0.000 1.000 0.000 
1.60 103257 822 1881 11 16 -17 1385 247 1134 4 72 0.000 1.000 0.000 
1.62 105083 888 1826 66 -55 55 1426 266 1133 26 72 0.000 1.000 0.000 
1.64 106943 921 1860 33 34 -33 1424 276 1134 13 72 0.000 1.000 0.000 
1.66 108896 860 1953 -61 93 -94 1364 258 1130 -24 72 0.000 1.000 0.000 
1.68 110827 821 1931 -39 -22 22 1355 246 1124 -16 71 0.000 1.000 0.000 
1.70 112726 815 1899 -6 -32 33 1360 245 1118 -2 71 0.000 1.000 0.000 
1.72 114619 814 1893 -1 -6 5 1356 244 1112 0 70 0.000 1.000 0.000 
1.74 116536 789 1917 -25 24 -24 1332 237 1105 -10 70 0.000 1.000 0.000 
1.76 118463 755 1927 -34 10 -9 1309 227 1096 -14 69 0.000 1.000 0.000 
1.78 120328 782 1865 27 -62 61 1335 235 1090 11 68 0.000 1.000 0.000 
1.80 122180 823 1852 41 -13 14 1351 247 1088 16 68 0.000 1.000 0.000 
1.82 124152 743 1972 -80 120 -121 1270 223 1079 -32 67 0.000 1.000 0.000 
1.84 126107 680 1955 -63 -17 17 1245 204 1067 -25 66 0.000 1.000 0.000 
1.86 127959 721 1852 41 -103 104 1291 216 1059 16 65 0.000 1.000 0.000 
1.88 129820 752 1861 31 9 -10 1292 226 1054 12 64 0.000 1.000 0.000 
1.90 131705 759 1885 7 24 -24 1281 228 1050 3 64 0.000 1.000 0.000 
1.92 133563 794 1858 35 -27 28 1302 238 1050 14 64 0.000 1.000 0.000 
1.94 135436 813 1873 19 15 -16 1302 244 1051 8 64 0.000 1.000 0.000 
1.96 137326 815 1890 2 17 -17 1297 245 1052 1 64 0.000 1.000 0.000 
1.98 139251 783 1925 -32 35 -34 1272 235 1050 -13 64 0.000 1.000 0.000 
2.00 141267 659 2016 -124 91 -92 1187 198 1039 -50 63 0.000 1.000 0.000 
2.02 143217 601 1950 -58 -66 66 1181 180 1024 -23 61 0.000 1.000 0.000 
2.04 145093 618 1876 17 -74 75 1204 185 1012 7 60 0.000 1.000 0.000 
2.06 146999 604 1906 -14 30 -31 1176 181 1000 -6 59 0.000 1.000 0.000 
2.08 148864 631 1865 27 -41 41 1192 189 991 11 58 0.000 1.000 0.000 
2.10 150684 704 1820 73 -45 46 1230 211 990 29 58 0.000 1.000 0.000 
2.12 152557 723 1873 19 53 -54 1214 217 989 8 58 0.000 1.000 0.000 
2.14 154453 720 1896 -3 23 -22 1204 216 989 -1 58 0.000 1.000 0.000 
2.16 156387 678 1934 -42 38 -39 1172 203 985 -17 58 0.000 1.000 0.000 
2.18 158375 582 1988 -96 54 -54 1110 175 974 -38 56 0.000 1.000 0.000 
2.20 160316 534 1941 -48 -47 48 1102 160 961 -19 55 0.000 1.000 0.000 
2.22 162228 514 1912 -20 -29 28 1093 154 947 -8 54 0.000 1.000 0.000 
2.24 164131 503 1903 -11 -9 9 1080 151 933 -4 52 0.000 1.000 0.000 
2.26 166010 517 1879 14 -24 25 1083 155 922 6 51 0.000 1.000 0.000 
2.28 167890 529 1880 12 1 -2 1077 159 913 5 50 0.000 1.000 0.000 
2.30 169778 533 1888 4 8 -8 1067 160 905 2 50 0.000 1.000 0.000 
2.32 171595 609 1817 76 -71 72 1118 183 905 30 50 0.000 1.000 0.000 
2.34 173465 631 1870 22 53 -54 1104 189 906 9 50 0.000 1.000 0.000 
2.36 175434 554 1969 -77 99 -99 1036 166 900 -31 49 0.000 1.000 0.000 
2.38 177372 509 1938 -45 -31 32 1027 153 892 -18 48 0.000 1.000 0.000 
2.40 179259 514 1887 5 -51 50 1041 154 885 2 48 0.000 1.000 0.000 
2.42 181196 470 1937 -44 50 -49 998 141 875 -18 47 0.000 1.000 0.000 
2.44 183153 405 1957 -65 20 -21 956 122 861 -26 45 0.000 1.000 0.000 
2.46 185072 378 1919 -27 -38 38 948 113 846 -11 44 0.000 1.000 0.000 
2.48 186948 395 1876 17 -43 44 959 119 834 7 42 0.000 1.000 0.000 
2.50 188815 420 1867 25 -9 8 961 126 825 10 42 0.000 1.000 0.000 
2.52 190732 376 1917 -44 50 -69 909 113 813 -18 40 0.000 1.000 0.000 
2.54 192652 292 1920 -84 3 -40 850 88 796 -34 39 0.000 1.000 0.000 
2.56 194472 270 1820 -22 -100 62 852 81 779 -9 37 0.000 1.000 0.000 
2.58 196249 253 1777 -17 -43 5 832 76 763 -7 35 0.000 1.000 0.000 
2.60 198033 191 1784 -62 7 -45 775 57 743 -25 33 0.000 1.000 0.000 
2.62 199726 182 1693 -9 -91 53 775 55 724 -4 31 0.000 1.000 0.000 
2.64 201315 239 1589 57 -104 66 806 72 712 23 30 0.000 1.000 0.000 
2.66 202890 273 1575 34 -14 -23 799 82 703 14 29 0.000 1.000 0.000 
2.68 204435 298 1545 25 -30 -9 797 89 698 10 29 0.000 1.000 0.000 
2.70 205963 303 1528 5 -17 -20 786 91 693 2 28 0.000 1.000 0.000 
2.72 207503 258 1540 -45 12 -50 745 77 685 -18 28 0.000 1.000 0.000 
2.74 209005 213 1502 -45 -38 0 721 64 675 -18 27 0.000 1.000 0.000 
2.76 210488 149 1483 -64 -19 -19 679 45 660 -26 25 0.000 1.000 0.000 
2.78 211919 100 1431 -49 -52 15 654 30 643 -20 23 0.000 1.000 0.000 
2.80 213262 100 1343 0 -88 49 658 30 628 0 22 0.000 1.000 0.000 
2.82 214575 93 1313 -7 -30 -7 638 28 613 -3 20 0.000 1.000 0.000 
2.84 215841 95 1266 2 -47 9 630 29 601 1 19 0.000 1.000 0.000 
2.86 217030 136 1189 41 -77 39 650 41 592 16 18 0.000 1.000 0.000 
2.88 218193 165 1163 29 -26 -12 648 50 587 12 18 0.000 1.000 0.000 
2.90 219351 161 1158 -4 -5 -33 629 48 582 -2 17 0.000 1.000 0.000 
2.92 220480 149 1129 -12 -29 -8 617 45 577 -5 17 0.000 1.000 0.000 
2.94 221600 108 1120 -41 -9 -29 585 32 569 -16 16 0.000 1.000 0.000 
2.96 222693 55 1093 -53 -27 -12 553 17 557 -21 15 0.000 1.000 0.000 
2.98 223726 25 1033 -30 -60 23 540 8 545 -12 14 0.000 1.000 0.000 
3.00 224696 20 970 -5 -63 25 537 6 533 -2 12 0.000 1.000 0.000 
3.02 225615 29 919 9 -51 14 535 9 523 4 11 0.000 1.000 0.000 
3.04 226494 39 879 10 -40 1 530 12 514 4 10 0.000 1.000 0.000 
3.06 227330 55 836 16 -43 6 531 17 508 6 10 0.000 1.000 0.000 
3.08 228108 90 778 35 -58 19 547 27 506 14 10 0.000 1.000 0.000 
3.10 228861 113 753 23 -25 -12 548 34 505 9 10 0.000 1.000 0.000 
3.12 229621 91 760 -22 7 -45 521 27 503 -9 9 0.000 1.000 0.000 
3.14 230380 32 759 -59 -1 -37 482 10 496 -24 9 0.000 1.000 0.000 
3.16 231099 -24 719 -56 -40 3 456 -7 485 -22 8 0.000 1.000 0.000 
3.18 231738 -39 639 -15 -80 41 457 -12 475 -6 7 0.000 1.000 0.000 
3.20 232318 -32 580 7 -59 22 459 -10 466 3 6 0.000 1.000 0.000 
3.22 232843 -8 525 24 -55 17 467 -2 459 10 5 0.000 1.000 0.000 
3.24 233334 11 491 19 -34 -5 466 3 455 8 5 0.000 1.000 0.000 
3.26 233775 44 441 33 -50 14 481 13 454 13 4 0.000 1.000 0.000 
3.28 234209 45 434 1 -7 -32 467 14 453 0 4 0.000 1.000 0.000 
3.30 234636 15 427 -30 -7 -31 443 5 450 -12 4 0.000 1.000 0.000 
3.32 235047 -36 411 -51 -16 -21 412 -11 443 -20 3 0.000 1.000 0.000 
3.34 235404 -72 357 -36 -54 15 398 -22 434 -14 2 0.000 1.000 0.000 
3.36 235684 -68 280 4 -77 40 407 -20 426 2 2 0.000 1.000 0.000 
3.38 235903 -41 219 27 -61 23 420 -12 421 11 1 0.000 1.000 0.000 
3.40 236073 -3 170 38 -49 11 434 -1 420 15 1 0.000 1.000 0.000 
3.42 236202 39 129 42 -41 4 450 12 422 17 1 0.000 1.000 0.000 
3.44 236299 74 97 35 -32 -7 463 22 427 14 2 0.000 1.000 0.000 
3.46 236378 90 79 16 -18 -19 465 27 432 6 2 0.000 1.000 0.000 
3.48 236445 80 67 -10 -12 -26 456 24 436 -4 3 0.000 1.000 0.000 
3.50 236495 49 50 -31 -17 -21 440 15 437 -12 3 0.000 1.000 0.000 
3.52 236527 17 32 -32 -18 -1 428 5 436 -13 3 0.000 1.000 0.000 
3.54 236534 10 7 -7 -25 25 434 3 434 -3 2 0.000 1.000 0.000 
3.56 236534 10 0 0 -7 7 436 3 433 0 2 0.000 1.000 0.000 
3.58 236534 10 0 0 0 0 434 3 431 0 2 0.000 1.000 0.000 
3.60 236534 10 0 0 0 0 433 3 430 0 2 0.000 1.000 0.000 
3.62 236534 10 0 0 0 0 431 3 428 0 2 0.000 1.000 0.000 
3.64 236534 10 0 0 0 0 430 3 427 0 2 0.000 1.000 0.000 
3.66 236534 10 0 0 0 0 429 3 426 0 2 0.000 1.000 0.000 
3.68 236534 10 0 0 0 0 428 3 425 0 2 0.000 1.000 0.000 
3.70 236534 10 0 0 0 0 428 3 425 0 2 0.000 1.000 0.000 
3.72 236534 10 0 0 0 0 427 3 424 0 1 0.000 1.000 0.000 
3.74 236534 10 0 0 0 0 426 3 423 0 1 0.000 1.000 0.000 
3.76 236534 10 0 0 0 0 426 3 423 0 1 0.000 1.000 0.000 
3.78 236534 10 0 0 0 0 425 3 422 0 1 0.000 1.000 0.000 
3.80 236534 10 0 0 0 0 425 3 422 0 1 0.000 1.000 0.000 
3.82 236534 10 0 0 0 0 424 3 421 0 1 0.000 1.000 0.000 
3.84 236534 10 0 0 0 0 424 3 421 0 1 0.000 1.000 0.000 
3.86 236534 10 0 0 0 0 424 3 421 0 1 0.000 1.000 0.000 
3.88 236534 10 0 0 0 0 423 3 420 0 1 0.000 1.000 0.000 
3.90 236534 10 0 0 0 0 423 3 420 0 1 0.000 1.000 0.000 
3.92 236534 10 0 0 0 0 423 3 420 0 1 0.000 1.000 0.000 
3.94 236534 10 0 0 0 0 423 3 420 0 1 0.000 1.000 0.000 
3.96 236534 10 0 0 0 0 422 3 419 0 1 0.000 1.000 0.000 
3.98 236534 10 0 0 0 0 422 3 419 0 1 0.000 1.000 0.000 