0.02 0 18 0 18 0 18 21 5 1 14 41 0.000 1.000 0.000 
0.04 0 75 0 57 0 39 34 23 -34 46 38 0.000 1.000 0.000 
0.06 0 170 0 95 0 38 69 51 -58 76 35 0.000 1.000 0.000 
0.08 0 302 0 132 0 37 128 91 -69 106 34 0.000 1.000 0.000 
0.10 0 473 0 171 0 39 214 142 -65 137 34 0.000 1.000 0.000 
0.12 0 681 0 208 0 37 326 204 -45 166 36 0.000 1.000 0.000 
0.14 0 927 0 246 0 38 468 278 -7 197 40 0.000 1.000 0.000 
0.16 8 1203 8 276 8 30 631 361 49 221 46 0.000 1.000 0.000 
0.18 89 1443 81 240 73 -36 743 433 118 192 53 0.000 1.000 0.000 
0.20 241 1651 152 208 71 -32 859 495 198 166 61 0.000 1.000 0.000 
0.22 410 1879 169 228 17 20 1033 564 287 182 70 0.000 1.000 0.000 
0.24 669 2055 259 176 90 -52 1139 617 382 141 79 0.000 1.000 0.000 
0.26 1129 2069 460 14 201 -162 1100 621 468 11 6 0.000 1.000 0.000 
0.28 1576 2133 447 64 -13 50 1324 640 633 51 22 0.000 1.000 0.000 
0.30 2056 2201 480 68 33 4 1502 660 787 54 38 0.000 1.000 0.000 
0.32 2784 2060 728 -141 248 -209 1419 618 914 -113 50 0.000 1.000 0.000 
0.34 3578 1890 794 -170 66 -29 1446 567 1015 -136 61 0.000 1.000 0.000 
0.36 4343 1788 765 -102 -29 68 1552 536 1097 -82 69 0.000 1.000 0.000 
0.38 5298 1533 955 -255 190 -153 1407 460 1151 -204 74 0.000 1.000 0.000 
0.40 6364 1205 1066 -328 111 -73 1272 362 1173 -262 76 0.000 1.000 0.000 
0.42 7325 1020 961 -185 -105 143 1337 306 1179 -148 77 0.000 1.000 0.000 
0.44 8184 974 859 -46 -102 139 1435 292 1180 -37 77 0.000 1.000 0.000 
0.46 9131 879 947 -95 88 -49 1361 264 1173 -76 76 0.000 1.000 0.000 
0.48 10080 819 949 -60 2 35 1360 246 1162 -48 75 0.000 1.000 0.000 
0.50 10901 926 821 107 -128 167 1524 278 1161 86 75 0.000 1.000 0.000 
0.52 11854 938 953 12 132 -95 1452 281 1161 10 75 0.000 1.000 0.000 
0.54 12981 814 1127 -124 174 -136 1296 244 1151 -99 74 0.000 1.000 0.000 
0.56 13956 880 975 66 -152 190 1464 264 1147 53 74 0.000 1.000 0.000 
0.58 14861 1053 905 173 -70 107 1612 316 1158 138 75 0.000 1.000 0.000 
0.60 15962 1069 1101 16 196 -157 1502 321 1168 13 76 0.000 1.000 0.000 
0.62 17206 979 1244 -90 143 -106 1392 294 1171 -72 76 0.000 1.000 0.000 
0.64 18330 1047 1124 68 -120 158 1547 314 1178 54 77 0.000 1.000 0.000 
0.66 19452 1155 1122 108 -2 40 1627 347 1194 86 78 0.000 1.000 0.000 
0.68 20862 1013 1410 -142 288 -250 1387 304 1196 -114 79 0.000 1.000 0.000 
0.70 22258 923 1396 -90 -14 52 1396 277 1192 -72 78 0.000 1.000 0.000 
0.72 23459 1065 1201 142 -195 232 1632 320 1199 114 79 0.000 1.000 0.000 
0.74 24790 1116 1331 51 130 -91 1585 335 1209 41 80 0.000 1.000 0.000 
0.76 26355 970 1565 -146 234 -197 1381 291 1207 -117 80 0.000 1.000 0.000 
0.78 27784 998 1429 28 -136 174 1529 299 1207 22 80 0.000 1.000 0.000 
0.80 29111 1166 1327 168 -102 140 1704 350 1220 134 81 0.000 1.000 0.000 
0.82 30753 1057 1642 -109 315 -277 1454 317 1224 -87 81 0.000 1.000 0.000 
0.84 32385 996 1632 -61 -10 48 1472 299 1222 -49 81 0.000 1.000 0.000 
0.86 33747 1242 1362 246 -270 307 1810 373 1240 197 83 0.000 1.000 0.000 
0.88 35292 1343 1545 101 183 -145 1748 403 1265 81 86 0.000 1.000 0.000 
0.90 37039 1281 1747 -62 202 -163 1616 384 1281 -50 87 0.000 1.000 0.000 
0.92 38632 1410 1593 129 -154 191 1833 423 1307 103 90 0.000 1.000 0.000 
0.94 40213 1589 1581 179 -12 50 1964 477 1344 143 93 0.000 1.000 0.000 
0.96 42017 1582 1804 -7 223 -186 1847 475 1378 -6 97 0.000 1.000 0.000 
0.98 43854 1581 1837 -1 33 6 1881 474 1407 -1 100 0.000 1.000 0.000 
1.00 45667 1641 1813 60 -24 61 1979 492 1439 48 103 0.000 1.000 0.000 
1.02 47595 1606 1928 -35 115 -95 1918 482 1464 -28 105 0.000 1.000 0.000 
1.04 49645 1448 2050 -158 122 -123 1783 434 1475 -126 107 0.000 1.000 0.000 
1.06 51694 1291 2049 -157 -1 1 1733 387 1471 -126 106 0.000 1.000 0.000 
1.08 53631 1247 1937 -44 -112 113 1804 374 1465 -35 106 0.000 1.000 0.000 
1.10 55551 1219 1920 -28 -17 16 1800 366 1457 -22 105 0.000 1.000 0.000 
1.12 57569 1093 2018 -126 98 -98 1667 328 1440 -101 103 0.000 1.000 0.000 
1.14 59504 1051 1935 -42 -83 84 1702 315 1421 -34 101 0.000 1.000 0.000 
1.16 61233 1214 1729 163 -206 205 1911 364 1417 130 101 0.000 1.000 0.000 
1.18 63198 1142 1965 -72 236 -235 1692 343 1407 -58 100 0.000 1.000 0.000 
1.20 65284 948 2086 -194 121 -122 1513 284 1383 -155 97 0.000 1.000 0.000 
1.22 67075 1049 1791 101 -295 295 1765 315 1370 81 96 0.000 1.000 0.000 
1.24 68892 1125 1817 76 26 -25 1762 338 1364 61 95 0.000 1.000 0.000 
1.26 70922 987 2030 -138 213 -214 1533 296 1347 -110 94 0.000 1.000 0.000 
1.28 72822 979 1900 -8 -130 130 1619 294 1332 -6 92 0.000 1.000 0.000 
1.30 74592 1102 1770 123 -130 131 1757 331 1328 98 92 0.000 1.000 0.000 
1.32 76543 1043 1951 -59 181 -182 1585 313 1319 -47 91 0.000 1.000 0.000 
1.34 78529 949 1986 -94 35 -35 1514 285 1304 -75 89 0.000 1.000 0.000 
1.36 80410 961 1881 12 -105 106 1590 288 1292 10 88 0.000 1.000 0.000 
1.38 82222 1041 1812 80 -69 68 1663 312 1287 64 88 0.000 1.000 0.000 
1.40 84136 1019 1914 -22 102 -102 1569 306 1281 -18 87 0.000 1.000 0.000 
1.42 86153 895 2017 -124 103 -102 1434 269 1265 -99 86 0.000 1.000 0.000 
1.44 88097 843 1944 -52 -73 72 1458 253 1247 -42 84 0.000 1.000 0.000 
1.46 89941 892 1844 49 -100 101 1541 268 1235 39 83 0.000 1.000 0.000 
1.48 91958 767 2017 -125 173 -174 1344 230 1213 -100 80 0.000 1.000 0.000 
1.50 94017 600 2059 -167 42 -42 1227 180 1181 -134 77 0.000 1.000 0.000 
1.52 95790 720 1773 120 -286 287 1473 216 1161 96 75 0.000 1.000 0.000 
1.54 97527 875 1737 155 -36 35 1543 263 1156 124 75 0.000 1.000 0.000 
1.56 99552 742 2025 -133 288 -288 1257 223 1141 -106 73 0.000 1.000 0.000 
1.58 101499 688 1947 -54 -78 79 1286 206 1123 -43 71 0.000 1.000 0.000 
1.60 103213 866 1714 178 -233 232 1523 260 1121 142 71 0.000 1.000 0.000 
1.62 105117 854 1904 -12 190 -190 1365 256 1118 -10 71 0.000 1.000 0.000 
1.64 107140 724 2023 -130 119 -118 1218 217 1105 -104 70 0.000 1.000 0.000 
1.66 108985 771 1845 47 -178 177 1366 231 1097 38 69 0.000 1.000 0.000 
1.68 110740 908 1755 137 -90 90 1483 272 1101 110 69 0.000 1.000 0.000 
1.70 112649 892 1909 -16 154 -153 1358 268 1103 -13 69 0.000 1.000 0.000 
1.72 114678 755 2029 -137 120 -121 1211 227 1094 -110 68 0.000 1.000 0.000 
1.74 116582 743 1904 -12 -125 125 1299 223 1085 -10 68 0.000 1.000 0.000 
1.76 118356 862 1774 119 -130 131 1440 259 1087 95 68 0.000 1.000 0.000 
1.78 120319 791 1963 -71 189 -190 1263 237 1082 -57 67 0.000 1.000 0.000 
1.80 122382 621 2063 -170 100 -99 1115 186 1065 -136 66 0.000 1.000 0.000 
1.82 124185 710 1803 89 -260 259 1340 213 1056 71 65 0.000 1.000 0.000 
1.84 125926 861 1741 151 -62 62 1439 258 1060 121 65 0.000 1.000 0.000 
1.86 127947 733 2021 -128 280 -279 1171 220 1054 -102 64 0.000 1.000 0.000 
1.88 129948 624 2001 -109 -20 19 1139 187 1039 -87 63 0.000 1.000 0.000 
1.90 131692 772 1744 148 -257 257 1388 232 1038 118 63 0.000 1.000 0.000 
1.92 133508 849 1816 77 72 -71 1359 255 1043 62 63 0.000 1.000 0.000 
1.94 135507 742 1999 -107 183 -184 1176 223 1039 -86 63 0.000 1.000 0.000 
1.96 137481 660 1974 -82 -25 25 1161 198 1029 -66 62 0.000 1.000 0.000 
1.98 139327 707 1846 47 -128 129 1273 212 1024 38 61 0.000 1.000 0.000 
2.00 141191 735 1864 28 18 -19 1264 221 1021 22 61 0.000 1.000 0.000 
2.02 143207 611 2016 -124 152 -152 1093 183 1009 -99 60 0.000 1.000 0.000 
2.04 145161 550 1954 -61 -62 63 1109 165 993 -49 58 0.000 1.000 0.000 
2.06 146912 691 1751 141 -203 202 1310 207 990 113 58 0.000 1.000 0.000 
2.08 148737 758 1825 67 74 -74 1273 227 992 54 58 0.000 1.000 0.000 
2.10 150761 627 2024 -131 199 -198 1068 188 984 -105 57 0.000 1.000 0.000 
2.12 152690 590 1929 -37 -95 94 1121 177 974 -30 56 0.000 1.000 0.000 
2.14 154508 665 1818 75 -111 112 1230 200 971 60 56 0.000 1.000 0.000 
2.16 156420 645 1912 -20 94 -95 1144 194 966 -16 56 0.000 1.000 0.000 
2.18 158425 532 2005 -113 93 -93 1022 160 953 -90 54 0.000 1.000 0.000 
2.20 160320 530 1895 -2 -110 111 1099 159 941 -2 53 0.000 1.000 0.000 
2.22 162154 588 1834 58 -61 60 1158 176 935 46 53 0.000 1.000 0.000 
2.24 164078 556 1924 -32 90 -90 1068 167 927 -26 52 0.000 1.000 0.000 
2.26 166057 470 1979 -86 55 -54 985 141 913 -69 50 0.000 1.000 0.000 
2.28 167900 519 1843 49 -136 135 1099 156 904 39 49 0.000 1.000 0.000 
2.30 169700 611 1800 92 -43 43 1160 183 903 74 49 0.000 1.000 0.000 
2.32 171649 555 1949 -56 149 -148 1020 167 898 -45 49 0.000 1.000 0.000 
2.34 173650 446 2001 -109 52 -53 932 134 885 -87 48 0.000 1.000 0.000 
2.36 175494 494 1844 48 -157 157 1064 148 877 38 47 0.000 1.000 0.000 
2.38 177321 560 1827 66 -17 18 1096 168 875 53 47 0.000 1.000 0.000 
2.40 179313 460 1992 -100 165 -166 923 138 865 -80 46 0.000 1.000 0.000 
2.42 181287 379 1974 -81 -18 19 899 114 850 -65 44 0.000 1.000 0.000 
2.44 183121 437 1834 58 -140 139 1019 131 841 46 43 0.000 1.000 0.000 
2.46 184961 489 1840 52 6 -6 1025 147 837 42 43 0.000 1.000 0.000 
2.48 186935 408 1974 -81 134 -133 884 122 827 -65 42 0.000 1.000 0.000 
2.50 188923 312 1988 -96 14 -15 827 94 810 -77 40 0.000 1.000 0.000 
2.52 190772 336 1849 24 -139 120 917 101 797 19 39 0.000 1.000 0.000 
2.54 192564 380 1792 44 -57 20 938 114 789 35 38 0.000 1.000 0.000 
2.56 194463 279 1899 -101 107 -145 776 84 773 -81 36 0.000 1.000 0.000 
2.58 196302 200 1839 -79 -60 22 749 60 753 -63 34 0.000 1.000 0.000 
2.60 197973 251 1671 51 -168 130 855 75 738 41 33 0.000 1.000 0.000 
2.62 199606 302 1633 51 -38 0 861 91 730 41 32 0.000 1.000 0.000 
2.64 201296 258 1690 -44 57 -95 761 77 718 -35 31 0.000 1.000 0.000 
2.66 202965 198 1669 -60 -21 -16 715 59 703 -48 29 0.000 1.000 0.000 
2.68 204541 192 1576 -6 -93 54 742 58 689 -5 28 0.000 1.000 0.000 
2.70 206078 188 1537 -4 -39 2 730 56 676 -3 27 0.000 1.000 0.000 
2.72 207587 174 1509 -14 -28 -10 705 52 664 -11 25 0.000 1.000 0.000 
2.74 209086 132 1499 -42 -10 -28 655 40 649 -34 24 0.000 1.000 0.000 
2.76 210495 142 1409 10 -90 52 687 43 636 8 23 0.000 1.000 0.000 
2.78 211860 159 1365 17 -44 7 688 48 626 14 22 0.000 1.000 0.000 
2.80 213234 128 1374 -31 9 -48 628 38 615 -25 21 0.000 1.000 0.000 
2.82 214576 92 1342 -36 -32 -5 600 28 602 -29 19 0.000 1.000 0.000 
2.84 215814 122 1238 30 -104 66 653 37 592 24 18 0.000 1.000 0.000 
2.86 217024 142 1210 20 -28 -10 644 43 585 16 18 0.000 1.000 0.000 
2.88 218263 95 1239 -47 29 -67 566 29 575 -38 17 0.000 1.000 0.000 
2.90 219443 69 1180 -26 -59 21 564 21 564 -21 15 0.000 1.000 0.000 
2.92 220534 95 1091 26 -89 52 606 29 556 21 15 0.000 1.000 0.000 
2.94 221598 110 1064 15 -27 -11 595 33 550 12 14 0.000 1.000 0.000 
2.96 222667 81 1069 -29 5 -44 544 24 543 -23 13 0.000 1.000 0.000 
2.98 223709 42 1042 -39 -27 -10 514 13 533 -31 12 0.000 1.000 0.000 
3.00 224665 51 956 9 -86 48 547 15 525 7 12 0.000 1.000 0.000 
3.02 225571 73 906 22 -50 13 558 22 519 18 11 0.000 1.000 0.000 
3.04 226509 24 938 -49 32 -71 478 7 510 -39 10 0.000 1.000 0.000 
3.06 227429 -44 920 -68 -18 -19 429 -13 496 -54 9 0.000 1.000 0.000 
3.08 228230 -32 801 12 -119 80 485 -10 485 10 8 0.000 1.000 0.000 
3.10 228968 6 738 38 -63 26 510 2 478 30 7 0.000 1.000 0.000 
3.12 229709 3 741 -3 3 -41 470 1 471 -2 6 0.000 1.000 0.000 
3.14 230426 -14 717 -17 -24 -14 446 -4 464 -14 5 0.000 1.000 0.000 
3.16 231097 -22 671 -8 -46 9 444 -7 457 -6 5 0.000 1.000 0.000 
3.18 231736 -37 639 -15 -32 -7 426 -11 449 -12 4 0.000 1.000 0.000 
3.20 232315 -29 579 8 -60 23 441 -9 443 6 3 0.000 1.000 0.000 
3.22 232864 -29 549 0 -30 -8 429 -9 437 0 3 0.000 1.000 0.000 
3.24 233350 -5 486 24 -63 24 452 -2 434 19 2 0.000 1.000 0.000 
3.26 233820 -1 470 4 -16 -20 434 0 432 3 2 0.000 1.000 0.000 
3.28 234272 -18 452 -17 -18 -21 409 -5 428 -14 2 0.000 1.000 0.000 
3.30 234718 -67 446 -49 -6 -32 361 -20 421 -39 1 0.000 1.000 0.000 
3.32 235090 -79 372 -12 -74 37 380 -24 413 -10 0 0.000 1.000 0.000 
3.34 235407 -75 317 4 -55 16 388 -23 407 3 82 0.000 1.000 0.000 
3.36 235696 -80 289 -5 -28 -9 291 -24 319 -4 73 0.000 1.000 0.000 
3.38 235901 -39 205 41 -84 46 264 -12 243 33 65 0.000 1.000 0.000 
3.40 235976 94 75 133 -130 92 320 28 185 106 59 0.000 1.000 0.000 
3.42 235976 265 0 171 -75 38 363 80 147 137 56 0.000 1.000 0.000 
3.44 235977 396 1 131 1 -40 347 119 123 105 53 0.000 1.000 0.000 
3.46 235977 491 0 95 -1 -36 332 147 109 76 52 0.000 1.000 0.000 
3.48 235977 548 0 57 0 -38 311 164 101 46 51 0.000 1.000 0.000 
3.50 235977 567 0 19 0 -38 281 170 95 15 50 0.000 1.000 0.000 
3.52 235977 567 0 0 0 -19 260 170 90 0 50 0.000 1.000 0.000 
3.54 235977 567 0 0 0 0 256 170 86 0 50 0.000 1.000 0.000 
3.56 235977 567 0 0 0 0 252 170 81 0 49 0.000 1.000 0.000 
3.58 235977 567 0 0 0 0 248 170 78 0 49 0.000 1.000 0.000 
3.60 235977 567 0 0 0 0 244 170 74 0 48 0.000 1.000 0.000 
3.62 235977 567 0 0 0 0 241 170 71 0 48 0.000 1.000 0.000 
3.64 235977 567 0 0 0 0 239 170 69 0 48 0.000 1.000 0.000 
3.66 235977 567 0 0 0 0 236 170 66 0 48 0.000 1.000 0.000 
3.68 235977 567 0 0 0 0 234 170 64 0 47 0.000 1.000 0.000 
3.70 235977 567 0 0 0 0 232 170 62 0 47 0.000 1.000 0.000 
3.72 235977 567 0 0 0 0 230 170 60 0 47 0.000 1.000 0.000 
3.74 235977 567 0 0 0 0 229 170 59 0 47 0.000 1.000 0.000 
3.76 235977 567 0 0 0 0 227 170 57 0 47 0.000 1.000 0.000 
3.78 235977 567 0 0 0 0 226 170 56 0 47 0.000 1.000 0.000 
3.80 235977 567 0 0 0 0 225 170 55 0 46 0.000 1.000 0.000 
3.82 235977 567 0 0 0 0 224 170 54 0 46 0.000 1.000 0.000 
3.84 235977 567 0 0 0 0 223 170 53 0 46 0.000 1.000 0.000 
3.86 235977 567 0 0 0 0 222 170 52 0 46 0.000 1.000 0.000 
3.88 235977 567 0 0 0 0 221 170 51 0 46 0.000 1.000 0.000 
3.90 235977 567 0 0 0 0 220 170 50 0 46 0.000 1.000 0.000 
3.92 235977 567 0 0 0 0 220 170 50 0 46 0.000 1.000 0.000 
3.94 235977 567 0 0 0 0 219 170 49 0 46 0.000 1.000 0.000 
3.96 235977 567 0 0 0 0 219 170 49 0 46 0.000 1.000 0.000 
3.98 235977 567 0 0 0 0 218 170 48 0 46 0.000 1.000 0.000 