0.02 0 161 0 161 0 161 15 1500 0 0 0 3.062 
0.04 366 280 366 119 366 -42 18 1500 0 0 0 2.774 
0.06 874 581 508 301 142 182 25 1500 0 0 0 6.613 
0.08 1386 1201 512 620 4 319 39 1500 0 0 0 13.635 
0.10 2109 1933 723 732 211 112 57 1500 0 0 0 17.730 
0.12 3098 2723 989 790 266 58 78 1500 0 0 0 21.154 
0.14 4463 3460 1365 737 376 -53 101 1500 0 0 0 22.650 
0.16 6221 4128 1758 668 393 -69 125 1500 0 0 0 23.674 
0.18 8292 4806 2071 678 313 10 151 1500 0 0 0 25.982 
0.20 10819 5352 2527 546 456 -132 177 1500 0 0 0 25.621 
0.22 13994 5572 3175 220 648 -326 178 1500 0 0 0 21.151 
0.24 17982 5304 3988 -268 813 -488 178 1500 0 0 0 12.566 
0.26 22838 4490 4856 -814 868 -546 178 1500 0 0 0 1.331 
0.28 28434 3261 5596 -1229 740 -415 169 1500 0 0 0 -9.143 
0.30 34622 1762 6188 -1499 592 -270 151 1500 0 0 0 -18.174 
0.32 41117 280 6495 -1482 307 17 128 1500 0 0 0 -22.603 
0.34 47963 -1229 6846 -1509 351 -27 100 1500 0 0 0 -27.815 
0.36 54175 -1781 6212 -552 -634 957 86 1500 0 0 0 -14.396 
0.38 59458 -1081 5283 700 -929 1252 94 1500 0 0 0 7.669 
0.40 64646 38 5188 1119 -95 419 112 1500 0 0 0 17.857 
0.42 70068 1246 5422 1208 234 89 135 1500 0 0 0 23.097 
0.44 75723 2544 5655 1298 233 90 164 1500 0 0 0 28.639 
0.46 81730 3814 6007 1270 352 -28 178 1500 0 0 0 32.221 
0.48 88195 4949 6465 1135 458 -135 178 1500 0 0 0 33.679 
0.50 94940 6128 6745 1179 280 44 178 1500 0 0 0 38.114 
0.52 101809 7345 6869 1217 124 38 178 1500 0 0 0 42.575 
0.54 108807 8432 6998 1087 129 -130 178 1500 0 0 0 43.960 
0.56 115991 9334 7184 902 186 -185 178 1500 0 0 0 43.887 
0.58 123404 10006 7413 672 229 -230 178 1500 0 0 0 42.372 
0.60 131077 10419 7673 413 260 -259 178 1500 0 0 0 39.576 
0.62 139021 10560 7944 141 271 -272 178 1500 0 0 0 35.711 
0.64 147234 10433 8213 -127 269 -268 178 1500 0 0 0 31.061 
0.66 155722 10030 8488 -403 275 -276 178 1500 0 0 0 25.408 
0.68 164526 9312 8804 -718 316 -315 178 1500 0 0 0 18.139 
0.70 173654 8269 9128 -1043 324 -325 178 1500 0 0 0 9.682 
0.72 183045 6964 9391 -1305 263 -262 178 1500 0 0 0 1.392 
0.74 192458 5636 9413 -1328 22 -23 175 1500 0 0 0 -3.183 
0.76 201827 4353 9369 -1283 -44 45 168 1500 0 0 0 -6.537 
0.78 211099 3166 9272 -1187 -97 96 159 1500 0 0 0 -8.778 
0.80 220080 2271 8981 -895 -291 292 152 1500 0 0 0 -6.987 
0.82 228776 1660 8696 -611 -285 284 148 1500 0 0 0 -4.422 
0.84 237243 1279 8467 -381 -229 230 146 1500 0 0 0 -1.984 
0.86 245577 1030 8334 -249 -133 132 145 1500 0 0 0 -0.682 
0.88 253820 873 8243 -157 -91 92 145 1500 0 0 0 0.279 
0.90 262047 731 8227 -142 -16 15 145 1500 0 0 0 0.067 
0.92 270247 617 8200 -114 -27 28 145 1500 0 0 0 0.149 
0.94 278472 477 8225 -140 25 -26 144 1500 0 0 0 -0.707 
0.96 286644 391 8172 -86 -53 54 144 1500 0 0 0 -0.124 
0.98 294823 297 8179 -94 7 -8 143 1500 0 0 0 -0.548 
1.00 302942 264 8119 -33 -60 61 143 1500 0 0 0 0.314 
1.02 311051 240 8109 -24 -10 9 143 1500 0 0 0 0.380 
1.04 319165 212 8114 -28 5 -4 143 1500 0 0 0 0.228 
1.06 327283 179 8118 -33 4 -5 143 1500 0 0 0 0.044 
1.08 335385 163 8102 -16 -16 17 143 1500 0 0 0 0.263 
1.10 343482 151 8097 -12 -5 4 143 1500 0 0 0 0.288 
1.12 351590 129 8108 -22 11 -10 143 1500 0 0 0 0.060 
1.14 359697 107 8107 -22 -1 0 143 1500 0 0 0 -0.010 
1.16 367815 75 8118 -32 11 -10 143 1500 0 0 0 -0.269 
1.18 375932 43 8117 -32 -1 0 143 1500 0 0 0 -0.371 
1.20 384085 -24 8153 -67 36 -35 142 1500 0 0 0 -1.138 
1.22 392117 29 8032 53 -121 120 143 1500 0 0 0 0.932 
1.24 400195 37 8078 8 46 -45 143 1500 0 0 0 0.244 
1.26 408286 31 8091 -6 13 -14 143 1500 0 0 0 0.003 
1.28 416409 -6 8123 -37 32 -31 142 1500 0 0 0 -0.605 
1.30 424494 -6 8085 0 -38 37 142 1500 0 0 0 -0.019 
1.32 432570 4 8076 10 -9 10 142 1500 0 0 0 0.171 
1.34 440626 33 8056 29 -20 19 143 1500 0 0 0 0.564 
1.36 448710 35 8084 2 28 -27 143 1500 0 0 0 0.143 
1.38 456811 19 8101 -16 17 -18 143 1500 0 0 0 -0.193 
1.40 464925 -9 8114 -28 13 -12 143 1500 0 0 0 -0.472 
1.42 473035 -34 8110 -25 -4 3 142 1500 0 0 0 -0.504 
1.44 481127 -40 8092 -6 -18 19 142 1500 0 0 0 -0.222 
1.46 489193 -21 8066 19 -26 25 142 1500 0 0 0 0.235 
1.48 497260 -2 8067 19 1 0 142 1500 0 0 0 0.295 
1.50 505331 12 8071 14 4 -5 142 1500 0 0 0 0.260 
1.52 513389 40 8058 28 -13 14 143 1500 0 0 0 0.571 
1.54 521488 26 8099 -14 41 -42 143 1500 0 0 0 -0.139 
1.56 529588 12 8100 -14 1 0 143 1500 0 0 0 -0.184 
1.58 537703 -18 8115 -30 15 -16 142 1500 0 0 0 -0.533 
1.60 545798 -27 8095 -9 -20 21 142 1500 0 0 0 -0.228 
1.62 553856 0 8058 27 -37 36 142 1500 0 0 0 0.428 
1.64 561917 25 8061 25 3 -2 142 1500 0 0 0 0.476 
1.66 569977 50 8060 25 -1 0 143 1500 0 0 0 0.555 
1.68 578069 44 8092 -6 32 -31 143 1500 0 0 0 0.044 
1.70 586180 18 8111 -26 19 -20 143 1500 0 0 0 -0.355 
1.72 594287 -3 8107 -21 -4 5 143 1500 0 0 0 -0.342 
1.74 602391 -22 8104 -19 -3 2 143 1500 0 0 0 -0.371 
1.76 610491 -36 8100 -14 -4 5 143 1500 0 0 0 -0.336 
1.78 618585 -45 8094 -9 -6 5 143 1500 0 0 0 -0.285 
1.80 626687 -61 8102 -16 8 -7 143 1500 0 0 0 -0.447 
1.82 634798 -87 8111 -26 9 -10 142 1500 0 0 0 -0.688 
1.84 642878 -81 8080 6 -31 32 142 1500 0 0 0 -0.162 
1.86 650937 -54 8059 27 -21 21 142 1500 0 0 0 0.257 
1.88 658997 -29 8060 25 1 -2 142 1500 0 0 0 0.304 
1.90 667070 -16 8073 13 13 -12 142 1500 0 0 0 0.155 
1.92 675115 24 8045 40 -28 27 143 1500 0 0 0 0.710 
1.94 683199 25 8084 1 39 -39 143 1500 0 0 0 0.095 
1.96 691295 15 8096 -10 12 -11 143 1500 0 0 0 -0.111 
1.98 699400 -5 8105 -20 9 -10 143 1500 0 0 0 -0.333 
2.00 707523 -42 8123 -37 18 -17 142 1500 0 0 0 -0.720 
2.02 715603 -36 8080 6 -43 43 142 1500 0 0 0 -0.019 
2.04 723661 -9 8058 27 -22 21 142 1500 0 0 0 0.399 
2.06 731715 23 8054 32 -4 5 143 1500 0 0 0 0.580 
2.08 739801 22 8086 -1 32 -33 143 1500 0 0 0 0.054 
2.10 747914 -5 8113 -27 27 -26 143 1500 0 0 0 -0.444 
2.12 756015 -21 8101 -16 -12 11 143 1500 0 0 0 -0.320 
2.14 764109 -30 8094 -9 -7 7 143 1500 0 0 0 -0.238 
2.16 772205 -40 8096 -10 2 -1 143 1500 0 0 0 -0.285 
2.18 780297 -46 8092 -6 -4 4 143 1500 0 0 0 -0.241 
2.20 788394 -58 8097 -12 5 -6 143 1500 0 0 0 -0.374 
2.22 796498 -76 8104 -18 7 -6 142 1500 0 0 0 -0.526 
2.24 804554 -47 8056 29 -48 47 142 1500 0 0 0 0.311 
2.26 812607 -14 8053 33 -3 4 142 1500 0 0 0 0.479 
2.28 820649 29 8042 43 -11 10 143 1500 0 0 0 0.774 
2.30 828726 38 8077 9 35 -34 143 1500 0 0 0 0.263 
2.32 836826 23 8100 -15 23 -24 143 1500 0 0 0 -0.165 
2.34 844918 17 8092 -6 -8 9 143 1500 0 0 0 -0.041 
2.36 853022 -2 8104 -19 12 -13 143 1500 0 0 0 -0.308 
2.38 861123 -17 8101 -15 -3 4 143 1500 0 0 0 -0.292 
2.40 869233 -42 8110 -25 9 -10 142 1500 0 0 0 -0.529 
2.42 877312 -35 8079 7 -31 32 142 1500 0 0 0 0.000 
2.44 885372 -10 8060 25 -19 18 142 1500 0 0 0 0.365 
2.46 893433 15 8061 25 1 0 142 1500 0 0 0 0.444 
2.48 901486 47 8053 32 -8 7 143 1500 0 0 0 0.656 
2.50 909579 40 8093 -7 40 -39 143 1500 0 0 0 0.016 
2.52 917683 21 8104 -19 11 -12 143 1500 0 0 0 -0.235 
2.54 925785 5 8102 -16 -2 3 143 1500 0 0 0 -0.238 
2.56 933895 -20 8110 -25 8 -9 143 1500 0 0 0 -0.460 
2.58 941966 -5 8071 15 -39 40 143 1500 0 0 0 0.222 
2.60 950060 -14 8094 -9 23 -24 143 1500 0 0 0 -0.187 
2.62 958166 -34 8106 -20 12 -11 143 1500 0 0 0 -0.425 
2.64 966265 -48 8099 -14 -7 6 143 1500 0 0 0 -0.374 
2.66 974371 -68 8106 -20 7 -6 142 1500 0 0 0 -0.533 
2.68 982440 -52 8069 16 -37 36 142 1500 0 0 0 0.089 
2.70 990483 -9 8043 43 -26 27 143 1500 0 0 0 0.653 
2.72 998555 4 8072 13 29 -30 143 1500 0 0 0 0.219 
2.74 1006665 -20 8110 -24 38 -37 143 1500 0 0 0 -0.444 
2.76 1014763 -33 8098 -13 -12 11 143 1500 0 0 0 -0.311 
2.78 1022845 -29 8082 4 -16 17 143 1500 0 0 0 -0.029 
2.80 1030936 -35 8091 -6 9 -10 143 1500 0 0 0 -0.206 
2.82 1039028 -41 8092 -6 1 0 143 1500 0 0 0 -0.225 
2.84 1047106 -34 8078 7 -14 13 143 1500 0 0 0 0.003 
2.86 1055204 -46 8098 -12 20 -19 143 1500 0 0 0 -0.336 
2.88 1063317 -74 8113 -28 15 -16 142 1500 0 0 0 -0.678 
2.90 1071386 -57 8069 17 -44 45 142 1500 0 0 0 0.089 
2.92 1079429 -15 8043 42 -26 25 143 1500 0 0 0 0.618 
2.94 1087510 -10 8081 5 38 -37 143 1500 0 0 0 0.048 
2.96 1095595 -10 8085 0 4 -5 143 1500 0 0 0 -0.032 
2.98 1103693 -22 8098 -12 13 -12 143 1500 0 0 0 -0.260 
3.00 1111779 -23 8086 -1 -12 11 143 1500 0 0 0 -0.089 
3.02 1119880 -38 8101 -15 15 -14 143 1500 0 0 0 -0.358 
3.04 1127982 -55 8102 -17 1 -2 143 1500 0 0 0 -0.444 
3.06 1136079 -66 8097 -11 -5 6 143 1500 0 0 0 -0.384 
3.08 1144190 -92 8111 -26 14 -15 142 1500 0 0 0 -0.704 
3.10 1152253 -69 8063 23 -48 49 142 1500 0 0 0 0.146 
3.12 1160297 -28 8044 41 -19 18 143 1500 0 0 0 0.561 
3.14 1168380 -25 8083 3 39 -38 143 1500 0 0 0 -0.032 
3.16 1176476 -36 8096 -11 13 -14 143 1500 0 0 0 -0.288 
3.18 1184561 -35 8085 1 -11 12 143 1500 0 0 0 -0.095 
3.20 1192655 -44 8094 -9 9 -10 143 1500 0 0 0 -0.282 
3.22 1200734 -37 8079 7 -15 16 143 1500 0 0 0 -0.006 
3.24 1208810 -28 8076 9 -3 2 143 1500 0 0 0 0.054 
3.26 1216882 -14 8072 14 -4 5 143 1500 0 0 0 0.178 
3.28 1224959 -6 8077 8 5 -6 143 1500 0 0 0 0.108 
3.30 1233049 -10 8090 -4 13 -12 143 1500 0 0 0 -0.095 
3.32 1241132 -8 8083 2 -7 6 143 1500 0 0 0 0.006 
3.34 1249212 -2 8080 6 -3 4 143 1500 0 0 0 0.089 
3.36 1257288 7 8076 9 -4 3 143 1500 0 0 0 0.165 
3.38 1265373 8 8085 1 9 -8 143 1500 0 0 0 0.041 
3.40 1273448 18 8075 10 -10 9 143 1500 0 0 0 0.216 
3.42 1281537 15 8089 -3 14 -13 143 1500 0 0 0 0.000 
3.44 1289613 24 8076 9 -13 12 143 1500 0 0 0 0.219 
3.46 1297677 46 8064 22 -12 13 143 1500 0 0 0 0.495 
3.48 1305757 51 8080 5 16 -17 143 1500 0 0 0 0.241 
3.50 1313821 73 8064 22 -16 17 144 1500 0 0 0 0.580 
3.52 1321937 42 8116 -31 52 -53 144 1500 0 0 0 -0.358 
3.54 1330060 5 8123 -37 7 -6 143 1500 0 0 0 -0.571 
3.56 1338155 -5 8095 -10 -28 27 143 1500 0 0 0 -0.174 
3.58 1346239 -3 8084 2 -11 12 143 1500 0 0 0 0.022 
3.60 1354320 1 8081 4 -3 2 143 1500 0 0 0 0.067 
3.62 1362400 7 8080 6 -1 2 143 1500 0 0 0 0.117 
3.64 1370482 10 8082 3 2 -3 143 1500 0 0 0 0.079 
3.66 1378567 11 8085 1 3 -2 143 1500 0 0 0 0.051 
3.68 1386656 7 8089 -4 4 -5 143 1500 0 0 0 -0.041 
3.70 1394746 3 8090 -4 1 0 143 1500 0 0 0 -0.054 
3.72 1402842 -8 8096 -11 6 -7 143 1500 0 0 0 -0.200 
3.74 1410927 -7 8085 1 -11 12 143 1500 0 0 0 -0.006 
3.76 1418998 7 8071 14 -14 13 143 1500 0 0 0 0.244 
3.78 1427060 31 8062 24 -9 10 143 1500 0 0 0 0.479 
3.80 1435144 32 8084 1 22 -23 143 1500 0 0 0 0.117 
3.82 1443230 32 8086 0 2 -1 143 1500 0 0 0 0.101 
3.84 1451320 27 8090 -5 4 -5 143 1500 0 0 0 0.006 
3.86 1459405 28 8085 1 -5 6 143 1500 0 0 0 0.105 
3.88 1467476 42 8071 14 -14 13 143 1500 0 0 0 0.355 
3.90 1475563 -9 8087 -51 16 -65 142 1500 0 0 0 -0.837 
3.92 1483604 -306 8041 -297 -46 -246 136 1500 0 0 0 -5.678 
3.94 1491448 -729 7844 -423 -197 -126 127 1500 0 0 0 -9.016 
3.96 1498873 -1057 7425 -328 -419 95 118 1500 0 0 0 -8.550 
3.98 1505806 -1216 6933 -159 -492 169 112 1500 0 0 0 -6.375 
4.00 1512333 -1293 6527 -77 -406 82 107 1500 0 0 0 -5.319 
4.02 1518542 -1375 6209 -82 -318 -5 101 1500 0 0 0 -5.659 
4.04 1524424 -1453 5882 -78 -327 4 95 1500 0 0 0 -5.843 
4.06 1529961 -1510 5537 -57 -345 21 89 1500 0 0 0 -5.690 
4.08 1535154 -1546 5193 -36 -344 21 84 1500 0 0 0 -5.472 
4.10 1540028 -1587 4874 -41 -319 -5 78 1500 0 0 0 -5.681 
4.12 1544576 -1625 4548 -38 -326 3 72 1500 0 0 0 -5.754 
4.14 1548772 -1635 4196 -10 -352 28 67 1500 0 0 0 -5.342 
4.16 1552649 -1648 3877 -13 -319 -3 62 1500 0 0 0 -5.430 
4.18 1556234 -1694 3585 -46 -292 -33 56 1500 0 0 0 -6.099 
4.20 1559489 -1733 3255 -39 -330 7 50 1500 0 0 0 -6.112 
4.22 1562394 -1745 2905 -12 -350 27 44 1500 0 0 0 -5.722 
4.24 1564944 -1725 2550 20 -355 32 39 1500 0 0 0 -5.151 
4.26 1567167 -1702 2223 23 -327 3 34 1500 0 0 0 -5.031 
4.28 1569073 -1686 1906 16 -317 -7 29 1500 0 0 0 -5.091 
4.30 1570626 -1640 1553 46 -353 30 25 1500 0 0 0 -4.470 
4.32 1571786 -1524 1160 116 -393 70 22 1500 0 0 0 -2.993 
4.34 1572526 -1312 740 212 -420 96 21 1500 0 0 0 -0.799 
4.36 1573009 -1166 483 146 -257 -66 20 1500 0 0 0 -1.382 
4.38 1573472 -1323 463 -157 -20 -303 13 1500 0 0 0 -6.683 
4.40 1573926 -1745 454 -422 -9 -265 1 1500 0 0 0 -12.221 
4.42 1574008 -1827 82 -82 -372 340 -6 1500 0 0 0 -7.092 
4.44 1573999 -1818 -9 9 -91 91 -12 1500 0 0 0 -5.621 
4.46 1573530 -1349 -469 469 -460 460 -9 1500 0 0 0 3.157 
4.48 1572780 -599 -750 750 -281 281 1 1500 0 0 0 9.989 
4.50 1572591 -410 -189 189 561 -561 3 1500 0 0 0 1.696 
4.52 1572590 -409 -1 1 188 -188 2 1500 0 0 0 -1.281 
4.54 1572590 -409 0 0 1 -1 1 1500 0 0 0 -1.297 
4.56 1572590 -409 0 0 0 0 0 1500 0 0 0 -1.297 
4.58 1572590 -409 0 0 0 0 -1 1500 0 0 0 -1.297 
4.60 1572590 -409 0 0 0 0 -2 1500 0 0 0 -1.297 
4.62 1572590 -409 0 0 0 0 -3 1500 0 0 0 -1.297 
4.64 1572590 -409 0 0 0 0 -4 1500 0 0 0 -1.297 
4.66 1572590 -409 0 0 0 0 -5 1500 0 0 0 -1.297 
4.68 1572590 -409 0 0 0 0 -6 1500 0 0 0 -1.297 
4.70 1572590 -409 0 0 0 0 -7 1500 0 0 0 -1.297 
4.72 1572343 -162 -247 247 -247 247 -4 1500 0 0 0 3.402 
4.74 1572229 -48 -114 114 133 -133 -2 1500 0 0 0 1.655 
4.76 1572229 -48 0 0 114 -114 -2 1500 0 0 0 -0.152 
4.78 1572229 -48 0 0 0 0 -2 1500 0 0 0 -0.152 
4.80 1572229 -48 0 0 0 0 -2 1500 0 0 0 -0.152 
4.82 1572229 -48 0 0 0 0 -2 1500 0 0 0 -0.152 
4.84 1572229 -48 0 0 0 0 -2 1500 0 0 0 -0.152 
4.86 1572229 -48 0 0 0 0 -2 1500 0 0 0 -0.152 
4.88 1572229 -48 0 0 0 0 -2 1500 0 0 0 -0.152 
4.90 1572229 -48 0 0 0 0 -2 1500 0 0 0 -0.152 
4.92 1572229 -48 0 0 0 0 -2 1500 0 0 0 -0.152 
4.94 1572229 -48 0 0 0 0 -2 1500 0 0 0 -0.152 
4.96 1572229 -48 0 0 0 0 -2 1500 0 0 0 -0.152 
4.98 1572229 -48 0 0 0 0 -2 1500 0 0 0 -0.152 
5.00 1572229 -48 0 0 0 0 -2 1500 0 0 0 -0.152