0.02 0 18 0 18 0 18 586 0 0 0 0 75.372 1.000 0.438 
0.04 200 -125 200 -143 200 -161 414 0 0 0 0 -171.960 1.000 -1.000 
0.06 642 -472 442 -347 242 -204 242 0 0 0 0 -171.960 1.000 -1.000 
0.08 1065 -763 423 -291 -19 56 70 0 0 0 0 -171.960 1.000 -1.000 
0.10 1332 -859 267 -96 -156 195 -102 0 0 0 0 -171.960 1.000 -1.000 
0.12 1368 -687 36 172 -231 268 70 0 0 0 0 171.960 1.000 1.000 
0.14 1368 -441 0 246 -36 74 242 0 0 0 0 171.960 1.000 1.000 
0.16 1368 -157 0 284 0 38 414 0 0 0 0 171.960 1.000 1.000 
0.18 1429 103 61 260 61 -24 586 0 0 0 0 171.960 1.000 1.000 
0.20 1712 180 283 77 222 -183 758 0 0 0 0 171.960 1.000 1.000 
0.22 2409 -120 697 -300 414 -377 586 0 0 0 0 -171.960 1.000 -1.000 
0.24 3391 -667 982 -547 285 -247 414 0 0 0 0 -171.960 1.000 -1.000 
0.26 3935 -737 544 -70 -438 477 242 0 0 0 0 -171.960 1.000 -1.000 
0.28 3938 -229 3 508 -541 578 414 0 0 0 0 171.960 1.000 1.000 
0.30 3938 319 0 548 -3 40 586 0 0 0 0 171.960 1.000 1.000 
0.32 3938 906 0 587 0 39 758 0 0 0 0 171.960 1.000 1.000 
0.34 3938 1530 0 624 0 37 930 0 0 0 0 171.960 1.000 1.000 
0.36 3952 2179 14 649 14 25 1102 0 0 0 0 171.960 1.000 1.000 
0.38 4061 2770 109 591 95 -58 1274 0 0 0 0 171.960 1.000 1.000 
0.40 4568 3001 507 231 398 -360 1446 0 0 0 0 171.960 1.000 1.000 
0.42 5481 2864 913 -137 406 -368 1618 0 0 0 0 171.960 1.000 1.000 
0.44 6490 2668 1009 -196 96 -59 1547 0 0 0 0 -71.185 1.000 -0.414 
0.46 7467 2543 977 -125 -32 71 1719 0 0 0 0 171.960 1.000 1.000 
0.48 8839 2060 1372 -483 395 -358 1547 0 0 0 0 -171.960 1.000 -1.000 
0.50 10441 1386 1602 -674 230 -191 1375 0 0 0 0 -171.960 1.000 -1.000 
0.52 11913 879 1472 -507 -130 167 1203 0 0 0 0 -171.960 1.000 -1.000 
0.54 13058 737 1145 -142 -327 365 1031 0 0 0 0 -171.960 1.000 -1.000 
0.56 13874 962 816 225 -329 367 1203 0 0 0 0 171.960 1.000 1.000 
0.58 14527 1387 653 425 -163 200 1375 0 0 0 0 171.960 1.000 1.000 
0.60 15261 1770 734 383 81 -42 1547 0 0 0 0 171.960 1.000 1.000 
0.62 16009 2176 748 406 14 23 1719 0 0 0 0 171.960 1.000 1.000 
0.64 16940 2437 931 261 183 -145 1891 0 0 0 0 171.960 1.000 1.000 
0.66 18488 2119 1548 -318 617 -579 1719 0 0 0 0 -171.960 1.000 -1.000 
0.68 20511 1364 2023 -755 475 -437 1547 0 0 0 0 -171.960 1.000 -1.000 
0.70 22476 705 1965 -659 -58 96 1375 0 0 0 0 -171.960 1.000 -1.000 
0.72 24282 242 1806 -463 -159 196 1203 0 0 0 0 -171.960 1.000 -1.000 
0.74 25832 74 1550 -168 -256 295 1031 0 0 0 0 -171.960 1.000 -1.000 
0.76 26982 343 1150 269 -400 437 1203 0 0 0 0 171.960 1.000 1.000 
0.78 27793 989 811 646 -339 377 1375 0 0 0 0 171.960 1.000 1.000 
0.80 28472 1805 679 816 -132 170 1547 0 0 0 0 171.960 1.000 1.000 
0.82 29193 2617 721 812 42 -4 1719 0 0 0 0 171.960 1.000 1.000 
0.84 30285 3096 1092 479 371 -333 1891 0 0 0 0 171.960 1.000 1.000 
0.86 31950 3039 1665 -57 573 -536 2063 0 0 0 0 171.960 1.000 1.000 
0.88 34187 2448 2237 -591 572 -534 1891 0 0 0 0 -171.960 1.000 -1.000 
0.90 36782 1538 2595 -910 358 -319 1719 0 0 0 0 -171.960 1.000 -1.000 
0.92 39508 534 2726 -1004 131 -94 1547 0 0 0 0 -171.960 1.000 -1.000 
0.94 42183 -381 2675 -915 -51 89 1375 0 0 0 0 -171.960 1.000 -1.000 
0.96 44615 -1016 2432 -635 -243 280 1203 0 0 0 0 -171.960 1.000 -1.000 
0.98 46506 -1071 1891 -55 -541 580 1031 0 0 0 0 -171.960 1.000 -1.000 
1.00 47633 -325 1127 746 -764 801 1203 0 0 0 0 171.960 1.000 1.000 
1.02 48214 987 581 1312 -546 566 1375 0 0 0 0 171.960 1.000 1.000 
1.04 48591 2502 377 1515 -204 203 1547 0 0 0 0 171.960 1.000 1.000 
1.06 48862 4123 271 1621 -106 106 1719 0 0 0 0 171.960 1.000 1.000 
1.08 49014 5864 152 1741 -119 120 1891 0 0 0 0 171.960 1.000 1.000 
1.10 49551 7219 537 1355 385 -386 2063 0 0 0 0 171.960 1.000 1.000 
1.12 50829 7833 1278 614 741 -741 2235 0 0 0 0 171.960 1.000 1.000 
1.14 52788 7767 1959 -66 681 -680 2407 0 0 0 0 171.960 1.000 1.000 
1.16 55375 7072 2587 -695 628 -629 2235 0 0 0 0 -171.960 1.000 -1.000 
1.18 58369 5971 2994 -1101 407 -406 2063 0 0 0 0 -171.960 1.000 -1.000 
1.20 61587 4645 3218 -1326 224 -225 1891 0 0 0 0 -171.960 1.000 -1.000 
1.22 64946 3178 3359 -1467 141 -141 1719 0 0 0 0 -171.960 1.000 -1.000 
1.24 68130 1887 3184 -1291 -175 176 1547 0 0 0 0 -171.960 1.000 -1.000 
1.26 70890 1019 2760 -868 -424 423 1375 0 0 0 0 -171.960 1.000 -1.000 
1.28 73255 546 2365 -473 -395 395 1203 0 0 0 0 -171.960 1.000 -1.000 
1.30 75271 423 2016 -123 -349 350 1031 0 0 0 0 -171.960 1.000 -1.000 
1.32 76805 781 1534 358 -482 481 1203 0 0 0 0 171.960 1.000 1.000 
1.34 77946 1532 1141 751 -393 393 1375 0 0 0 0 171.960 1.000 1.000 
1.36 78890 2481 944 949 -197 198 1547 0 0 0 0 171.960 1.000 1.000 
1.38 79831 3432 941 951 -3 2 1719 0 0 0 0 171.960 1.000 1.000 
1.40 81091 4064 1260 632 319 -319 1891 0 0 0 0 171.960 1.000 1.000 
1.42 82859 4189 1768 125 508 -507 2063 0 0 0 0 171.960 1.000 1.000 
1.44 85121 3819 2262 -370 494 -495 1891 0 0 0 0 -171.960 1.000 -1.000 
1.46 87737 3096 2616 -723 354 -353 1719 0 0 0 0 -171.960 1.000 -1.000 
1.48 90518 2207 2781 -889 165 -166 1547 0 0 0 0 -171.960 1.000 -1.000 
1.50 93376 1241 2858 -966 77 -77 1375 0 0 0 0 -171.960 1.000 -1.000 
1.52 96137 373 2761 -868 -97 98 1203 0 0 0 0 -171.960 1.000 -1.000 
1.54 98623 -221 2486 -594 -275 274 1031 0 0 0 0 -171.960 1.000 -1.000 
1.56 100720 -426 2097 -205 -389 389 859 0 0 0 0 -171.960 1.000 -1.000 
1.58 102396 -209 1676 217 -421 422 1031 0 0 0 0 171.960 1.000 1.000 
1.60 103811 268 1415 477 -261 260 1203 0 0 0 0 171.960 1.000 1.000 
1.62 105107 864 1296 596 -119 119 1375 0 0 0 0 171.960 1.000 1.000 
1.64 106351 1513 1244 649 -52 53 1547 0 0 0 0 171.960 1.000 1.000 
1.66 107767 1989 1416 476 172 -173 1719 0 0 0 0 171.960 1.000 1.000 
1.68 109686 1962 1919 -27 503 -503 1891 0 0 0 0 171.960 1.000 1.000 
1.70 112197 1344 2511 -618 592 -591 1719 0 0 0 0 -171.960 1.000 -1.000 
1.72 115016 417 2819 -927 308 -309 1547 0 0 0 0 -171.960 1.000 -1.000 
1.74 117899 -574 2883 -991 64 -64 1375 0 0 0 0 -171.960 1.000 -1.000 
1.76 120831 -1613 2932 -1039 49 -48 1203 0 0 0 0 -171.960 1.000 -1.000 
1.78 123711 -2601 2880 -988 -52 51 1031 0 0 0 0 -171.960 1.000 -1.000 
1.80 126318 -3315 2607 -714 -273 274 859 0 0 0 0 -171.960 1.000 -1.000 
1.82 128478 -3583 2160 -268 -447 446 687 0 0 0 0 -171.960 1.000 -1.000 
1.84 130101 -3314 1623 269 -537 537 859 0 0 0 0 171.960 1.000 1.000 
1.86 131474 -2794 1373 520 -250 251 1031 0 0 0 0 171.960 1.000 1.000 
1.88 132768 -2196 1294 598 -79 78 1203 0 0 0 0 171.960 1.000 1.000 
1.90 133945 -1481 1177 715 -117 117 1375 0 0 0 0 171.960 1.000 1.000 
1.92 135170 -813 1225 668 48 -47 1547 0 0 0 0 171.960 1.000 1.000 
1.94 136825 -576 1655 237 430 -431 1719 0 0 0 0 171.960 1.000 1.000 
1.96 139028 -887 2203 -311 548 -548 1547 0 0 0 0 -171.960 1.000 -1.000 
1.98 141556 -1522 2528 -635 325 -324 1375 0 0 0 0 -171.960 1.000 -1.000 
2.00 144190 -2264 2634 -742 106 -107 1203 0 0 0 0 -171.960 1.000 -1.000 
2.02 146823 -3005 2633 -741 -1 1 1031 0 0 0 0 -171.960 1.000 -1.000 
2.04 149421 -3710 2598 -705 -35 36 859 0 0 0 0 -171.960 1.000 -1.000 
2.06 151778 -4175 2357 -465 -241 240 687 0 0 0 0 -171.960 1.000 -1.000 
2.08 153697 -4202 1919 -27 -438 438 515 0 0 0 0 -171.960 1.000 -1.000 
2.10 155119 -3731 1422 471 -497 498 687 0 0 0 0 171.960 1.000 1.000 
2.12 156279 -2999 1160 732 -262 261 859 0 0 0 0 171.960 1.000 1.000 
2.14 157284 -2111 1005 888 -155 156 1031 0 0 0 0 171.960 1.000 1.000 
2.16 158142 -1077 858 1034 -147 146 1203 0 0 0 0 171.960 1.000 1.000 
2.18 159127 -170 985 907 127 -127 1375 0 0 0 0 171.960 1.000 1.000 
2.20 160512 338 1385 508 400 -399 1547 0 0 0 0 171.960 1.000 1.000 
2.22 162394 348 1882 10 497 -498 1677 0 0 0 0 130.331 1.000 0.758 
2.24 164834 -200 2440 -548 558 -558 1505 0 0 0 0 -171.960 1.000 -1.000 
2.26 167691 -1164 2857 -964 417 -416 1333 0 0 0 0 -171.960 1.000 -1.000 
2.28 170765 -2346 3074 -1182 217 -218 1161 0 0 0 0 -171.960 1.000 -1.000 
2.30 173960 -3649 3195 -1303 121 -121 989 0 0 0 0 -171.960 1.000 -1.000 
2.32 177094 -4890 3134 -1241 -61 62 817 0 0 0 0 -171.960 1.000 -1.000 
2.34 180049 -5953 2955 -1063 -179 178 645 0 0 0 0 -171.960 1.000 -1.000 
2.36 182696 -6708 2647 -755 -308 308 473 0 0 0 0 -171.960 1.000 -1.000 
2.38 185075 -7194 2379 -486 -268 269 301 0 0 0 0 -171.960 1.000 -1.000 
2.40 187085 -7312 2010 -118 -369 368 129 0 0 0 0 -171.960 1.000 -1.000 
2.42 188618 -6952 1533 360 -477 478 -43 0 0 0 0 -171.960 1.000 -1.000 
2.44 189562 -6004 944 948 -589 588 129 0 0 0 0 171.960 1.000 1.000 
2.46 189992 -4542 430 1462 -514 514 301 0 0 0 0 171.960 1.000 1.000 
2.48 190038 -2695 46 1847 -384 385 473 0 0 0 0 171.960 1.000 1.000 
2.50 190038 -803 0 1892 -46 45 645 0 0 0 0 171.960 1.000 1.000 
2.52 190038 1070 0 1873 0 -19 817 0 0 0 0 171.960 1.000 1.000 
2.54 190083 2861 45 1791 45 -82 989 0 0 0 0 171.960 1.000 1.000 
2.56 190382 4360 299 1499 254 -292 1161 0 0 0 0 171.960 1.000 1.000 
2.58 191142 5360 760 1000 461 -499 1333 0 0 0 0 171.960 1.000 1.000 
2.60 192441 5783 1299 423 539 -577 1505 0 0 0 0 171.960 1.000 1.000 
2.62 194441 5467 2000 -316 701 -739 1677 0 0 0 0 171.960 1.000 1.000 
2.64 197238 4316 2797 -1151 797 -835 1505 0 0 0 0 -171.960 1.000 -1.000 
2.66 200633 2530 3395 -1786 598 -635 1333 0 0 0 0 -171.960 1.000 -1.000 
2.68 204410 323 3777 -2207 382 -421 1161 0 0 0 0 -171.960 1.000 -1.000 
2.70 208360 -2094 3950 -2417 173 -210 989 0 0 0 0 -171.960 1.000 -1.000 
2.72 212367 -4606 4007 -2512 57 -95 817 0 0 0 0 -171.960 1.000 -1.000 
2.74 216329 -7111 3962 -2505 -45 7 645 0 0 0 0 -171.960 1.000 -1.000 
2.76 220204 -9567 3875 -2456 -87 49 473 0 0 0 0 -171.960 1.000 -1.000 
2.78 223890 -11871 3686 -2304 -189 152 301 0 0 0 0 -171.960 1.000 -1.000 
2.80 227354 -13992 3464 -2121 -222 183 129 0 0 0 0 -171.960 1.000 -1.000 
2.82 230559 -15891 3205 -1899 -259 222 -43 0 0 0 0 -171.960 1.000 -1.000 
2.84 233435 -17499 2876 -1608 -329 291 -215 0 0 0 0 -171.960 1.000 -1.000 
2.86 235863 -18697 2428 -1198 -448 410 -387 0 0 0 0 -171.960 1.000 -1.000 
2.88 237636 -19278 1773 -581 -655 617 -559 0 0 0 0 -171.960 1.000 -1.000 
2.90 238712 -19200 1076 78 -697 659 -731 0 0 0 0 -171.960 1.000 -1.000 
2.92 239029 -18400 317 800 -759 722 -903 0 0 0 0 -171.960 1.000 -1.000 
2.94 238849 -17141 -180 1259 -497 459 -731 0 0 0 0 171.960 1.000 1.000 
2.96 238264 -15516 -585 1625 -405 366 -559 0 0 0 0 171.960 1.000 1.000 
2.98 237365 -13614 -899 1902 -314 277 -387 0 0 0 0 171.960 1.000 1.000 
3.00 236346 -11630 -1019 1984 -120 82 -215 0 0 0 0 171.960 1.000 1.000 
3.02 235374 -9730 -972 1900 47 -84 -43 0 0 0 0 171.960 1.000 1.000 
3.04 234571 -8038 -803 1692 169 -208 129 0 0 0 0 171.960 1.000 1.000 
3.06 234065 -6680 -506 1358 297 -334 301 0 0 0 0 171.960 1.000 1.000 
3.08 233947 -5749 -118 931 388 -427 473 0 0 0 0 171.960 1.000 1.000 
3.10 233952 -4978 5 771 123 -160 645 0 0 0 0 171.960 1.000 1.000 
3.12 234038 -4326 86 652 81 -119 817 0 0 0 0 171.960 1.000 1.000 
3.14 234348 -3936 310 390 224 -262 989 0 0 0 0 171.960 1.000 1.000 
3.16 235184 -4109 836 -173 526 -563 817 0 0 0 0 -171.960 1.000 -1.000 
3.18 236504 -4805 1320 -696 484 -523 645 0 0 0 0 -171.960 1.000 -1.000 
3.20 238062 -5776 1558 -971 238 -275 473 0 0 0 0 -171.960 1.000 -1.000 
3.22 239661 -6826 1599 -1050 41 -79 301 0 0 0 0 -171.960 1.000 -1.000 
3.24 241202 -7857 1541 -1031 -58 19 129 0 0 0 0 -171.960 1.000 -1.000 
3.26 242587 -8768 1385 -911 -156 120 -43 0 0 0 0 -171.960 1.000 -1.000 
3.28 243700 -9446 1113 -678 -272 233 -215 0 0 0 0 -171.960 1.000 -1.000 
3.30 244433 -9782 733 -336 -380 342 -387 0 0 0 0 -171.960 1.000 -1.000 
3.32 244798 -9787 365 -5 -368 331 -559 0 0 0 0 -171.960 1.000 -1.000 
3.34 244847 -9515 49 272 -316 277 -731 0 0 0 0 -171.960 1.000 -1.000 
3.36 244735 -9119 -112 396 -161 124 -903 0 0 0 0 -171.960 1.000 -1.000 
3.38 244108 -8246 -627 873 -515 477 -731 0 0 0 0 171.960 1.000 1.000 
3.40 242954 -6884 -1154 1362 -527 489 -559 0 0 0 0 171.960 1.000 1.000 
3.42 241592 -5351 -1362 1533 -208 171 -387 0 0 0 0 171.960 1.000 1.000 
3.44 240254 -3881 -1338 1470 24 -63 -215 0 0 0 0 171.960 1.000 1.000 
3.46 239008 -2540 -1246 1341 92 -129 -43 0 0 0 0 171.960 1.000 1.000 
3.48 237973 -1448 -1035 1092 211 -249 129 0 0 0 0 171.960 1.000 1.000 
3.50 237257 -713 -716 735 319 -357 301 0 0 0 0 171.960 1.000 1.000 
3.52 236986 -442 -271 271 445 -464 473 0 0 0 0 171.960 1.000 1.000 
3.54 237110 -566 124 -124 395 -395 301 0 0 0 0 -171.960 1.000 -1.000 
3.56 237278 -734 168 -168 44 -44 129 0 0 0 0 -171.960 1.000 -1.000 
3.58 237293 -749 15 -15 -153 153 -43 0 0 0 0 -171.960 1.000 -1.000 
3.60 237293 -749 0 0 -15 15 -215 0 0 0 0 -171.960 1.000 -1.000 
3.62 237292 -748 -1 1 -1 1 -387 0 0 0 0 -171.960 1.000 -1.000 
3.64 237228 -684 -64 64 -63 63 -315 0 0 0 0 72.231 1.000 0.420 
3.66 237096 -552 -132 132 -68 68 -143 0 0 0 0 171.960 1.000 1.000 
3.68 237037 -493 -59 59 73 -73 -40 0 0 0 0 102.590 1.000 0.597 
3.70 237037 -493 0 0 59 -59 -169 0 0 0 0 -129.022 1.000 -0.750 
3.72 237037 -493 0 0 0 0 -298 0 0 0 0 -129.022 1.000 -0.750 
3.74 237029 -485 -8 8 -8 8 -394 0 0 0 0 -95.524 1.000 -0.555 
3.76 236975 -431 -54 54 -46 46 -295 0 0 0 0 99.187 1.000 0.577 
3.78 236886 -342 -89 89 -35 35 -123 0 0 0 0 171.960 1.000 1.000 
3.80 236871 -327 -15 15 74 -74 -150 0 0 0 0 -26.694 1.000 -0.155 
3.82 236871 -327 0 0 15 -15 -236 0 0 0 0 -85.579 1.000 -0.498 
3.84 236871 -327 0 0 0 0 -322 0 0 0 0 -85.579 1.000 -0.498 
3.86 236863 -319 -8 8 -8 8 -374 0 0 0 0 -52.080 1.000 -0.303 
3.88 236811 -267 -52 52 -44 44 -240 0 0 0 0 134.256 1.000 0.781 
3.90 236754 -210 -57 57 -5 5 -71 0 0 0 0 168.802 1.000 0.982 
3.92 236753 -209 -1 1 56 -56 -122 0 0 0 0 -50.771 1.000 -0.295 
3.94 236753 -209 0 0 1 -1 -177 0 0 0 0 -54.697 1.000 -0.318 
3.96 236753 -209 0 0 0 0 -232 0 0 0 0 -54.697 1.000 -0.318 
3.98 236753 -209 0 0 0 0 -287 0 0 0 0 -54.697 1.000 -0.318 
4.00 236753 -209 0 0 0 0 -342 0 0 0 0 -54.697 1.000 -0.318