0.02 0 18 0 18 0 18 574 6 -385 0 2 62.810 1.000 0.438 
0.04 176 -101 176 -119 176 -137 431 6 -385 0 2 -143.300 1.000 -1.000 
0.06 588 -418 412 -317 236 -198 288 6 -385 0 2 -143.300 1.000 -1.000 
0.08 1006 -704 418 -286 6 31 145 6 -385 0 2 -143.300 1.000 -1.000 
0.10 1296 -823 290 -119 -128 167 2 6 -385 0 2 -143.300 1.000 -1.000 
0.12 1367 -686 71 137 -219 256 145 6 -385 0 2 143.300 1.000 1.000 
0.14 1367 -440 0 246 -71 109 288 6 -385 0 2 143.300 1.000 1.000 
0.16 1368 -157 1 283 1 37 431 6 -385 0 2 143.300 1.000 1.000 
0.18 1428 104 60 261 59 -22 574 6 -385 0 2 143.300 1.000 1.000 
0.20 1694 198 266 94 206 -167 717 6 -385 0 2 143.300 1.000 1.000 
0.22 2318 -29 624 -227 358 -321 574 6 -385 0 2 -143.300 1.000 -1.000 
0.24 3226 -502 908 -473 284 -246 431 6 -385 0 2 -143.300 1.000 -1.000 
0.26 3814 -616 588 -114 -320 359 288 6 -385 0 2 -143.300 1.000 -1.000 
0.28 3837 -128 23 488 -565 602 431 6 -385 0 2 143.300 1.000 1.000 
0.30 3836 421 -1 549 -24 61 574 6 -385 0 2 143.300 1.000 1.000 
0.32 3836 1008 0 587 1 38 717 6 -385 0 2 143.300 1.000 1.000 
0.34 3837 1631 1 623 1 36 860 6 -385 0 2 143.300 1.000 1.000 
0.36 3842 2289 5 658 4 35 1003 6 -385 0 2 143.300 1.000 1.000 
0.38 3886 2945 44 656 39 -2 1146 6 -385 0 2 143.300 1.000 1.000 
0.40 4184 3385 298 440 254 -216 1289 6 -385 0 2 143.300 1.000 1.000 
0.42 4883 3462 699 77 401 -363 1432 6 -385 0 2 143.300 1.000 1.000 
0.44 5686 3472 803 10 104 -67 1575 6 -385 0 2 143.300 1.000 1.000 
0.46 6468 3542 782 70 -21 60 1718 6 -385 0 2 143.300 1.000 1.000 
0.48 7585 3314 1117 -228 335 -298 1695 6 -385 0 2 -23.118 1.000 -0.161 
0.50 9121 2706 1536 -608 419 -380 1552 6 -385 0 2 -143.300 1.000 -1.000 
0.52 10701 2091 1580 -615 44 -7 1409 6 -385 0 2 -143.300 1.000 -1.000 
0.54 12146 1649 1445 -442 -135 173 1266 6 -385 0 2 -143.300 1.000 -1.000 
0.56 13441 1395 1295 -254 -150 188 1123 6 -385 0 2 -143.300 1.000 -1.000 
0.58 14538 1376 1097 -19 -198 235 1266 6 -385 0 2 143.300 1.000 1.000 
0.60 15512 1519 974 143 -123 162 1409 6 -385 0 2 143.300 1.000 1.000 
0.62 16390 1795 878 276 -96 133 1552 6 -385 0 2 143.300 1.000 1.000 
0.64 17232 2145 842 350 -36 74 1695 6 -385 0 2 143.300 1.000 1.000 
0.66 18419 2188 1187 43 345 -307 1838 6 -385 0 2 143.300 1.000 1.000 
0.68 20164 1711 1745 -477 558 -520 1695 6 -385 0 2 -143.300 1.000 -1.000 
0.70 22086 1095 1922 -616 177 -139 1552 6 -385 0 2 -143.300 1.000 -1.000 
0.72 23971 553 1885 -542 -37 74 1409 6 -385 0 2 -143.300 1.000 -1.000 
0.74 25802 104 1831 -449 -54 93 1266 6 -385 0 2 -143.300 1.000 -1.000 
0.76 27467 -142 1665 -246 -166 203 1123 6 -385 0 2 -143.300 1.000 -1.000 
0.78 28770 12 1303 154 -362 400 1266 6 -385 0 2 143.300 1.000 1.000 
0.80 29761 516 991 504 -312 350 1409 6 -385 0 2 143.300 1.000 1.000 
0.82 30633 1177 872 661 -119 157 1552 6 -385 0 2 143.300 1.000 1.000 
0.84 31679 1702 1046 525 174 -136 1695 6 -385 0 2 143.300 1.000 1.000 
0.86 33040 1949 1361 247 315 -278 1838 6 -385 0 2 143.300 1.000 1.000 
0.88 34755 1880 1715 -69 354 -316 1981 6 -385 0 2 143.300 1.000 1.000 
0.90 36962 1358 2207 -522 492 -453 1838 6 -385 0 2 -143.300 1.000 -1.000 
0.92 39553 489 2591 -869 384 -347 1695 6 -385 0 2 -143.300 1.000 -1.000 
0.94 42171 -369 2618 -858 27 11 1552 6 -385 0 2 -143.300 1.000 -1.000 
0.96 44663 -1064 2492 -695 -126 163 1409 6 -385 0 2 -143.300 1.000 -1.000 
0.98 46862 -1427 2199 -363 -293 332 1266 6 -385 0 2 -143.300 1.000 -1.000 
1.00 48580 -1272 1718 155 -481 518 1409 6 -385 0 2 143.300 1.000 1.000 
1.02 49815 -614 1235 658 -483 503 1552 6 -385 0 2 143.300 1.000 1.000 
1.04 50866 227 1051 841 -184 183 1695 6 -385 0 2 143.300 1.000 1.000 
1.06 51926 1059 1060 832 9 -9 1838 6 -385 0 2 143.300 1.000 1.000 
1.08 53157 1721 1231 662 171 -170 1981 6 -385 0 2 143.300 1.000 1.000 
1.10 54798 1972 1641 251 410 -411 2124 6 -385 0 2 143.300 1.000 1.000 
1.12 56909 1753 2111 -219 470 -470 1981 6 -385 0 2 -143.300 1.000 -1.000 
1.14 59334 1221 2425 -532 314 -313 1838 6 -385 0 2 -143.300 1.000 -1.000 
1.16 61855 592 2521 -629 96 -97 1695 6 -385 0 2 -143.300 1.000 -1.000 
1.18 64329 11 2474 -581 -47 48 1552 6 -385 0 2 -143.300 1.000 -1.000 
1.20 66636 -404 2307 -415 -167 166 1409 6 -385 0 2 -143.300 1.000 -1.000 
1.22 68599 -475 1963 -71 -344 344 1266 6 -385 0 2 -143.300 1.000 -1.000 
1.24 70114 -97 1515 378 -448 449 1409 6 -385 0 2 143.300 1.000 1.000 
1.26 71334 575 1220 672 -295 294 1552 6 -385 0 2 143.300 1.000 1.000 
1.28 72569 1232 1235 657 15 -15 1695 6 -385 0 2 143.300 1.000 1.000 
1.30 73992 1702 1423 470 188 -187 1838 6 -385 0 2 143.300 1.000 1.000 
1.32 75684 1902 1692 200 269 -270 1981 6 -385 0 2 143.300 1.000 1.000 
1.34 77829 1649 2145 -253 453 -453 1838 6 -385 0 2 -143.300 1.000 -1.000 
1.36 80343 1028 2514 -621 369 -368 1695 6 -385 0 2 -143.300 1.000 -1.000 
1.38 82998 265 2655 -763 141 -142 1552 6 -385 0 2 -143.300 1.000 -1.000 
1.40 85599 -444 2601 -709 -54 54 1409 6 -385 0 2 -143.300 1.000 -1.000 
1.42 87980 -932 2381 -488 -220 221 1266 6 -385 0 2 -143.300 1.000 -1.000 
1.44 90077 -1137 2097 -205 -284 283 1123 6 -385 0 2 -143.300 1.000 -1.000 
1.46 91847 -1014 1770 123 -327 328 1266 6 -385 0 2 143.300 1.000 1.000 
1.48 93356 -631 1509 383 -261 260 1409 6 -385 0 2 143.300 1.000 1.000 
1.50 94862 -245 1506 386 -3 3 1552 6 -385 0 2 143.300 1.000 1.000 
1.52 96522 -12 1660 233 154 -153 1695 6 -385 0 2 143.300 1.000 1.000 
1.54 98542 -140 2020 -128 360 -361 1552 6 -385 0 2 -143.300 1.000 -1.000 
1.56 100810 -516 2268 -376 248 -248 1409 6 -385 0 2 -143.300 1.000 -1.000 
1.58 103150 -963 2340 -447 72 -71 1266 6 -385 0 2 -143.300 1.000 -1.000 
1.60 105449 -1370 2299 -407 -41 40 1123 6 -385 0 2 -143.300 1.000 -1.000 
1.62 107530 -1559 2081 -189 -218 218 980 6 -385 0 2 -143.300 1.000 -1.000 
1.64 109219 -1355 1689 204 -392 393 1123 6 -385 0 2 143.300 1.000 1.000 
1.66 110639 -883 1420 472 -269 268 1266 6 -385 0 2 143.300 1.000 1.000 
1.68 112020 -372 1381 511 -39 39 1409 6 -385 0 2 143.300 1.000 1.000 
1.70 113488 53 1468 425 87 -86 1552 6 -385 0 2 143.300 1.000 1.000 
1.72 115183 250 1695 197 227 -228 1695 6 -385 0 2 143.300 1.000 1.000 
1.74 117266 59 2083 -191 388 -388 1552 6 -385 0 2 -143.300 1.000 -1.000 
1.76 119703 -485 2437 -544 354 -353 1409 6 -385 0 2 -143.300 1.000 -1.000 
1.78 122315 -1205 2612 -720 175 -176 1266 6 -385 0 2 -143.300 1.000 -1.000 
1.80 124883 -1880 2568 -675 -44 45 1123 6 -385 0 2 -143.300 1.000 -1.000 
1.82 127320 -2425 2437 -545 -131 130 980 6 -385 0 2 -143.300 1.000 -1.000 
1.84 129490 -2703 2170 -278 -267 267 837 6 -385 0 2 -143.300 1.000 -1.000 
1.86 131268 -2588 1778 115 -392 393 694 6 -385 0 2 -143.300 1.000 -1.000 
1.88 132560 -1988 1292 600 -486 485 837 6 -385 0 2 143.300 1.000 1.000 
1.90 133473 -1009 913 979 -379 379 980 6 -385 0 2 143.300 1.000 1.000 
1.92 134195 162 722 1171 -191 192 1123 6 -385 0 2 143.300 1.000 1.000 
1.94 134817 1432 622 1270 -100 99 1266 6 -385 0 2 143.300 1.000 1.000 
1.96 135506 2635 689 1203 67 -67 1409 6 -385 0 2 143.300 1.000 1.000 
1.98 136568 3466 1062 831 373 -372 1552 6 -385 0 2 143.300 1.000 1.000 
2.00 138092 3834 1524 368 462 -463 1695 6 -385 0 2 143.300 1.000 1.000 
2.02 140157 3661 2065 -173 541 -541 1838 6 -385 0 2 143.300 1.000 1.000 
2.04 142794 2917 2637 -744 572 -571 1695 6 -385 0 2 -143.300 1.000 -1.000 
2.06 145896 1707 3102 -1210 465 -466 1552 6 -385 0 2 -143.300 1.000 -1.000 
2.08 149252 243 3356 -1464 254 -254 1409 6 -385 0 2 -143.300 1.000 -1.000 
2.10 152759 -1371 3507 -1614 151 -150 1266 6 -385 0 2 -143.300 1.000 -1.000 
2.12 156239 -2959 3480 -1588 -27 26 1123 6 -385 0 2 -143.300 1.000 -1.000 
2.14 159548 -4375 3309 -1416 -171 172 980 6 -385 0 2 -143.300 1.000 -1.000 
2.16 162654 -5589 3106 -1214 -203 202 837 6 -385 0 2 -143.300 1.000 -1.000 
2.18 165518 -6561 2864 -972 -242 242 694 6 -385 0 2 -143.300 1.000 -1.000 
2.20 168068 -7218 2550 -657 -314 315 551 6 -385 0 2 -143.300 1.000 -1.000 
2.22 170285 -7543 2217 -325 -333 332 408 6 -385 0 2 -143.300 1.000 -1.000 
2.24 172075 -7441 1790 102 -427 427 265 6 -385 0 2 -143.300 1.000 -1.000 
2.26 173283 -6756 1208 685 -582 583 408 6 -385 0 2 143.300 1.000 1.000 
2.28 173995 -5576 712 1180 -496 495 551 6 -385 0 2 143.300 1.000 1.000 
2.30 174328 -4017 333 1559 -379 379 694 6 -385 0 2 143.300 1.000 1.000 
2.32 174380 -2176 52 1841 -281 282 837 6 -385 0 2 143.300 1.000 1.000 
2.34 174381 -285 1 1891 -51 50 980 6 -385 0 2 143.300 1.000 1.000 
2.36 174437 1551 56 1836 55 -55 1123 6 -385 0 2 143.300 1.000 1.000 
2.38 174682 3199 245 1648 189 -188 1266 6 -385 0 2 143.300 1.000 1.000 
2.40 175360 4413 678 1214 433 -434 1409 6 -385 0 2 143.300 1.000 1.000 
2.42 176612 5054 1252 641 574 -573 1552 6 -385 0 2 143.300 1.000 1.000 
2.44 178494 5064 1882 10 630 -631 1695 6 -385 0 2 143.300 1.000 1.000 
2.46 181111 4339 2617 -725 735 -735 1552 6 -385 0 2 -143.300 1.000 -1.000 
2.48 184289 3054 3178 -1285 561 -560 1409 6 -385 0 2 -143.300 1.000 -1.000 
2.50 187842 1393 3553 -1661 375 -376 1266 6 -385 0 2 -143.300 1.000 -1.000 
2.52 191588 -480 3746 -1873 193 -212 1123 6 -385 0 2 -143.300 1.000 -1.000 
2.54 195437 -2493 3849 -2013 103 -140 980 6 -385 0 2 -143.300 1.000 -1.000 
2.56 199212 -4470 3775 -1977 -74 36 837 6 -385 0 2 -143.300 1.000 -1.000 
2.58 202910 -6408 3698 -1938 -77 39 694 6 -385 0 2 -143.300 1.000 -1.000 
2.60 206477 -8253 3567 -1845 -131 93 551 6 -385 0 2 -143.300 1.000 -1.000 
2.62 209853 -9945 3376 -1692 -191 153 408 6 -385 0 2 -143.300 1.000 -1.000 
2.64 212994 -11440 3141 -1495 -235 197 265 6 -385 0 2 -143.300 1.000 -1.000 
2.66 215861 -12698 2867 -1258 -274 237 122 6 -385 0 2 -143.300 1.000 -1.000 
2.68 218419 -13686 2558 -988 -309 270 -21 6 -385 0 2 -143.300 1.000 -1.000 
2.70 220614 -14348 2195 -662 -363 326 -164 6 -385 0 2 -143.300 1.000 -1.000 
2.72 222380 -14619 1766 -271 -429 391 -307 6 -385 0 2 -143.300 1.000 -1.000 
2.74 223598 -14380 1218 239 -548 510 -450 6 -385 0 2 -143.300 1.000 -1.000 
2.76 224153 -13516 555 864 -663 625 -571 6 -385 0 2 -121.258 1.000 -0.846 
2.78 224065 -12046 -88 1470 -643 606 -428 6 -385 0 2 143.300 1.000 1.000 
2.80 223732 -10370 -333 1676 -245 206 -285 6 -385 0 2 143.300 1.000 1.000 
2.82 223425 -8757 -307 1613 26 -63 -142 6 -385 0 2 143.300 1.000 1.000 
2.84 223240 -7304 -185 1453 122 -160 1 6 -385 0 2 143.300 1.000 1.000 
2.86 223211 -6045 -29 1259 156 -194 144 6 -385 0 2 143.300 1.000 1.000 
2.88 223211 -4853 0 1192 29 -67 287 6 -385 0 2 143.300 1.000 1.000 
2.90 223211 -3699 0 1154 0 -38 430 6 -385 0 2 143.300 1.000 1.000 
2.92 223212 -2583 1 1116 1 -38 573 6 -385 0 2 143.300 1.000 1.000 
2.94 223219 -1511 7 1072 6 -44 716 6 -385 0 2 143.300 1.000 1.000 
2.96 223403 -655 184 856 177 -216 859 6 -385 0 2 143.300 1.000 1.000 
2.98 224027 -276 624 379 440 -477 1002 6 -385 0 2 143.300 1.000 1.000 
3.00 225131 -415 1104 -139 480 -518 859 6 -385 0 2 -143.300 1.000 -1.000 
3.02 226487 -843 1356 -428 252 -289 716 6 -385 0 2 -143.300 1.000 -1.000 
3.04 228021 -1488 1534 -645 178 -217 573 6 -385 0 2 -143.300 1.000 -1.000 
3.06 229639 -2254 1618 -766 84 -121 430 6 -385 0 2 -143.300 1.000 -1.000 
3.08 231287 -3089 1648 -835 30 -69 287 6 -385 0 2 -143.300 1.000 -1.000 
3.10 232839 -3865 1552 -776 -96 59 144 6 -385 0 2 -143.300 1.000 -1.000 
3.12 234234 -4522 1395 -657 -157 119 1 6 -385 0 2 -143.300 1.000 -1.000 
3.14 235384 -4972 1150 -450 -245 207 -142 6 -385 0 2 -143.300 1.000 -1.000 
3.16 236201 -5126 817 -154 -333 296 -285 6 -385 0 2 -143.300 1.000 -1.000 
3.18 236565 -4866 364 260 -453 414 -428 6 -385 0 2 -143.300 1.000 -1.000 
3.20 236582 -4296 17 570 -347 310 -285 6 -385 0 2 143.300 1.000 1.000 
3.22 236582 -3747 0 549 -17 -21 -142 6 -385 0 2 143.300 1.000 1.000 
3.24 236582 -3237 0 510 0 -39 1 6 -385 0 2 143.300 1.000 1.000 
3.26 236582 -2763 0 474 0 -36 144 6 -385 0 2 143.300 1.000 1.000 
3.28 236582 -2328 0 435 0 -39 287 6 -385 0 2 143.300 1.000 1.000 
3.30 236591 -1940 9 388 9 -47 430 6 -385 0 2 143.300 1.000 1.000 
3.32 236684 -1673 93 267 84 -121 573 6 -385 0 2 143.300 1.000 1.000 
3.34 236979 -1647 295 26 202 -241 430 6 -385 0 2 -143.300 1.000 -1.000 
3.36 237399 -1783 420 -136 125 -162 287 6 -385 0 2 -143.300 1.000 -1.000 
3.38 237675 -1813 276 -30 -144 106 144 6 -385 0 2 -143.300 1.000 -1.000 
3.40 237823 -1753 148 60 -128 90 1 6 -385 0 2 -143.300 1.000 -1.000 
3.42 237837 -1596 14 157 -134 97 144 6 -385 0 2 143.300 1.000 1.000 
3.44 237837 -1464 0 132 -14 -25 257 6 -385 0 2 112.535 1.000 0.785 
3.46 237837 -1369 0 95 0 -37 269 6 -385 0 2 12.213 1.000 0.085 
3.48 237837 -1312 0 57 0 -38 169 6 -385 0 2 -99.667 1.000 -0.696 
3.50 237837 -1293 0 19 0 -38 26 6 -385 0 2 -143.300 1.000 -1.000 
3.52 237837 -1293 0 0 0 -19 -117 6 -385 0 2 -143.300 1.000 -1.000 
3.54 237837 -1293 0 0 0 0 -260 6 -385 0 2 -143.300 1.000 -1.000 
3.56 237837 -1293 0 0 0 0 -403 6 -385 0 2 -143.300 1.000 -1.000 
3.58 237798 -1254 -39 39 -39 39 -546 6 -385 0 2 -143.300 1.000 -1.000 
3.60 237630 -1086 -168 168 -129 129 -403 6 -385 0 2 143.300 1.000 1.000 
3.62 237379 -835 -251 251 -83 83 -260 6 -385 0 2 143.300 1.000 1.000 
3.64 237171 -627 -208 208 43 -43 -117 6 -385 0 2 143.300 1.000 1.000 
3.66 237096 -552 -75 75 133 -133 8 6 -385 0 2 124.966 1.000 0.872 
3.68 237096 -552 0 0 75 -75 -112 6 -385 0 2 -120.386 1.000 -0.840 
3.70 237096 -552 0 0 0 0 -232 6 -385 0 2 -120.386 1.000 -0.840 
3.72 237096 -552 0 0 0 0 -352 6 -385 0 2 -120.386 1.000 -0.840 
3.74 237075 -531 -21 21 -21 21 -399 6 -385 0 2 -47.107 1.000 -0.329 
3.76 236995 -451 -80 80 -59 59 -256 6 -385 0 2 143.300 1.000 1.000 
3.78 236911 -367 -84 84 -4 4 -113 6 -385 0 2 143.300 1.000 1.000 
3.80 236905 -361 -6 6 78 -78 -172 6 -385 0 2 -59.102 1.000 -0.412 
3.82 236905 -361 0 0 6 -6 -251 6 -385 0 2 -78.731 1.000 -0.549 
3.84 236905 -361 0 0 0 0 -330 6 -385 0 2 -78.731 1.000 -0.549 
3.86 236889 -345 -16 16 -16 16 -353 6 -385 0 2 -22.899 1.000 -0.160 
3.88 236829 -285 -60 60 -44 44 -219 6 -385 0 2 134.125 1.000 0.936 
3.90 236781 -237 -48 48 12 -12 -114 6 -385 0 2 105.338 1.000 0.735 
3.92 236781 -237 0 0 48 -48 -166 6 -385 0 2 -51.687 1.000 -0.361 
3.94 236781 -237 0 0 0 0 -218 6 -385 0 2 -51.687 1.000 -0.361 
3.96 236781 -237 0 0 0 0 -270 6 -385 0 2 -51.687 1.000 -0.361 
3.98 236781 -237 0 0 0 0 -322 6 -385 0 2 -51.687 1.000 -0.361