0.02 0 18 0 18 0 18 519 83 -78 0 33 7.851 1.000 0.055 
0.04 116 -41 116 -59 116 -77 494 83 -78 0 33 -25.244 1.000 -0.176 
0.06 422 -252 306 -211 190 -152 401 83 -78 0 33 -93.152 1.000 -0.650 
0.08 832 -530 410 -278 104 -67 273 83 -78 0 33 -128.128 1.000 -0.894 
0.10 1240 -767 408 -237 -2 41 155 83 -78 0 33 -117.823 1.000 -0.822 
0.12 1512 -831 272 -64 -136 173 106 83 -78 0 33 -48.825 1.000 -0.341 
0.14 1612 -685 100 146 -172 210 147 83 -78 0 33 41.028 1.000 0.286 
0.16 1612 -401 0 284 -100 138 252 83 -78 0 33 105.201 1.000 0.734 
0.18 1612 -80 0 321 0 37 381 83 -78 0 33 129.082 1.000 0.901 
0.20 1648 244 36 324 36 3 520 83 -78 0 33 139.142 1.000 0.971 
0.22 1839 450 191 206 155 -118 617 83 -78 0 33 96.505 1.000 0.673 
0.24 2228 496 389 46 198 -160 649 83 -78 0 33 32.332 1.000 0.226 
0.26 2480 718 252 222 -137 176 759 83 -78 0 33 110.354 1.000 0.770 
0.28 2489 1220 9 502 -243 280 902 83 -78 0 33 143.300 1.000 1.000 
0.30 2550 1707 61 487 52 -15 1045 83 -78 0 33 143.300 1.000 1.000 
0.32 2683 2161 133 454 72 -33 1188 83 -78 0 33 143.300 1.000 1.000 
0.34 2906 2562 223 401 90 -53 1331 83 -78 0 33 143.300 1.000 1.000 
0.36 3307 2824 401 262 178 -139 1474 83 -78 0 33 143.300 1.000 1.000 
0.38 3981 2850 674 26 273 -236 1562 83 -78 0 33 88.327 1.000 0.616 
0.40 4918 2651 937 -199 263 -225 1553 83 -78 0 33 -9.105 1.000 -0.064 
0.42 6001 2344 1083 -307 146 -108 1491 83 -78 0 33 -61.638 1.000 -0.430 
0.44 7140 2018 1139 -326 56 -19 1413 83 -78 0 33 -78.294 1.000 -0.546 
0.46 8178 1832 1038 -186 -101 140 1387 83 -78 0 33 -26.116 1.000 -0.182 
0.48 9197 1702 1019 -130 -19 56 1380 83 -78 0 33 -6.761 1.000 -0.047 
0.50 10230 1597 1033 -105 14 25 1381 83 -78 0 33 0.600 1.000 0.004 
0.52 11184 1608 954 11 -79 116 1429 83 -78 0 33 48.334 1.000 0.337 
0.54 12153 1642 969 34 15 23 1488 83 -78 0 33 58.666 1.000 0.409 
0.56 13236 1600 1083 -42 114 -76 1514 83 -78 0 33 26.443 1.000 0.185 
0.58 14464 1450 1228 -150 145 -108 1492 83 -78 0 33 -21.809 1.000 -0.152 
0.60 15780 1251 1316 -199 88 -49 1445 83 -78 0 33 -47.271 1.000 -0.330 
0.62 17092 1093 1312 -158 -4 41 1410 83 -78 0 33 -34.813 1.000 -0.243 
0.64 18358 1019 1266 -74 -46 84 1408 83 -78 0 33 -2.481 1.000 -0.017 
0.66 19559 1048 1201 29 -65 103 1448 83 -78 0 33 40.428 1.000 0.282 
0.68 20717 1158 1158 110 -43 81 1525 83 -78 0 33 76.550 1.000 0.534 
0.70 21904 1277 1187 119 29 9 1608 83 -78 0 33 83.474 1.000 0.583 
0.72 23233 1291 1329 14 142 -105 1649 83 -78 0 33 40.919 1.000 0.286 
0.74 24738 1168 1505 -123 176 -137 1631 83 -78 0 33 -18.456 1.000 -0.129 
0.76 26404 921 1666 -247 161 -124 1555 83 -78 0 33 -75.895 1.000 -0.530 
0.78 28186 596 1782 -325 116 -78 1438 83 -78 0 33 -116.651 1.000 -0.814 
0.80 29961 316 1775 -280 -7 45 1332 83 -78 0 33 -105.883 1.000 -0.739 
0.82 31557 253 1596 -63 -179 217 1313 83 -78 0 33 -18.865 1.000 -0.132 
0.84 32928 453 1371 200 -225 263 1407 83 -78 0 33 94.133 1.000 0.657 
0.86 34216 773 1288 320 -83 120 1550 83 -78 0 33 143.300 1.000 1.000 
0.88 35646 989 1430 216 142 -104 1665 83 -78 0 33 115.288 1.000 0.805 
0.90 37227 1093 1581 104 151 -112 1737 83 -78 0 33 72.324 1.000 0.505 
0.92 38988 1054 1761 -39 180 -143 1750 83 -78 0 33 12.786 1.000 0.089 
0.94 40999 803 2011 -251 250 -212 1669 83 -78 0 33 -80.748 1.000 -0.563 
0.96 43140 459 2141 -344 130 -93 1541 83 -78 0 33 -128.155 1.000 -0.894 
0.98 45203 232 2063 -227 -78 117 1454 83 -78 0 33 -86.500 1.000 -0.604 
1.00 47009 299 1806 67 -257 294 1490 83 -78 0 33 35.549 1.000 0.248 
1.02 48495 706 1486 407 -320 340 1633 83 -78 0 33 143.300 1.000 1.000 
1.04 49895 1198 1400 492 -86 85 1776 83 -78 0 33 143.300 1.000 1.000 
1.06 51409 1576 1514 378 114 -114 1919 83 -78 0 33 143.300 1.000 1.000 
1.08 53125 1753 1716 177 202 -201 2039 83 -78 0 33 120.168 1.000 0.839 
1.10 55150 1620 2025 -133 309 -310 2029 83 -78 0 33 -10.223 1.000 -0.071 
1.12 57552 1110 2402 -510 377 -377 1886 83 -78 0 33 -143.300 1.000 -1.000 
1.14 60145 410 2593 -700 191 -190 1743 83 -78 0 33 -143.300 1.000 -1.000 
1.16 62748 -301 2603 -711 10 -11 1600 83 -78 0 33 -143.300 1.000 -1.000 
1.18 65178 -838 2430 -537 -173 174 1457 83 -78 0 33 -143.300 1.000 -1.000 
1.20 67289 -1057 2111 -219 -319 318 1339 83 -78 0 33 -118.368 1.000 -0.826 
1.22 69061 -937 1772 120 -339 339 1363 83 -78 0 33 23.526 1.000 0.164 
1.24 70540 -523 1479 414 -293 294 1506 83 -78 0 33 143.300 1.000 1.000 
1.26 71899 10 1359 533 -120 119 1649 83 -78 0 33 143.300 1.000 1.000 
1.28 73334 467 1435 457 76 -76 1792 83 -78 0 33 143.300 1.000 1.000 
1.30 75009 685 1675 218 240 -239 1900 83 -78 0 33 107.818 1.000 0.752 
1.32 77079 507 2070 -178 395 -396 1841 83 -78 0 33 -58.966 1.000 -0.411 
1.34 79478 0 2399 -507 329 -329 1698 83 -78 0 33 -143.300 1.000 -1.000 
1.36 82053 -682 2575 -682 176 -175 1555 83 -78 0 33 -143.300 1.000 -1.000 
1.38 84580 -1317 2527 -635 -48 47 1412 83 -78 0 33 -143.300 1.000 -1.000 
1.40 86938 -1783 2358 -466 -169 169 1269 83 -78 0 33 -143.300 1.000 -1.000 
1.42 89072 -2024 2134 -241 -224 225 1126 83 -78 0 33 -143.300 1.000 -1.000 
1.44 90856 -1916 1784 108 -350 349 1118 83 -78 0 33 -8.069 1.000 -0.056 
1.46 92286 -1453 1430 463 -354 355 1261 83 -78 0 33 143.300 1.000 1.000 
1.48 93557 -832 1271 621 -159 158 1404 83 -78 0 33 143.300 1.000 1.000 
1.50 94903 -286 1346 546 75 -75 1547 83 -78 0 33 143.300 1.000 1.000 
1.52 96485 25 1582 311 236 -235 1675 83 -78 0 33 127.855 1.000 0.892 
1.54 98376 26 1891 1 309 -310 1676 83 -78 0 33 1.118 1.000 0.008 
1.56 100620 -326 2244 -352 353 -353 1533 83 -78 0 33 -143.300 1.000 -1.000 
1.58 103062 -875 2442 -549 198 -197 1390 83 -78 0 33 -143.300 1.000 -1.000 
1.60 105562 -1483 2500 -608 58 -59 1247 83 -78 0 33 -143.300 1.000 -1.000 
1.62 107931 -1960 2369 -477 -131 131 1104 83 -78 0 33 -143.300 1.000 -1.000 
1.64 110052 -2188 2121 -228 -248 249 961 83 -78 0 33 -143.300 1.000 -1.000 
1.66 111806 -2050 1754 138 -367 366 962 83 -78 0 33 0.545 1.000 0.004 
1.68 113205 -1557 1399 493 -355 355 1105 83 -78 0 33 143.300 1.000 1.000 
1.70 114382 -841 1177 716 -222 223 1248 83 -78 0 33 143.300 1.000 1.000 
1.72 115544 -111 1162 730 -15 14 1391 83 -78 0 33 143.300 1.000 1.000 
1.74 116869 456 1325 567 163 -163 1534 83 -78 0 33 143.300 1.000 1.000 
1.76 118519 699 1650 243 325 -324 1652 83 -78 0 33 118.423 1.000 0.826 
1.78 120610 500 2091 -199 441 -442 1584 83 -78 0 33 -67.744 1.000 -0.473 
1.80 123051 -48 2441 -548 350 -349 1441 83 -78 0 33 -143.300 1.000 -1.000 
1.82 125662 -767 2611 -719 170 -171 1298 83 -78 0 33 -143.300 1.000 -1.000 
1.84 128292 -1505 2630 -738 19 -19 1155 83 -78 0 33 -143.300 1.000 -1.000 
1.86 130782 -2102 2490 -597 -140 141 1012 83 -78 0 33 -143.300 1.000 -1.000 
1.88 133055 -2483 2273 -381 -217 216 869 83 -78 0 33 -143.300 1.000 -1.000 
1.90 134972 -2508 1917 -25 -356 356 790 83 -78 0 33 -78.594 1.000 -0.548 
1.92 136459 -2102 1487 406 -430 431 899 83 -78 0 33 108.718 1.000 0.759 
1.94 137637 -1388 1178 714 -309 308 1042 83 -78 0 33 143.300 1.000 1.000 
1.96 138724 -583 1087 805 -91 91 1185 83 -78 0 33 143.300 1.000 1.000 
1.98 139833 201 1109 784 22 -21 1328 83 -78 0 33 143.300 1.000 1.000 
2.00 141203 723 1370 522 261 -262 1471 83 -78 0 33 143.300 1.000 1.000 
2.02 142975 843 1772 120 402 -402 1543 83 -78 0 33 72.052 1.000 0.503 
2.04 145130 581 2155 -262 383 -382 1452 83 -78 0 33 -91.298 1.000 -0.637 
2.06 147607 -4 2477 -585 322 -323 1309 83 -78 0 33 -143.300 1.000 -1.000 
2.08 150208 -713 2601 -709 124 -124 1166 83 -78 0 33 -143.300 1.000 -1.000 
2.10 152800 -1412 2592 -699 -9 10 1023 83 -78 0 33 -143.300 1.000 -1.000 
2.12 155281 -2001 2481 -589 -111 110 880 83 -78 0 33 -143.300 1.000 -1.000 
2.14 157516 -2343 2235 -342 -246 247 737 83 -78 0 33 -143.300 1.000 -1.000 
2.16 159415 -2350 1899 -7 -336 335 670 83 -78 0 33 -66.926 1.000 -0.467 
2.18 161008 -2051 1593 299 -306 306 736 83 -78 0 33 66.354 1.000 0.463 
2.20 162382 -1532 1374 519 -219 220 879 83 -78 0 33 143.300 1.000 1.000 
2.22 163634 -892 1252 640 -122 121 1022 83 -78 0 33 143.300 1.000 1.000 
2.24 164863 -229 1229 663 -23 23 1165 83 -78 0 33 143.300 1.000 1.000 
2.26 166298 229 1435 458 206 -205 1308 83 -78 0 33 143.300 1.000 1.000 
2.28 168059 360 1761 131 326 -327 1371 83 -78 0 33 63.382 1.000 0.442 
2.30 170172 139 2113 -221 352 -352 1284 83 -78 0 33 -86.582 1.000 -0.604 
2.32 172514 -310 2342 -449 229 -228 1141 83 -78 0 33 -143.300 1.000 -1.000 
2.34 174972 -876 2458 -566 116 -117 998 83 -78 0 33 -143.300 1.000 -1.000 
2.36 177490 -1502 2518 -626 60 -60 855 83 -78 0 33 -143.300 1.000 -1.000 
2.38 179876 -1995 2386 -493 -132 133 712 83 -78 0 33 -143.300 1.000 -1.000 
2.40 181994 -2221 2118 -226 -268 267 569 83 -78 0 33 -143.300 1.000 -1.000 
2.42 183862 -2196 1868 25 -250 251 519 83 -78 0 33 -49.643 1.000 -0.346 
2.44 185485 -1927 1623 269 -245 244 576 83 -78 0 33 57.467 1.000 0.401 
2.46 186901 -1451 1416 476 -207 207 719 83 -78 0 33 143.300 1.000 1.000 
2.48 188214 -871 1313 580 -103 104 862 83 -78 0 33 143.300 1.000 1.000 
2.50 189541 -306 1327 565 14 -15 1005 83 -78 0 33 143.300 1.000 1.000 
2.52 191049 59 1508 365 181 -200 1148 83 -78 0 33 143.300 1.000 1.000 
2.54 192880 64 1831 5 323 -360 1152 83 -78 0 33 3.789 1.000 0.026 
2.56 194956 -214 2076 -278 245 -283 1032 83 -78 0 33 -119.513 1.000 -0.834 
2.58 197171 -669 2215 -455 139 -177 889 83 -78 0 33 -143.300 1.000 -1.000 
2.60 199522 -1298 2351 -629 136 -174 746 83 -78 0 33 -143.300 1.000 -1.000 
2.62 201842 -1934 2320 -636 -31 -7 603 83 -78 0 33 -143.300 1.000 -1.000 
2.64 204019 -2465 2177 -531 -143 105 460 83 -78 0 33 -143.300 1.000 -1.000 
2.66 205967 -2804 1948 -339 -229 192 317 83 -78 0 33 -143.300 1.000 -1.000 
2.68 207659 -2926 1692 -122 -256 217 187 83 -78 0 33 -129.655 1.000 -0.905 
2.70 209087 -2821 1428 105 -264 227 153 83 -78 0 33 -33.968 1.000 -0.237 
2.72 210236 -2475 1149 346 -279 241 227 83 -78 0 33 74.014 1.000 0.516 
2.74 211130 -1912 894 563 -255 217 370 83 -78 0 33 143.300 1.000 1.000 
2.76 211874 -1237 744 675 -150 112 513 83 -78 0 33 143.300 1.000 1.000 
2.78 212587 -568 713 669 -31 -6 656 83 -78 0 33 143.300 1.000 1.000 
2.80 213354 8 767 576 54 -93 799 83 -78 0 33 143.300 1.000 1.000 
2.82 214230 438 876 430 109 -146 942 83 -78 0 33 143.300 1.000 1.000 
2.84 215332 604 1102 166 226 -264 1026 83 -78 0 33 84.346 1.000 0.589 
2.86 216768 398 1436 -206 334 -372 953 83 -78 0 33 -73.387 1.000 -0.512 
2.88 218555 -197 1787 -595 351 -389 810 83 -78 0 33 -143.300 1.000 -1.000 
2.90 220572 -1060 2017 -863 230 -268 667 83 -78 0 33 -143.300 1.000 -1.000 
2.92 222648 -2019 2076 -959 59 -96 524 83 -78 0 33 -143.300 1.000 -1.000 
2.94 224752 -3044 2104 -1025 28 -66 381 83 -78 0 33 -143.300 1.000 -1.000 
2.96 226800 -4052 2048 -1008 -56 17 238 83 -78 0 33 -143.300 1.000 -1.000 
2.98 228695 -4944 1895 -892 -153 116 95 83 -78 0 33 -143.300 1.000 -1.000 
3.00 230356 -5640 1661 -696 -234 196 -48 83 -78 0 33 -143.300 1.000 -1.000 
3.02 231748 -6104 1392 -464 -269 232 -191 83 -78 0 33 -143.300 1.000 -1.000 
3.04 232763 -6230 1015 -126 -377 338 -334 83 -78 0 33 -143.300 1.000 -1.000 
3.06 233267 -5882 504 348 -511 474 -352 83 -78 0 33 -18.047 1.000 -0.126 
3.08 233365 -5167 98 715 -406 367 -209 83 -78 0 33 143.300 1.000 1.000 
3.10 233365 -4391 0 776 -98 61 -66 83 -78 0 33 143.300 1.000 1.000 
3.12 233365 -3653 0 738 0 -38 77 83 -78 0 33 143.300 1.000 1.000 
3.14 233365 -2953 0 700 0 -38 220 83 -78 0 33 143.300 1.000 1.000 
3.16 233365 -2290 0 663 0 -37 363 83 -78 0 33 143.300 1.000 1.000 
3.18 233407 -1708 42 582 42 -81 506 83 -78 0 33 143.300 1.000 1.000 
3.20 233590 -1304 183 404 141 -178 636 83 -78 0 33 129.655 1.000 0.905 
3.22 234018 -1183 428 121 245 -283 653 83 -78 0 33 17.229 1.000 0.120 
3.24 234708 -1363 690 -180 262 -301 542 83 -78 0 33 -110.763 1.000 -0.773 
3.26 235422 -1603 714 -240 24 -60 400 83 -78 0 33 -141.840 1.000 -0.990 
3.28 236187 -1933 765 -330 51 -90 257 83 -78 0 33 -143.300 1.000 -1.000 
3.30 236902 -2251 715 -318 -50 12 114 83 -78 0 33 -143.300 1.000 -1.000 
3.32 237462 -2451 560 -200 -155 118 -29 83 -78 0 33 -143.300 1.000 -1.000 
3.34 237788 -2456 326 -5 -234 195 -98 83 -78 0 33 -68.998 1.000 -0.481 
3.36 237837 -2221 49 235 -277 240 -62 83 -78 0 33 35.549 1.000 0.248 
3.38 237837 -1975 0 246 -49 11 -15 83 -78 0 33 46.753 1.000 0.326 
3.40 237837 -1767 0 208 0 -38 22 83 -78 0 33 36.885 1.000 0.257 
3.42 237857 -1616 20 151 20 -57 40 83 -78 0 33 17.693 1.000 0.123 
3.44 237869 -1496 12 120 -8 -31 48 83 -78 0 33 8.287 1.000 0.058 
3.46 237869 -1401 0 95 -12 -25 49 83 -78 0 33 0.654 1.000 0.005 
3.48 237869 -1344 0 57 0 -38 36 83 -78 0 33 -13.331 1.000 -0.093 
3.50 237869 -1325 0 19 0 -38 8 83 -78 0 33 -28.352 1.000 -0.198 
3.52 237869 -1325 0 0 0 -19 -28 83 -78 0 33 -36.121 1.000 -0.252 
3.54 237869 -1325 0 0 0 0 -64 83 -78 0 33 -36.121 1.000 -0.252 
3.56 237869 -1325 0 0 0 0 -100 83 -78 0 33 -36.121 1.000 -0.252 
3.58 237869 -1325 0 0 0 0 -136 83 -78 0 33 -36.121 1.000 -0.252 
3.60 237869 -1325 0 0 0 0 -172 83 -78 0 33 -36.121 1.000 -0.252 
3.62 237869 -1325 0 0 0 0 -208 83 -78 0 33 -36.121 1.000 -0.252 
3.64 237869 -1325 0 0 0 0 -244 83 -78 0 33 -36.121 1.000 -0.252 
3.66 237869 -1325 0 0 0 0 -280 83 -78 0 33 -36.121 1.000 -0.252 
3.68 237869 -1325 0 0 0 0 -316 83 -78 0 33 -36.121 1.000 -0.252 
3.70 237850 -1306 -19 19 -19 19 -344 83 -78 0 33 -27.834 1.000 -0.194 
3.72 237818 -1274 -32 32 -13 13 -366 83 -78 0 33 -21.645 1.000 -0.151 
3.74 237753 -1209 -65 65 -33 33 -372 83 -78 0 33 -6.379 1.000 -0.045 
3.76 237633 -1089 -120 120 -55 55 -353 83 -78 0 33 19.383 1.000 0.135 
3.78 237460 -916 -173 173 -53 53 -307 83 -78 0 33 45.772 1.000 0.319 
3.80 237253 -709 -207 207 -34 34 -242 83 -78 0 33 65.318 1.000 0.456 
3.82 237081 -537 -172 172 35 -35 -186 83 -78 0 33 55.695 1.000 0.389 
3.84 236991 -447 -90 90 82 -82 -161 83 -78 0 33 24.617 1.000 0.172 
3.86 236985 -441 -6 6 84 -84 -171 83 -78 0 33 -9.569 1.000 -0.067 
3.88 236985 -441 0 0 6 -6 -183 83 -78 0 33 -12.022 1.000 -0.084 
3.90 236985 -441 0 0 0 0 -195 83 -78 0 33 -12.022 1.000 -0.084 
3.92 236985 -441 0 0 0 0 -207 83 -78 0 33 -12.022 1.000 -0.084 
3.94 236985 -441 0 0 0 0 -219 83 -78 0 33 -12.022 1.000 -0.084 
3.96 236985 -441 0 0 0 0 -231 83 -78 0 33 -12.022 1.000 -0.084 
3.98 236985 -441 0 0 0 0 -243 83 -78 0 33 -12.022 1.000 -0.084