0.02 0 18 0 18 0 18 515 28 -312 0 10 4.416 1.000 0.026 
0.04 6 69 6 51 6 33 528 28 -312 0 10 12.807 1.000 0.074 
0.06 9 161 3 92 -3 41 552 28 -312 0 10 23.701 1.000 0.138 
0.08 15 287 6 126 3 34 586 28 -312 0 10 33.548 1.000 0.195 
0.10 29 444 14 157 8 31 629 28 -312 0 10 43.215 1.000 0.251 
0.12 51 630 22 186 8 29 682 28 -312 0 10 52.898 1.000 0.308 
0.14 93 834 42 204 20 18 742 28 -312 0 10 60.356 1.000 0.351 
0.16 170 1041 77 207 35 3 806 28 -312 0 10 64.429 1.000 0.375 
0.18 273 1259 103 218 26 11 877 28 -312 0 10 70.514 1.000 0.410 
0.20 360 1532 87 273 -16 55 965 28 -312 0 10 87.574 1.000 0.509 
0.22 468 1821 108 289 21 16 1061 28 -312 0 10 95.965 1.000 0.558 
0.24 625 2099 157 278 49 -11 1159 28 -312 0 10 97.993 1.000 0.570 
0.26 875 2323 250 224 93 -54 1248 28 -312 0 10 89.292 1.000 0.519 
0.28 1215 2494 340 171 90 -53 1328 28 -312 0 10 79.952 1.000 0.465 
0.30 1694 2563 479 69 139 -102 1386 28 -312 0 10 57.723 1.000 0.336 
0.32 2279 2565 585 2 106 -67 1428 28 -312 0 10 42.413 1.000 0.247 
0.34 2917 2551 638 -14 53 -16 1467 28 -312 0 10 38.520 1.000 0.224 
0.36 3599 2532 682 -19 44 -5 1504 28 -312 0 10 37.064 1.000 0.216 
0.38 4418 2413 819 -119 137 -100 1516 28 -312 0 10 12.219 1.000 0.071 
0.40 5331 2238 913 -175 94 -56 1513 28 -312 0 10 -3.468 1.000 -0.020 
0.42 6303 2042 972 -196 59 -21 1502 28 -312 0 10 -11.482 1.000 -0.067 
0.44 7410 1748 1107 -294 135 -98 1463 28 -312 0 10 -38.733 1.000 -0.225 
0.46 8607 1403 1197 -345 90 -51 1407 28 -312 0 10 -56.055 1.000 -0.326 
0.48 9805 1094 1198 -309 1 36 1354 28 -312 0 10 -52.865 1.000 -0.307 
0.50 10946 881 1141 -213 -57 96 1320 28 -312 0 10 -34.366 1.000 -0.200 
0.52 12019 773 1073 -108 -68 105 1308 28 -312 0 10 -12.088 1.000 -0.070 
0.54 13000 795 981 22 -92 130 1326 28 -312 0 10 18.042 1.000 0.105 
0.56 13889 947 889 152 -92 130 1376 28 -312 0 10 50.297 1.000 0.292 
0.58 14697 1217 808 270 -81 118 1458 28 -312 0 10 81.735 1.000 0.475 
0.60 15593 1438 896 221 88 -49 1532 28 -312 0 10 74.129 1.000 0.431 
0.62 16583 1602 990 164 94 -57 1596 28 -312 0 10 63.759 1.000 0.371 
0.64 17742 1635 1159 33 169 -131 1630 28 -312 0 10 34.300 1.000 0.199 
0.66 19073 1534 1331 -101 172 -134 1632 28 -312 0 10 1.963 1.000 0.011 
0.68 20638 1237 1565 -297 234 -196 1584 28 -312 0 10 -47.778 1.000 -0.278 
0.70 22303 878 1665 -359 100 -62 1516 28 -312 0 10 -67.848 1.000 -0.395 
0.72 23975 549 1672 -329 7 30 1450 28 -312 0 10 -66.359 1.000 -0.386 
0.74 25609 297 1634 -252 -38 77 1397 28 -312 0 10 -52.849 1.000 -0.307 
0.76 27161 164 1552 -133 -82 119 1369 28 -312 0 10 -27.774 1.000 -0.162 
0.78 28615 167 1454 3 -98 136 1372 28 -312 0 10 3.419 1.000 0.020 
0.80 29877 400 1262 233 -192 230 1432 28 -312 0 10 59.898 1.000 0.348 
0.82 31040 770 1163 370 -99 137 1529 28 -312 0 10 97.323 1.000 0.566 
0.84 32316 1065 1276 295 113 -75 1614 28 -312 0 10 84.973 1.000 0.494 
0.86 33815 1174 1499 109 223 -186 1658 28 -312 0 10 44.163 1.000 0.257 
0.88 35441 1194 1626 20 127 -89 1682 28 -312 0 10 24.110 1.000 0.140 
0.90 37214 1106 1773 -88 147 -108 1680 28 -312 0 10 -2.061 1.000 -0.012 
0.92 39165 877 1951 -229 178 -141 1642 28 -312 0 10 -38.095 1.000 -0.222 
0.94 41206 596 2041 -281 90 -52 1587 28 -312 0 10 -54.599 1.000 -0.318 
0.96 43148 451 1942 -145 -99 136 1561 28 -312 0 10 -25.827 1.000 -0.150 
0.98 44890 545 1742 94 -200 239 1591 28 -312 0 10 30.440 1.000 0.177 
1.00 46432 876 1542 331 -200 237 1681 28 -312 0 10 90.126 1.000 0.524 
1.02 47960 1241 1528 365 -14 34 1785 28 -312 0 10 103.882 1.000 0.604 
1.04 49576 1517 1616 276 88 -89 1873 28 -312 0 10 88.016 1.000 0.512 
1.06 51330 1655 1754 138 138 -138 1932 28 -312 0 10 58.672 1.000 0.341 
1.08 53240 1638 1910 -17 156 -155 1955 28 -312 0 10 22.899 1.000 0.133 
1.10 55422 1348 2182 -290 272 -273 1911 28 -312 0 10 -44.360 1.000 -0.258 
1.12 57818 844 2396 -504 214 -214 1809 28 -312 0 10 -101.608 1.000 -0.591 
1.14 60273 282 2455 -562 59 -58 1685 28 -312 0 10 -124.082 1.000 -0.722 
1.16 62607 -160 2334 -442 -121 120 1581 28 -312 0 10 -103.833 1.000 -0.604 
1.18 64702 -362 2095 -202 -239 240 1529 28 -312 0 10 -52.178 1.000 -0.303 
1.20 66653 -421 1951 -59 -144 143 1509 28 -312 0 10 -20.397 1.000 -0.119 
1.22 68450 -326 1797 95 -154 154 1525 28 -312 0 10 16.422 1.000 0.096 
1.24 70080 -63 1630 263 -167 168 1584 28 -312 0 10 59.195 1.000 0.344 
1.26 71646 263 1566 326 -64 63 1663 28 -312 0 10 78.954 1.000 0.459 
1.28 73294 507 1648 244 82 -82 1727 28 -312 0 10 64.168 1.000 0.373 
1.30 75174 520 1880 13 232 -231 1738 28 -312 0 10 11.482 1.000 0.067 
1.32 77225 361 2051 -159 171 -172 1707 28 -312 0 10 -30.505 1.000 -0.177 
1.34 79392 86 2167 -275 116 -116 1645 28 -312 0 10 -61.567 1.000 -0.358 
1.36 81610 -239 2218 -325 51 -50 1567 28 -312 0 10 -78.333 1.000 -0.456 
1.38 83847 -584 2237 -345 19 -20 1478 28 -312 0 10 -88.556 1.000 -0.515 
1.40 86018 -863 2171 -279 -66 66 1400 28 -312 0 10 -78.005 1.000 -0.454 
1.42 88037 -989 2019 -126 -152 153 1355 28 -312 0 10 -45.030 1.000 -0.262 
1.44 89878 -938 1841 51 -178 177 1351 28 -312 0 10 -3.664 1.000 -0.021 
1.46 91613 -780 1735 158 -106 107 1374 28 -312 0 10 23.423 1.000 0.136 
1.48 93361 -636 1748 144 13 -14 1397 28 -312 0 10 22.572 1.000 0.131 
1.50 95132 -515 1771 121 23 -23 1416 28 -312 0 10 19.285 1.000 0.112 
1.52 96915 -405 1783 110 12 -11 1435 28 -312 0 10 18.565 1.000 0.108 
1.54 98748 -346 1833 59 50 -51 1443 28 -312 0 10 7.851 1.000 0.046 
1.56 100667 -373 1919 -27 86 -86 1431 28 -312 0 10 -12.284 1.000 -0.071 
1.58 102676 -489 2009 -116 90 -89 1396 28 -312 0 10 -34.562 1.000 -0.201 
1.60 104675 -596 1999 -107 -10 9 1362 28 -312 0 10 -34.251 1.000 -0.199 
1.62 106631 -660 1956 -64 -43 43 1337 28 -312 0 10 -25.451 1.000 -0.148 
1.64 108575 -711 1944 -51 -12 13 1314 28 -312 0 10 -23.308 1.000 -0.136 
1.66 110507 -751 1932 -40 -12 11 1293 28 -312 0 10 -21.444 1.000 -0.125 
1.68 112371 -723 1864 28 -68 68 1288 28 -312 0 10 -5.414 1.000 -0.031 
1.70 114155 -614 1784 109 -80 81 1303 28 -312 0 10 14.917 1.000 0.087 
1.72 115961 -528 1806 86 22 -23 1314 28 -312 0 10 11.057 1.000 0.064 
1.74 117816 -491 1855 37 49 -49 1314 28 -312 0 10 0.442 1.000 0.003 
1.76 119672 -454 1856 37 1 0 1315 28 -312 0 10 1.047 1.000 0.006 
1.78 121519 -409 1847 45 -9 8 1319 28 -312 0 10 3.615 1.000 0.021 
1.80 123434 -431 1915 -22 68 -67 1307 28 -312 0 10 -12.088 1.000 -0.070 
1.82 125379 -484 1945 -53 30 -31 1287 28 -312 0 10 -20.053 1.000 -0.117 
1.84 127305 -518 1926 -34 -19 19 1271 28 -312 0 10 -16.259 1.000 -0.095 
1.86 129208 -528 1903 -10 -23 24 1260 28 -312 0 10 -10.926 1.000 -0.064 
1.88 131107 -535 1899 -7 -4 3 1250 28 -312 0 10 -10.354 1.000 -0.060 
1.90 132994 -530 1887 5 -12 12 1242 28 -312 0 10 -7.524 1.000 -0.044 
1.92 134860 -503 1866 27 -21 22 1240 28 -312 0 10 -2.045 1.000 -0.012 
1.94 136707 -458 1847 45 -19 18 1243 28 -312 0 10 2.813 1.000 0.016 
1.96 138557 -416 1850 42 3 -3 1246 28 -312 0 10 2.813 1.000 0.016 
1.98 140493 -459 1936 -43 86 -85 1229 28 -312 0 10 -17.355 1.000 -0.101 
2.00 142440 -514 1947 -55 11 -12 1208 28 -312 0 10 -21.002 1.000 -0.122 
2.02 144365 -547 1925 -33 -22 22 1191 28 -312 0 10 -16.504 1.000 -0.096 
2.04 146305 -594 1940 -47 15 -14 1171 28 -312 0 10 -20.479 1.000 -0.119 
2.06 148214 -611 1909 -17 -31 30 1157 28 -312 0 10 -13.887 1.000 -0.081 
2.08 150066 -571 1852 40 -57 57 1157 28 -312 0 10 -0.180 1.000 -0.001 
2.10 151908 -520 1842 51 -10 11 1160 28 -312 0 10 3.173 1.000 0.018 
2.12 153733 -453 1825 67 -17 16 1168 28 -312 0 10 7.933 1.000 0.046 
2.14 155575 -402 1842 51 17 -16 1173 28 -312 0 10 5.103 1.000 0.030 
2.16 157498 -433 1923 -31 81 -82 1159 28 -312 0 10 -14.181 1.000 -0.082 
2.18 159452 -495 1954 -62 31 -31 1137 28 -312 0 10 -22.294 1.000 -0.130 
2.20 161433 -583 1981 -88 27 -26 1107 28 -312 0 10 -29.688 1.000 -0.173 
2.22 163432 -690 1999 -107 18 -19 1071 28 -312 0 10 -35.789 1.000 -0.208 
2.24 165443 -809 2011 -119 12 -12 1031 28 -312 0 10 -40.483 1.000 -0.235 
2.26 167418 -891 1975 -82 -36 37 998 28 -312 0 10 -33.351 1.000 -0.194 
2.28 169331 -912 1913 -21 -62 61 978 28 -312 0 10 -19.726 1.000 -0.115 
2.30 171121 -810 1790 102 -123 123 988 28 -312 0 10 10.108 1.000 0.059 
2.32 172825 -621 1704 189 -86 87 1021 28 -312 0 10 33.122 1.000 0.193 
2.34 174572 -476 1747 145 43 -44 1046 28 -312 0 10 25.418 1.000 0.148 
2.36 176345 -357 1773 119 26 -26 1067 28 -312 0 10 21.411 1.000 0.125 
2.38 178109 -228 1764 129 -9 10 1093 28 -312 0 10 25.811 1.000 0.150 
2.40 179985 -212 1876 16 112 -113 1093 28 -312 0 10 0.196 1.000 0.001 
2.42 182034 -368 2049 -156 173 -172 1051 28 -312 0 10 -41.742 1.000 -0.243 
2.44 184151 -593 2117 -225 68 -69 990 28 -312 0 10 -61.223 1.000 -0.356 
2.46 186266 -816 2115 -223 -2 2 926 28 -312 0 10 -64.413 1.000 -0.375 
2.48 188350 -1007 2084 -191 -31 32 866 28 -312 0 10 -60.209 1.000 -0.350 
2.50 190424 -1189 2074 -182 -10 9 805 28 -312 0 10 -61.125 1.000 -0.355 
2.52 192417 -1309 1993 -120 -81 62 756 28 -312 0 10 -48.890 1.000 -0.284 
2.54 194232 -1288 1815 21 -178 141 740 28 -312 0 10 -16.259 1.000 -0.095 
2.56 195900 -1158 1668 130 -147 109 751 28 -312 0 10 10.828 1.000 0.063 
2.58 197523 -1021 1623 137 -45 7 766 28 -312 0 10 14.672 1.000 0.085 
2.60 199065 -841 1542 180 -81 43 793 28 -312 0 10 27.463 1.000 0.160 
2.62 200538 -630 1473 211 -69 31 831 28 -312 0 10 38.013 1.000 0.221 
2.64 202018 -464 1480 166 7 -45 861 28 -312 0 10 30.424 1.000 0.177 
2.66 203531 -368 1513 96 33 -70 877 28 -312 0 10 15.964 1.000 0.093 
2.68 205143 -410 1612 -42 99 -138 861 28 -312 0 10 -16.324 1.000 -0.095 
2.70 206847 -581 1704 -171 92 -129 812 28 -312 0 10 -48.661 1.000 -0.283 
2.72 208561 -800 1714 -219 10 -48 749 28 -312 0 10 -63.235 1.000 -0.368 
2.74 210275 -1057 1714 -257 0 -38 673 28 -312 0 10 -76.141 1.000 -0.443 
2.76 211973 -1336 1698 -279 -16 -22 587 28 -312 0 10 -85.742 1.000 -0.499 
2.78 213583 -1564 1610 -228 -88 51 509 28 -312 0 10 -77.793 1.000 -0.452 
2.80 215052 -1690 1469 -126 -141 102 453 28 -312 0 10 -56.496 1.000 -0.329 
2.82 216340 -1672 1288 18 -181 144 430 28 -312 0 10 -23.227 1.000 -0.135 
2.84 217480 -1544 1140 128 -148 110 434 28 -312 0 10 4.056 1.000 0.024 
2.86 218466 -1300 986 244 -154 116 469 28 -312 0 10 34.611 1.000 0.201 
2.88 219307 -949 841 351 -145 107 534 28 -312 0 10 64.855 1.000 0.377 
2.90 220066 -554 759 395 -82 44 615 28 -312 0 10 81.391 1.000 0.473 
2.92 220817 -188 751 366 -8 -29 696 28 -312 0 10 80.737 1.000 0.470 
2.94 221650 58 833 246 82 -120 753 28 -312 0 10 57.281 1.000 0.333 
2.96 222593 155 943 97 110 -149 778 28 -312 0 10 24.748 1.000 0.144 
2.98 223672 79 1079 -76 136 -173 762 28 -312 0 10 -16.111 1.000 -0.094 
3.00 224911 -195 1239 -274 160 -198 696 28 -312 0 10 -65.934 1.000 -0.383 
3.02 226280 -636 1369 -441 130 -167 585 28 -312 0 10 -111.390 1.000 -0.648 
3.04 227641 -1108 1361 -472 -8 -31 459 28 -312 0 10 -126.209 1.000 -0.734 
3.06 228954 -1569 1313 -461 -48 11 328 28 -312 0 10 -131.230 1.000 -0.763 
3.08 230160 -1962 1206 -393 -107 68 206 28 -312 0 10 -122.087 1.000 -0.710 
3.10 231160 -2186 1000 -224 -206 169 119 28 -312 0 10 -87.051 1.000 -0.506 
3.12 231887 -2175 727 11 -273 235 86 28 -312 0 10 -33.057 1.000 -0.192 
3.14 232394 -1982 507 193 -220 182 98 28 -312 0 10 11.777 1.000 0.068 
3.16 232704 -1629 310 353 -197 160 152 28 -312 0 10 54.190 1.000 0.315 
3.18 232836 -1137 132 492 -178 139 246 28 -312 0 10 94.068 1.000 0.547 
3.20 232842 -556 6 581 -126 89 370 28 -312 0 10 123.952 1.000 0.721 
3.22 232843 -8 1 548 -5 -33 495 28 -312 0 10 125.358 1.000 0.729 
3.24 232876 469 33 477 32 -71 612 28 -312 0 10 116.902 1.000 0.680 
3.26 233024 795 148 326 115 -151 700 28 -312 0 10 87.656 1.000 0.510 
3.28 233384 870 360 75 212 -251 731 28 -312 0 10 31.405 1.000 0.183 
3.30 233965 686 581 -184 221 -259 700 28 -312 0 10 -30.914 1.000 -0.180 
3.32 234744 267 779 -419 198 -235 608 28 -312 0 10 -91.582 1.000 -0.533 
3.34 235651 -319 907 -586 128 -167 469 28 -312 0 10 -139.409 1.000 -0.811 
3.36 236595 -979 944 -660 37 -74 302 28 -312 0 10 -167.150 1.000 -0.972 
3.38 237453 -1591 858 -612 -86 48 136 28 -312 0 10 -166.168 1.000 -0.966 
3.40 238121 -2051 668 -460 -190 152 -3 28 -312 0 10 -138.885 1.000 -0.808 
3.42 238538 -2297 417 -246 -251 214 -97 28 -312 0 10 -93.904 1.000 -0.546 
3.44 238663 -2290 125 7 -292 253 -133 28 -312 0 10 -35.854 1.000 -0.209 
3.46 238663 -2195 0 95 -125 88 -147 28 -312 0 10 -14.149 1.000 -0.082 
3.48 238663 -2138 0 57 0 -38 -169 28 -312 0 10 -21.918 1.000 -0.127 
3.50 238663 -2119 0 19 0 -38 -199 28 -312 0 10 -30.309 1.000 -0.176 
3.52 238663 -2119 0 0 0 -19 -234 28 -312 0 10 -34.660 1.000 -0.202 
3.54 238663 -2119 0 0 0 0 -269 28 -312 0 10 -34.660 1.000 -0.202 
3.56 238630 -2086 -33 33 -33 33 -296 28 -312 0 10 -26.563 1.000 -0.154 
3.58 238505 -1961 -125 125 -92 92 -299 28 -312 0 10 -3.451 1.000 -0.020 
3.60 238284 -1740 -221 221 -96 96 -277 28 -312 0 10 22.147 1.000 0.129 
3.62 238011 -1467 -273 273 -52 52 -238 28 -312 0 10 38.520 1.000 0.224 
3.64 237773 -1229 -238 238 35 -35 -204 28 -312 0 10 34.398 1.000 0.200 
3.66 237603 -1059 -170 170 68 -68 -182 28 -312 0 10 21.607 1.000 0.126 
3.68 237527 -983 -76 76 94 -94 -181 28 -312 0 10 1.325 1.000 0.008 
3.70 237523 -979 -4 4 72 -72 -196 28 -312 0 10 -15.097 1.000 -0.088 
3.72 237523 -979 0 0 4 -4 -212 28 -312 0 10 -16.013 1.000 -0.093 
3.74 237523 -979 0 0 0 0 -228 28 -312 0 10 -16.013 1.000 -0.093 
3.76 237523 -979 0 0 0 0 -244 28 -312 0 10 -16.013 1.000 -0.093 
3.78 237523 -979 0 0 0 0 -260 28 -312 0 10 -16.013 1.000 -0.093 
3.80 237523 -979 0 0 0 0 -276 28 -312 0 10 -16.013 1.000 -0.093 
3.82 237523 -979 0 0 0 0 -292 28 -312 0 10 -16.013 1.000 -0.093 
3.84 237519 -975 -4 4 -4 4 -307 28 -312 0 10 -15.032 1.000 -0.087 
3.86 237500 -956 -19 19 -15 15 -318 28 -312 0 10 -11.286 1.000 -0.066 
3.88 237467 -923 -33 33 -14 14 -326 28 -312 0 10 -7.540 1.000 -0.044 
3.90 237408 -864 -59 59 -26 26 -327 28 -312 0 10 -0.622 1.000 -0.004 
3.92 237304 -760 -104 104 -45 45 -316 28 -312 0 10 11.384 1.000 0.066 
3.94 237157 -613 -147 147 -43 43 -292 28 -312 0 10 23.636 1.000 0.137 
3.96 236996 -452 -161 161 -14 14 -263 28 -312 0 10 29.475 1.000 0.171 
3.98 236842 -298 -154 154 7 -7 -233 28 -312 0 10 30.391 1.000 0.177 
4.00 236707 -163 -135 135 19 -19 -205 28 -312 0 10 28.248 1.000 0.164 