0.02 0 18 0 18 0 18 515 28 -312 0 10 3.680 1.000 0.026 
0.04 88 -13 88 -31 88 -49 509 28 -312 0 10 -6.093 1.000 -0.043 
0.06 197 -27 109 -14 21 17 506 28 -312 0 10 -3.040 1.000 -0.021 
0.08 212 90 15 117 -94 131 530 28 -312 0 10 23.554 1.000 0.164 
0.10 212 261 0 171 -15 54 566 28 -312 0 10 36.189 1.000 0.253 
0.12 216 465 4 204 4 33 611 28 -312 0 10 45.267 1.000 0.316 
0.14 222 705 6 240 2 36 666 28 -312 0 10 55.409 1.000 0.387 
0.16 239 972 17 267 11 27 730 28 -312 0 10 64.200 1.000 0.448 
0.18 287 1245 48 273 31 6 799 28 -312 0 10 69.066 1.000 0.482 
0.20 404 1488 117 243 69 -30 866 28 -312 0 10 66.654 1.000 0.465 
0.22 557 1732 153 244 36 1 936 28 -312 0 10 70.171 1.000 0.490 
0.24 647 2077 90 345 -63 101 1030 28 -312 0 10 94.147 1.000 0.657 
0.26 717 2481 70 404 -20 59 1141 28 -312 0 10 110.913 1.000 0.774 
0.28 907 2802 190 321 120 -83 1240 28 -312 0 10 99.449 1.000 0.694 
0.30 1259 2998 352 196 162 -125 1318 28 -312 0 10 78.267 1.000 0.546 
0.32 1727 3117 468 119 116 -77 1383 28 -312 0 10 65.195 1.000 0.455 
0.34 2309 3159 582 42 114 -77 1434 28 -312 0 10 51.074 1.000 0.356 
0.36 2948 3183 639 24 57 -18 1482 28 -312 0 10 47.966 1.000 0.335 
0.38 3671 3160 723 -23 84 -47 1521 28 -312 0 10 38.684 1.000 0.270 
0.40 4535 3034 864 -126 141 -103 1538 28 -312 0 10 17.311 1.000 0.121 
0.42 5467 2878 932 -156 68 -30 1547 28 -312 0 10 9.460 1.000 0.066 
0.44 6449 2709 982 -169 50 -13 1552 28 -312 0 10 4.675 1.000 0.033 
0.46 7613 2397 1164 -312 182 -143 1525 28 -312 0 10 -26.866 1.000 -0.187 
0.48 8930 1969 1317 -428 153 -116 1470 28 -312 0 10 -54.836 1.000 -0.383 
0.50 10293 1534 1363 -435 46 -7 1408 28 -312 0 10 -62.101 1.000 -0.433 
0.52 11607 1185 1314 -349 -49 86 1358 28 -312 0 10 -50.447 1.000 -0.352 
0.54 12853 942 1246 -243 -68 106 1324 28 -312 0 10 -33.531 1.000 -0.234 
0.56 14004 832 1151 -110 -95 133 1314 28 -312 0 10 -9.650 1.000 -0.067 
0.58 15058 856 1054 24 -97 134 1330 28 -312 0 10 16.248 1.000 0.113 
0.60 15983 1048 925 192 -129 168 1381 28 -312 0 10 50.924 1.000 0.355 
0.62 16769 1416 786 368 -139 176 1471 28 -312 0 10 89.526 1.000 0.625 
0.64 17601 1776 832 360 46 -8 1564 28 -312 0 10 92.906 1.000 0.648 
0.66 18566 2041 965 265 133 -95 1642 28 -312 0 10 78.390 1.000 0.547 
0.68 19743 2132 1177 91 212 -174 1688 28 -312 0 10 46.426 1.000 0.324 
0.70 21157 2024 1414 -108 237 -199 1695 28 -312 0 10 6.979 1.000 0.049 
0.72 22777 1747 1620 -277 206 -169 1666 28 -312 0 10 -29.047 1.000 -0.203 
0.74 24596 1310 1819 -437 199 -160 1600 28 -312 0 10 -65.536 1.000 -0.457 
0.76 26559 766 1963 -544 144 -107 1507 28 -312 0 10 -93.370 1.000 -0.652 
0.78 28515 267 1956 -499 -7 45 1415 28 -312 0 10 -91.584 1.000 -0.639 
0.80 30289 -12 1774 -279 -182 220 1362 28 -312 0 10 -53.405 1.000 -0.373 
0.82 31853 -43 1564 -31 -210 248 1355 28 -312 0 10 -6.502 1.000 -0.045 
0.84 33323 58 1470 101 -94 132 1375 28 -312 0 10 20.064 1.000 0.140 
0.86 34698 291 1375 233 -95 132 1423 28 -312 0 10 48.430 1.000 0.338 
0.88 35943 692 1245 401 -130 168 1509 28 -312 0 10 85.955 1.000 0.600 
0.90 37155 1165 1212 473 -33 72 1615 28 -312 0 10 106.142 1.000 0.741 
0.92 38524 1518 1369 353 157 -120 1703 28 -312 0 10 88.054 1.000 0.614 
0.94 40124 1678 1600 160 231 -193 1756 28 -312 0 10 53.405 1.000 0.373 
0.96 41860 1739 1736 61 136 -99 1791 28 -312 0 10 35.344 1.000 0.247 
0.98 43694 1741 1834 2 98 -59 1815 28 -312 0 10 24.113 1.000 0.168 
1.00 45681 1627 1987 -114 153 -116 1815 28 -312 0 10 0.423 1.000 0.003 
1.02 47686 1515 2005 -112 18 2 1814 28 -312 0 10 -0.722 1.000 -0.005 
1.04 49748 1345 2062 -170 57 -58 1800 28 -312 0 10 -14.108 1.000 -0.098 
1.06 51780 1205 2032 -140 -30 30 1790 28 -312 0 10 -10.291 1.000 -0.072 
1.08 53788 1090 2008 -115 -24 25 1783 28 -312 0 10 -7.088 1.000 -0.049 
1.10 55846 924 2058 -166 50 -51 1764 28 -312 0 10 -19.083 1.000 -0.133 
1.12 57947 715 2101 -209 43 -43 1734 28 -312 0 10 -30.137 1.000 -0.210 
1.14 60025 530 2078 -185 -23 24 1706 28 -312 0 10 -28.079 1.000 -0.196 
1.16 62052 395 2027 -135 -51 50 1686 28 -312 0 10 -20.378 1.000 -0.142 
1.18 63997 343 1945 -52 -82 83 1681 28 -312 0 10 -5.248 1.000 -0.037 
1.20 65925 307 1928 -36 -17 16 1678 28 -312 0 10 -2.685 1.000 -0.019 
1.22 67879 245 1954 -62 26 -26 1670 28 -312 0 10 -8.492 1.000 -0.059 
1.24 69746 271 1867 26 -87 88 1679 28 -312 0 10 8.655 1.000 0.060 
1.26 71659 250 1913 -21 46 -47 1678 28 -312 0 10 -0.600 1.000 -0.004 
1.28 73642 159 1983 -91 70 -70 1663 28 -312 0 10 -15.198 1.000 -0.106 
1.30 75712 -18 2070 -177 87 -86 1629 28 -312 0 10 -34.022 1.000 -0.237 
1.32 77817 -231 2105 -213 35 -36 1585 28 -312 0 10 -43.795 1.000 -0.306 
1.34 79923 -445 2106 -214 1 -1 1538 28 -312 0 10 -46.903 1.000 -0.327 
1.36 81971 -600 2048 -155 -58 59 1500 28 -312 0 10 -37.757 1.000 -0.263 
1.38 83959 -696 1988 -96 -60 59 1472 28 -312 0 10 -27.807 1.000 -0.194 
1.40 85872 -717 1913 -21 -75 75 1458 28 -312 0 10 -13.781 1.000 -0.096 
1.42 87719 -671 1847 46 -66 67 1458 28 -312 0 10 -0.368 1.000 -0.003 
1.44 89520 -580 1801 91 -46 45 1467 28 -312 0 10 9.460 1.000 0.066 
1.46 91313 -480 1793 100 -8 9 1480 28 -312 0 10 12.540 1.000 0.088 
1.48 93171 -446 1858 34 65 -66 1480 28 -312 0 10 0.409 1.000 0.003 
1.50 95129 -512 1958 -66 100 -100 1460 28 -312 0 10 -19.574 1.000 -0.137 
1.52 97146 -636 2017 -124 59 -58 1428 28 -312 0 10 -32.332 1.000 -0.226 
1.54 99170 -768 2024 -132 7 -8 1392 28 -312 0 10 -35.658 1.000 -0.249 
1.56 101204 -910 2034 -142 10 -10 1352 28 -312 0 10 -39.502 1.000 -0.276 
1.58 103236 -1049 2032 -139 -2 3 1311 28 -312 0 10 -40.824 1.000 -0.285 
1.60 105176 -1097 1940 -48 -92 91 1287 28 -312 0 10 -24.113 1.000 -0.168 
1.62 107018 -1047 1842 50 -98 98 1282 28 -312 0 10 -4.730 1.000 -0.033 
1.64 108788 -924 1770 123 -72 73 1293 28 -312 0 10 10.877 1.000 0.076 
1.66 110509 -753 1721 171 -49 48 1315 28 -312 0 10 22.368 1.000 0.156 
1.68 112207 -559 1698 194 -23 23 1344 28 -312 0 10 29.401 1.000 0.205 
1.70 113899 -358 1692 201 -6 7 1377 28 -312 0 10 33.477 1.000 0.234 
1.72 115654 -221 1755 137 63 -64 1400 28 -312 0 10 23.131 1.000 0.161 
1.74 117527 -202 1873 19 118 -118 1401 28 -312 0 10 0.872 1.000 0.006 
1.76 119498 -280 1971 -78 98 -97 1382 28 -312 0 10 -18.701 1.000 -0.131 
1.78 121514 -404 2016 -124 45 -46 1353 28 -312 0 10 -29.170 1.000 -0.204 
1.80 123619 -616 2105 -212 89 -88 1304 28 -312 0 10 -48.852 1.000 -0.341 
1.82 125732 -837 2113 -221 8 -9 1250 28 -312 0 10 -53.582 1.000 -0.374 
1.84 127786 -999 2054 -162 -59 59 1205 28 -312 0 10 -44.531 1.000 -0.311 
1.86 129748 -1068 1962 -69 -92 93 1177 28 -312 0 10 -27.725 1.000 -0.193 
1.88 131637 -1065 1889 3 -73 72 1163 28 -312 0 10 -13.944 1.000 -0.097 
1.90 133427 -963 1790 102 -99 99 1169 28 -312 0 10 6.338 1.000 0.044 
1.92 135110 -753 1683 210 -107 108 1199 28 -312 0 10 29.810 1.000 0.208 
1.94 136732 -483 1622 270 -61 60 1244 28 -312 0 10 44.940 1.000 0.314 
1.96 138349 -208 1617 275 -5 5 1294 28 -312 0 10 49.643 1.000 0.346 
1.98 140087 -53 1738 155 121 -120 1323 28 -312 0 10 28.856 1.000 0.201 
2.00 141952 -26 1865 27 127 -128 1328 28 -312 0 10 4.798 1.000 0.033 
2.02 143898 -80 1946 -54 81 -81 1317 28 -312 0 10 -11.395 1.000 -0.080 
2.04 145981 -270 2083 -190 137 -136 1277 28 -312 0 10 -39.938 1.000 -0.279 
2.06 148155 -552 2174 -282 91 -92 1216 28 -312 0 10 -61.338 1.000 -0.428 
2.08 150318 -823 2163 -271 -11 11 1153 28 -312 0 10 -62.933 1.000 -0.439 
2.10 152451 -1063 2133 -240 -30 31 1093 28 -312 0 10 -60.288 1.000 -0.421 
2.12 154504 -1224 2053 -161 -80 79 1046 28 -312 0 10 -47.407 1.000 -0.331 
2.14 156459 -1286 1955 -62 -98 99 1017 28 -312 0 10 -29.360 1.000 -0.205 
2.16 158329 -1264 1870 22 -85 84 1004 28 -312 0 10 -13.031 1.000 -0.091 
2.18 160088 -1131 1759 133 -111 111 1014 28 -312 0 10 9.964 1.000 0.070 
2.20 161743 -893 1655 238 -104 105 1047 28 -312 0 10 33.245 1.000 0.232 
2.22 163363 -621 1620 272 -35 34 1090 28 -312 0 10 43.441 1.000 0.303 
2.24 165025 -391 1662 230 42 -42 1129 28 -312 0 10 38.561 1.000 0.269 
2.26 166733 -206 1708 185 46 -45 1161 28 -312 0 10 32.495 1.000 0.227 
2.28 168548 -129 1815 77 107 -108 1174 28 -312 0 10 12.935 1.000 0.090 
2.30 170452 -141 1904 -12 89 -89 1170 28 -312 0 10 -4.212 1.000 -0.029 
2.32 172460 -256 2008 -115 104 -103 1145 28 -312 0 10 -25.435 1.000 -0.177 
2.34 174595 -499 2135 -243 127 -128 1092 28 -312 0 10 -53.173 1.000 -0.371 
2.36 176786 -798 2191 -299 56 -56 1024 28 -312 0 10 -67.935 1.000 -0.474 
2.38 178927 -1046 2141 -248 -50 51 962 28 -312 0 10 -61.583 1.000 -0.430 
2.40 181061 -1288 2134 -242 -7 6 898 28 -312 0 10 -63.737 1.000 -0.445 
2.42 183161 -1495 2100 -207 -34 35 838 28 -312 0 10 -59.879 1.000 -0.418 
2.44 185147 -1589 1986 -94 -114 113 798 28 -312 0 10 -39.597 1.000 -0.276 
2.46 186963 -1513 1816 76 -170 170 792 28 -312 0 10 -6.120 1.000 -0.043 
2.48 188646 -1303 1683 210 -133 134 814 28 -312 0 10 22.313 1.000 0.156 
2.50 190257 -1022 1611 281 -72 71 854 28 -312 0 10 39.692 1.000 0.277 
2.52 191848 -740 1591 282 -20 1 898 28 -312 0 10 43.727 1.000 0.305 
2.54 193387 -443 1539 297 -52 15 949 28 -312 0 10 50.638 1.000 0.353 
2.56 194943 -201 1556 242 17 -55 992 28 -312 0 10 43.441 1.000 0.303 
2.58 196651 -149 1708 52 152 -190 1000 28 -312 0 10 7.892 1.000 0.055 
2.60 198516 -292 1865 -143 157 -195 969 28 -312 0 10 -31.269 1.000 -0.218 
2.62 200422 -514 1906 -222 41 -79 920 28 -312 0 10 -49.370 1.000 -0.345 
2.64 202404 -850 1982 -336 76 -114 844 28 -312 0 10 -75.705 1.000 -0.528 
2.66 204409 -1246 2005 -396 23 -60 751 28 -312 0 10 -92.552 1.000 -0.646 
2.68 206398 -1665 1989 -419 -16 -23 648 28 -312 0 10 -102.652 1.000 -0.716 
2.70 208290 -2024 1892 -359 -97 60 552 28 -312 0 10 -96.096 1.000 -0.671 
2.72 210015 -2254 1725 -230 -167 129 477 28 -312 0 10 -74.614 1.000 -0.521 
2.74 211506 -2288 1491 -34 -234 196 439 28 -312 0 10 -37.675 1.000 -0.263 
2.76 212826 -2189 1320 99 -171 133 428 28 -312 0 10 -10.945 1.000 -0.076 
2.78 213964 -1945 1138 244 -182 145 448 28 -312 0 10 20.051 1.000 0.140 
2.80 214871 -1509 907 436 -231 192 511 28 -312 0 10 62.633 1.000 0.437 
2.82 215628 -960 757 549 -150 113 603 28 -312 0 10 91.680 1.000 0.640 
2.84 216358 -422 730 538 -27 -11 700 28 -312 0 10 96.914 1.000 0.676 
2.86 217106 60 748 482 18 -56 793 28 -312 0 10 92.797 1.000 0.648 
2.88 217988 370 882 310 134 -172 857 28 -312 0 10 64.200 1.000 0.448 
2.90 219059 453 1071 83 189 -227 879 28 -312 0 10 22.013 1.000 0.154 
2.92 220333 296 1274 -157 203 -240 853 28 -312 0 10 -25.925 1.000 -0.181 
2.94 221825 -117 1492 -413 218 -256 773 28 -312 0 10 -80.407 1.000 -0.561 
2.96 223465 -717 1640 -600 148 -187 649 28 -312 0 10 -124.271 1.000 -0.867 
2.98 225156 -1405 1691 -688 51 -88 506 28 -312 0 10 -143.300 1.000 -1.000 
3.00 226739 -2023 1583 -618 -108 70 363 28 -312 0 10 -143.300 1.000 -1.000 
3.02 228207 -2563 1468 -540 -115 78 225 28 -312 0 10 -137.983 1.000 -0.963 
3.04 229471 -2938 1264 -375 -204 165 113 28 -312 0 10 -111.608 1.000 -0.779 
3.06 230468 -3083 997 -145 -267 230 43 28 -312 0 10 -69.693 1.000 -0.486 
3.08 231167 -2969 699 114 -298 259 24 28 -312 0 10 -18.715 1.000 -0.131 
3.10 231614 -2640 447 329 -252 215 51 28 -312 0 10 26.798 1.000 0.187 
3.12 231819 -2107 205 533 -242 204 124 28 -312 0 10 72.992 1.000 0.509 
3.14 231838 -1426 19 681 -186 148 235 28 -312 0 10 110.517 1.000 0.771 
3.16 231838 -763 0 663 -19 -18 351 28 -312 0 10 116.119 1.000 0.810 
3.18 231838 -139 0 624 0 -39 468 28 -312 0 10 117.183 1.000 0.818 
3.20 231840 446 2 585 2 -39 586 28 -312 0 10 117.714 1.000 0.821 
3.22 231904 931 64 485 62 -100 691 28 -312 0 10 105.242 1.000 0.734 
3.24 232126 1219 222 288 158 -197 763 28 -312 0 10 71.574 1.000 0.499 
3.26 232613 1206 487 -13 265 -301 777 28 -312 0 10 13.958 1.000 0.097 
3.28 233335 919 722 -287 235 -274 735 28 -312 0 10 -42.241 1.000 -0.295 
3.30 234289 362 954 -557 232 -270 634 28 -312 0 10 -101.357 1.000 -0.707 
3.32 235391 -380 1102 -742 148 -185 491 28 -312 0 10 -143.300 1.000 -1.000 
3.34 236525 -1193 1134 -813 32 -71 348 28 -312 0 10 -143.300 1.000 -1.000 
3.36 237591 -1975 1066 -782 -68 31 205 28 -312 0 10 -143.300 1.000 -1.000 
3.38 238479 -2617 888 -642 -178 140 62 28 -312 0 10 -143.300 1.000 -1.000 
3.40 239146 -3076 667 -459 -221 183 -68 28 -312 0 10 -129.518 1.000 -0.904 
3.42 239533 -3292 387 -216 -280 243 -154 28 -312 0 10 -86.091 1.000 -0.601 
3.44 239603 -3230 70 62 -317 278 -186 28 -312 0 10 -32.196 1.000 -0.225 
3.46 239603 -3135 0 95 -70 33 -211 28 -312 0 10 -24.603 1.000 -0.172 
3.48 239603 -3078 0 57 0 -38 -242 28 -312 0 10 -31.078 1.000 -0.217 
3.50 239603 -3059 0 19 0 -38 -280 28 -312 0 10 -38.070 1.000 -0.266 
3.52 239595 -3051 -8 8 -8 -11 -320 28 -312 0 10 -40.060 1.000 -0.280 
3.54 239561 -3017 -34 34 -26 26 -355 28 -312 0 10 -34.635 1.000 -0.242 
3.56 239477 -2933 -84 84 -50 50 -379 28 -312 0 10 -23.949 1.000 -0.167 
3.58 239279 -2735 -198 198 -114 114 -378 28 -312 0 10 0.504 1.000 0.004 
3.60 238903 -2359 -376 376 -178 178 -338 28 -312 0 10 39.597 1.000 0.276 
3.62 238397 -1853 -506 506 -130 130 -267 28 -312 0 10 71.302 1.000 0.498 
3.64 237882 -1338 -515 515 -9 9 -187 28 -312 0 10 80.039 1.000 0.559 
3.66 237432 -888 -450 450 65 -65 -113 28 -312 0 10 73.769 1.000 0.515 
3.68 237115 -571 -317 317 133 -133 -60 28 -312 0 10 52.710 1.000 0.368 
3.70 236937 -393 -178 178 139 -139 -31 28 -312 0 10 28.611 1.000 0.200 
3.72 236897 -353 -40 40 138 -138 -28 28 -312 0 10 2.822 1.000 0.020 
3.74 236897 -353 0 0 40 -40 -33 28 -312 0 10 -4.812 1.000 -0.034 
3.76 236897 -353 0 0 0 0 -38 28 -312 0 10 -4.812 1.000 -0.034 
3.78 236897 -353 0 0 0 0 -43 28 -312 0 10 -4.812 1.000 -0.034 
3.80 236897 -353 0 0 0 0 -48 28 -312 0 10 -4.812 1.000 -0.034 
3.82 236897 -353 0 0 0 0 -53 28 -312 0 10 -4.812 1.000 -0.034 
3.84 236897 -353 0 0 0 0 -58 28 -312 0 10 -4.812 1.000 -0.034 
3.86 236897 -353 0 0 0 0 -63 28 -312 0 10 -4.812 1.000 -0.034 
3.88 236897 -353 0 0 0 0 -68 28 -312 0 10 -4.812 1.000 -0.034 
3.90 236897 -353 0 0 0 0 -73 28 -312 0 10 -4.812 1.000 -0.034 
3.92 236897 -353 0 0 0 0 -78 28 -312 0 10 -4.812 1.000 -0.034 
3.94 236897 -353 0 0 0 0 -83 28 -312 0 10 -4.812 1.000 -0.034 
3.96 236897 -353 0 0 0 0 -88 28 -312 0 10 -4.812 1.000 -0.034 
3.98 236897 -353 0 0 0 0 -93 28 -312 0 10 -4.812 1.000 -0.034 
4.00 236897 -353 0 0 0 0 -98 28 -312 0 10 -4.812 1.000 -0.034 