0.04 0 16 0 14 0 12 16 3 1 11 41 
0.06 0 54 0 38 0 24 6 11 -35 30 37 
0.08 0 129 0 75 0 37 23 26 -63 60 35 
0.10 0 252 0 123 0 48 72 50 -77 98 33 
0.12 0 435 0 183 0 60 158 87 -76 146 33 
0.14 0 692 0 257 0 74 290 138 -54 206 36 
0.16 0 1033 0 341 0 84 473 207 -7 273 40 
0.18 5 1466 5 433 5 92 710 293 70 346 48 
0.20 134 1884 129 418 124 -15 884 377 173 334 58 
0.22 443 2243 309 359 180 -59 1030 449 294 287 70 
0.24 819 2668 376 425 67 66 1311 534 437 340 3 
0.26 1358 3076 539 408 163 -17 1622 615 681 326 27 
0.28 2291 3234 933 158 394 -250 1685 647 912 126 50 
0.30 3640 3109 1349 -125 416 -283 1633 622 1111 -100 70 
0.32 5242 2852 1602 -257 253 -132 1634 570 1269 -206 86 
0.34 7068 2481 1826 -371 224 -114 1581 496 1381 -297 97 
0.36 9112 1988 2044 -493 218 -122 1446 398 1443 -394 103 
0.38 11157 1579 2045 -409 1 84 1455 316 1466 -327 106 
0.40 13060 1384 1903 -195 -142 214 1592 277 1471 -156 106 
0.42 14977 1237 1917 -147 14 48 1594 247 1464 -118 105 
0.44 16972 1059 1995 -178 78 -31 1513 212 1443 -142 103 
0.46 18969 916 1997 -143 2 35 1482 183 1413 -114 100 
0.48 20898 866 1929 -50 -68 93 1515 173 1382 -40 97 
0.50 22799 855 1901 -11 -28 39 1515 171 1353 -9 94 
0.52 24698 848 1899 -7 -2 4 1491 170 1327 -6 92 
0.54 26599 840 1901 -8 2 -1 1464 168 1302 -6 89 
0.56 28338 993 1739 153 -162 161 1613 199 1292 122 88 
0.58 30156 1067 1818 74 79 -79 1562 213 1289 59 88 
0.60 32111 1005 1955 -62 137 -136 1433 201 1282 -50 87 
0.62 33962 1046 1851 41 -104 103 1520 209 1278 33 87 
0.64 35774 1126 1812 80 -39 39 1571 225 1281 64 87 
0.66 37685 1108 1911 -18 99 -98 1490 222 1283 -14 87 
0.68 39604 1081 1919 -27 8 -9 1477 216 1282 -22 87 
0.70 41454 1123 1850 42 -69 69 1543 225 1285 34 88 
0.72 43343 1127 1889 4 39 -38 1516 225 1287 3 88 
0.74 45261 1101 1918 -26 29 -30 1487 220 1288 -21 88 
0.76 47162 1093 1901 -8 -17 18 1499 219 1287 -6 88 
0.78 49004 1143 1842 50 -59 58 1559 229 1291 40 88 
0.80 50854 1185 1850 42 8 -8 1568 237 1298 34 89 
0.82 52768 1164 1914 -21 64 -63 1518 233 1302 -17 89 
0.84 54695 1129 1927 -35 13 -14 1501 226 1303 -28 89 
0.86 56544 1172 1849 43 -78 78 1576 234 1307 34 90 
0.88 58448 1161 1904 -11 55 -54 1534 232 1310 -9 90 
0.90 60408 1093 1960 -68 56 -57 1472 219 1308 -54 90 
0.92 62286 1107 1878 14 -82 82 1539 221 1307 11 90 
0.94 64145 1141 1859 34 -19 20 1564 228 1308 27 90 
0.96 66108 1070 1963 -71 104 -105 1461 214 1304 -57 89 
0.98 68040 1030 1932 -40 -31 31 1471 206 1297 -32 89 
1.00 69934 1029 1894 -1 -38 39 1495 206 1290 -1 88 
1.02 71825 1030 1891 1 -3 2 1492 206 1285 1 88 
1.04 73788 959 1963 -71 72 -72 1409 192 1274 -57 86 
1.06 75714 926 1926 -33 -37 38 1420 185 1262 -26 85 
1.08 77580 952 1866 26 -60 59 1464 190 1253 21 84 
1.10 79475 950 1895 -2 29 -28 1433 190 1244 -2 83 
1.12 81441 876 1966 -74 71 -72 1347 175 1231 -59 82 
1.14 83330 879 1889 3 -77 77 1397 176 1219 2 81 
1.16 85153 949 1823 70 -66 67 1460 190 1214 56 80 
1.18 87084 910 1931 -39 108 -109 1357 182 1206 -31 80 
1.20 89034 852 1950 -58 19 -19 1319 170 1195 -46 79 
1.22 90848 931 1814 79 -136 137 1440 186 1191 63 78 
1.24 92673 998 1825 67 11 -12 1446 200 1192 54 78 
1.26 94599 964 1926 -34 101 -101 1357 193 1191 -27 78 
1.28 96512 944 1913 -20 -13 14 1361 189 1189 -16 78 
1.30 98365 983 1853 39 -60 59 1417 197 1189 31 78 
1.32 100217 1023 1852 40 -1 1 1430 205 1193 32 78 
1.34 102137 996 1920 -27 68 -67 1372 199 1195 -22 79 
1.36 104116 909 1979 -87 59 -60 1301 182 1189 -70 78 
1.38 106033 885 1917 -24 -62 63 1339 177 1182 -19 77 
1.40 107939 871 1906 -14 -11 10 1337 174 1174 -11 76 
1.42 109929 773 1990 -98 84 -84 1236 155 1159 -78 75 
1.44 111854 741 1925 -32 -65 66 1266 148 1144 -26 73 
1.46 113636 851 1782 110 -143 142 1397 170 1138 88 73 
1.48 115490 889 1854 38 72 -72 1345 178 1137 30 73 
1.50 117434 838 1944 -51 90 -89 1258 168 1131 -41 72 
1.52 119339 825 1905 -13 -39 38 1279 165 1125 -10 72 
1.54 121236 820 1897 -5 -8 8 1279 164 1119 -4 71 
1.56 123147 802 1911 -18 14 -13 1258 160 1112 -14 70 
1.58 125079 762 1932 -40 21 -22 1223 152 1103 -32 69 
1.60 127009 724 1930 -38 -2 2 1206 145 1091 -30 68 
1.62 128890 736 1881 12 -49 50 1239 147 1082 10 67 
1.64 130765 753 1875 17 -6 5 1239 151 1075 14 67 
1.66 132735 675 1970 -78 95 -95 1135 135 1063 -62 65 
1.68 134619 684 1884 9 -86 87 1196 137 1052 7 64 
1.70 136417 778 1798 94 -86 85 1281 156 1050 75 64 
1.72 138354 734 1937 -44 139 -138 1156 147 1045 -35 64 
1.74 140320 660 1966 -74 29 -30 1107 132 1034 -59 62 
1.76 142158 714 1838 54 -128 128 1215 143 1029 43 62 
1.78 144032 733 1874 19 36 -35 1187 147 1025 15 62 
1.80 146012 645 1980 -88 106 -107 1074 129 1015 -70 61 
1.82 147941 608 1929 -37 -51 51 1095 122 1003 -30 59 
1.84 149815 627 1874 19 -55 56 1135 125 994 15 58 
1.86 151677 657 1862 30 -12 11 1144 131 988 24 58 
1.88 153608 618 1931 -39 69 -69 1072 124 980 -31 57 
1.90 155593 526 1985 -92 54 -53 996 105 965 -74 56 
1.92 157467 544 1874 18 -111 110 1076 109 953 14 54 
1.94 159260 643 1793 99 -81 81 1158 129 950 79 54 
1.96 161213 583 1953 -60 160 -159 1011 117 943 -48 53 
1.98 163152 536 1939 -47 -14 13 1002 107 932 -38 52 
2.00 164957 624 1805 88 -134 135 1125 125 930 70 52 
2.02 166854 619 1897 -5 92 -93 1047 124 927 -4 52 
2.04 168842 523 1988 -96 91 -91 945 105 917 -77 51 
2.06 170765 493 1923 -30 -65 66 981 99 906 -24 50 
2.08 172678 472 1913 -21 -10 9 972 94 894 -17 48 
2.10 174595 447 1917 -25 4 -4 951 89 881 -20 47 
2.12 176472 463 1877 16 -40 41 977 93 871 13 46 
2.14 178398 429 1926 -34 49 -50 918 86 859 -27 45 
2.16 180308 411 1910 -18 -16 16 915 82 847 -14 44 
2.18 182173 439 1865 28 -45 46 949 88 839 22 43 
2.20 184090 414 1917 -25 52 -53 892 83 829 -20 42 
2.22 186057 339 1967 -75 50 -50 822 68 814 -60 40 
2.24 187922 367 1865 28 -102 103 899 73 803 22 39 
2.26 189821 360 1899 -7 34 -35 859 72 792 -6 38 
2.28 191753 320 1932 -40 33 -33 812 64 780 -32 37 
2.30 193641 325 1888 5 -44 45 838 65 769 4 36 
2.32 195536 322 1895 -3 7 -8 821 64 759 -2 35 
2.34 197481 270 1945 -52 50 -49 758 54 745 -42 34 
2.36 199392 251 1911 -19 -34 33 767 50 732 -15 32 
2.38 201264 271 1872 20 -39 39 791 54 721 16 31 
2.40 203196 232 1932 -39 60 -59 724 46 709 -31 30 
2.42 205111 209 1915 -23 -17 16 719 42 695 -18 29 
2.44 206997 215 1886 6 -29 29 732 43 684 5 27 
2.46 208867 238 1870 23 -16 17 742 48 676 18 27 
2.48 210776 221 1909 -17 39 -40 697 44 667 -14 26 
2.50 212744 145 1968 -76 59 -59 621 29 653 -61 24 
2.52 214626 154 1882 9 -86 85 679 31 641 7 23 
2.54 216521 137 1895 -17 13 -26 642 27 628 -14 22 
2.56 218451 61 1930 -76 35 -59 563 12 611 -61 20 
2.58 220342 -12 1891 -73 -39 3 529 -2 590 -58 18 
2.60 222185 -86 1843 -74 -48 -1 489 -17 565 -59 16 
2.62 223977 -170 1792 -84 -51 -10 435 -34 536 -67 13 
2.64 225671 -228 1694 -58 -98 26 413 -46 505 -46 10 
2.66 227293 -298 1622 -70 -72 -12 356 -60 472 -56 6 
2.68 228785 -336 1492 -38 -130 32 341 -67 439 -30 3 
2.70 230178 -384 1393 -48 -99 -10 290 -77 405 -38 81 
2.72 231473 -454 1295 -70 -98 -22 140 -91 287 -56 70 
2.74 232620 -510 1147 -56 -148 14 30 -102 177 -45 59 
2.76 233560 -504 940 6 -207 62 18 -101 78 5 49 
2.78 234244 -387 684 117 -256 111 14 -77 -2 94 41 
2.80 234690 -165 446 222 -238 105 89 -33 -56 178 35 
2.82 234947 125 257 290 -189 68 176 25 -81 232 33 
2.84 235082 428 135 303 -122 13 248 86 -80 242 33 
2.86 235184 667 102 239 -33 -64 265 133 -59 191 35 
2.88 235333 775 149 108 47 -131 209 155 -32 86 38 
2.90 235470 821 137 46 -12 -62 197 164 -4 37 41 
2.92 235528 886 58 65 -79 19 255 177 26 52 44 
2.94 235531 958 3 72 -55 7 308 192 59 58 47 
2.96 235542 985 11 27 8 -45 310 197 91 22 50 
2.98 235567 974 25 -11 14 -38 305 195 119 -9 53 
3.00 235593 951 26 -23 1 -12 314 190 142 -18 55 
3.02 235632 912 39 -39 13 -16 311 182 160 -31 57 
3.04 235688 856 56 -56 17 -17 298 171 171 -45 58 
3.06 235742 802 54 -54 -2 2 295 160 178 -43 59 
3.08 235790 754 48 -48 -6 6 292 151 179 -38 59 
3.10 235826 718 36 -36 -12 12 293 144 178 -29 59 
3.12 235857 687 31 -31 -5 5 287 137 174 -25 58 
3.14 235876 668 19 -19 -12 12 287 134 169 -15 58 
3.16 235880 664 4 -4 -15 15 294 133 164 -3 57 
3.18 235880 664 0 0 -4 4 293 133 160 0 57 
3.20 235880 664 0 0 0 0 289 133 156 0 57 
3.22 235880 664 0 0 0 0 286 133 153 0 56 
3.24 235880 664 0 0 0 0 282 133 150 0 56 
3.26 235880 664 0 0 0 0 280 133 147 0 56 
3.28 235880 664 0 0 0 0 277 133 144 0 55 
3.30 235880 664 0 0 0 0 275 133 142 0 55 
3.32 235880 664 0 0 0 0 273 133 140 0 55 
3.34 235880 664 0 0 0 0 271 133 138 0 55 
3.36 235880 664 0 0 0 0 269 133 137 0 55 
3.38 235880 664 0 0 0 0 268 133 135 0 54 
3.40 235880 664 0 0 0 0 267 133 134 0 54 
3.42 235880 664 0 0 0 0 265 133 133 0 54 
3.44 235880 664 0 0 0 0 264 133 131 0 54 
3.46 235880 664 0 0 0 0 263 133 130 0 54 
3.48 235880 664 0 0 0 0 262 133 130 0 54 
3.50 235880 664 0 0 0 0 262 133 129 0 54 
3.52 235880 664 0 0 0 0 261 133 128 0 54 
3.54 235880 664 0 0 0 0 260 133 127 0 54 
3.56 235880 664 0 0 0 0 260 133 127 0 54 
3.58 235880 664 0 0 0 0 259 133 126 0 54 
3.60 235880 664 0 0 0 0 259 133 126 0 54 
3.62 235880 664 0 0 0 0 258 133 125 0 53 
3.64 235880 664 0 0 0 0 258 133 125 0 53 
3.66 235880 664 0 0 0 0 258 133 125 0 53 
3.68 235880 664 0 0 0 0 257 133 124 0 53 
3.70 235880 664 0 0 0 0 257 133 124 0 53 
3.72 235880 664 0 0 0 0 257 133 124 0 53 
3.74 235880 664 0 0 0 0 257 133 124 0 53 
3.76 235880 664 0 0 0 0 256 133 124 0 53 
3.78 235880 664 0 0 0 0 256 133 123 0 53 
3.80 235880 664 0 0 0 0 256 133 123 0 53 
3.82 235880 664 0 0 0 0 256 133 123 0 53 
3.84 235880 664 0 0 0 0 256 133 123 0 53 
3.86 235880 664 0 0 0 0 256 133 123 0 53 
3.88 235880 664 0 0 0 0 255 133 123 0 53 
3.90 235880 664 0 0 0 0 255 133 123 0 53 
3.92 235880 664 0 0 0 0 255 133 122 0 53 
3.94 235880 664 0 0 0 0 255 133 122 0 53 
3.96 235880 664 0 0 0 0 255 133 122 0 53 
3.98 235880 664 0 0 0 0 255 133 122 0 53 
4.00 235880 664 0 0 0 0 255 133 122 0 53 