0.04 0 16 0 -59 0 -134 -78 3 -34 -47 38 0.000 
0.06 0 54 0 38 0 97 -26 11 -67 30 34 0.000 
0.08 0 129 0 75 0 37 -6 26 -91 60 32 0.000 
0.10 0 252 0 123 0 48 46 50 -103 98 31 0.000 
0.12 0 435 0 183 0 60 135 87 -99 146 31 0.000 
0.14 0 692 0 257 0 74 269 138 -75 206 33 0.000 
0.16 0 1033 0 341 0 84 454 207 -25 273 38 0.000 
0.18 81 1390 81 357 81 16 611 278 47 286 46 0.000 
0.20 424 1594 343 204 262 -153 611 319 129 163 54 0.000 
0.22 1074 1612 650 18 307 -186 541 322 204 14 61 0.000 
0.24 1949 1538 875 -74 225 -92 514 308 266 -59 68 0.000 
0.26 2567 1867 618 329 -257 403 984 373 348 263 76 0.000 
0.28 2781 2744 214 877 -404 548 1742 549 492 702 8 0.000 
0.30 3642 3107 861 363 647 -514 1644 621 732 290 32 0.000 
0.32 5125 2969 1483 -138 622 -501 1421 594 937 -110 53 0.000 
0.34 6457 3092 1332 123 -151 261 1849 618 1132 98 72 0.000 
0.36 8177 2923 1720 -169 388 -292 1743 585 1293 -135 88 0.000 
0.38 10472 2264 2295 -659 575 -490 1312 453 1386 -527 98 0.000 
0.40 12636 1808 2164 -456 -131 203 1430 362 1433 -365 102 0.000 
0.42 14554 1660 1918 -148 -246 308 1677 332 1464 -118 105 0.000 
0.44 16490 1541 1936 -119 18 29 1694 308 1481 -95 107 0.000 
0.46 18398 1487 1908 -54 -28 65 1747 297 1493 -43 108 0.000 
0.48 20263 1501 1865 14 -43 68 1816 300 1505 11 110 0.000 
0.50 22032 1622 1769 121 -96 107 1946 324 1525 97 112 0.000 
0.52 23809 1737 1777 115 8 -6 1992 347 1553 92 114 0.000 
0.54 25899 1540 2090 -197 313 -312 1712 308 1561 -158 115 0.000 
0.56 27960 1371 2061 -169 -29 28 1695 274 1556 -135 115 0.000 
0.58 29666 1557 1706 186 -355 355 2026 311 1566 149 116 0.000 
0.60 31666 1450 2000 -107 294 -293 1771 290 1566 -86 116 0.000 
0.62 33841 1167 2175 -283 175 -176 1551 233 1544 -226 113 0.000 
0.64 35615 1285 1774 118 -401 401 1885 257 1533 94 112 0.000 
0.66 37423 1370 1808 85 34 -33 1872 274 1530 68 112 0.000 
0.68 39608 1077 2185 -293 377 -378 1486 215 1505 -234 110 0.000 
0.70 41571 1006 1963 -71 -222 222 1620 201 1476 -57 107 0.000 
0.72 43277 1193 1706 187 -257 258 1853 239 1464 150 105 0.000 
0.74 45196 1166 1919 -27 213 -214 1664 233 1452 -22 104 0.000 
0.76 47145 1110 1949 -56 30 -29 1614 222 1437 -45 103 0.000 
0.78 48906 1241 1761 131 -188 187 1786 248 1433 105 102 0.000 
0.80 50714 1325 1808 84 47 -47 1769 265 1437 67 103 0.000 
0.82 52645 1287 1931 -38 123 -122 1664 257 1437 -30 103 0.000 
0.84 54613 1211 1968 -76 37 -38 1613 242 1431 -61 102 0.000 
0.86 56538 1178 1925 -33 -43 43 1632 236 1423 -26 101 0.000 
0.88 58416 1193 1878 15 -47 48 1668 239 1417 12 101 0.000 
0.90 60385 1116 1969 -77 91 -92 1567 223 1406 -62 100 0.000 
0.92 62403 990 2018 -126 49 -49 1483 198 1385 -101 98 0.000 
0.94 64213 1073 1810 83 -208 209 1655 215 1374 66 96 0.000 
0.96 66030 1148 1817 75 7 -8 1659 230 1369 60 96 0.000 
0.98 68102 968 2072 -180 255 -255 1400 194 1351 -144 94 0.000 
1.00 70045 918 1943 -50 -129 130 1473 184 1330 -40 92 0.000 
1.02 71808 1047 1763 129 -180 179 1634 209 1322 103 91 0.000 
1.04 73762 985 1954 -62 191 -191 1457 197 1309 -50 90 0.000 
1.06 75777 863 2015 -122 61 -60 1363 173 1288 -98 88 0.000 
1.08 77569 963 1792 100 -223 222 1550 193 1277 80 87 0.000 
1.10 79395 1030 1826 67 34 -33 1533 206 1273 54 86 0.000 
1.12 81416 901 2021 -129 195 -196 1336 180 1259 -103 85 0.000 
1.14 83394 815 1978 -86 -43 43 1333 163 1239 -69 83 0.000 
1.16 85233 869 1839 54 -139 140 1443 174 1226 43 82 0.000 
1.18 87114 880 1881 11 42 -43 1399 176 1214 9 80 0.000 
1.20 89072 814 1958 -66 77 -77 1309 163 1199 -53 79 0.000 
1.22 90970 809 1898 -5 -60 61 1343 162 1185 -4 78 0.000 
1.24 92753 918 1783 109 -115 114 1452 184 1181 87 77 0.000 
1.26 94576 987 1823 69 40 -40 1435 197 1183 55 77 0.000 
1.28 96537 919 1961 -68 138 -137 1308 184 1179 -54 77 0.000 
1.30 98445 903 1908 -16 -53 52 1342 181 1174 -13 76 0.000 
1.32 100223 1017 1778 114 -130 130 1474 203 1179 91 77 0.000 
1.34 102114 1019 1891 2 113 -112 1389 204 1184 2 77 0.000 
1.36 104120 905 2006 -114 115 -116 1268 181 1179 -91 77 0.000 
1.38 106047 871 1927 -34 -79 80 1318 174 1171 -27 76 0.000 
1.40 107907 903 1860 32 -67 66 1374 181 1167 26 76 0.000 
1.42 109884 818 1977 -85 117 -117 1253 164 1157 -68 75 0.000 
1.44 111859 736 1975 -82 -2 3 1223 147 1141 -66 73 0.000 
1.46 113687 800 1828 64 -147 146 1343 160 1132 51 72 0.000 
1.48 115510 869 1823 69 -5 5 1358 174 1129 55 72 0.000 
1.50 117415 857 1905 -12 82 -81 1288 171 1126 -10 72 0.000 
1.52 119338 826 1923 -31 18 -19 1261 165 1120 -25 71 0.000 
1.54 121248 808 1910 -18 -13 13 1261 162 1114 -14 70 0.000 
1.56 123155 794 1907 -14 -3 4 1255 159 1107 -11 70 0.000 
1.58 125088 753 1933 -41 26 -27 1215 151 1097 -33 69 0.000 
1.60 127038 695 1950 -58 17 -17 1177 139 1084 -46 67 0.000 
1.62 128932 694 1894 -1 -56 57 1210 139 1072 -1 66 0.000 
1.64 130797 721 1865 27 -29 28 1229 144 1064 22 65 0.000 
1.66 132723 687 1926 -34 61 -61 1163 137 1053 -27 64 0.000 
1.68 134632 671 1909 -16 -17 18 1164 134 1043 -13 63 0.000 
1.70 136455 740 1823 69 -86 85 1242 148 1038 55 63 0.000 
1.72 138348 740 1893 0 70 -69 1183 148 1035 0 63 0.000 
1.74 140294 686 1946 -54 53 -54 1121 137 1027 -43 62 0.000 
1.76 142186 686 1892 0 -54 54 1157 137 1020 0 61 0.000 
1.78 144037 728 1851 42 -41 42 1197 146 1017 34 61 0.000 
1.80 145972 685 1935 -43 84 -85 1114 137 1011 -34 60 0.000 
1.82 147927 622 1955 -63 20 -20 1075 124 1001 -50 59 0.000 
1.84 149835 607 1908 -15 -47 48 1100 121 990 -12 58 0.000 
1.86 151696 638 1861 31 -47 46 1136 128 983 25 57 0.000 
1.88 153616 610 1920 -28 59 -59 1074 122 975 -22 57 0.000 
1.90 155601 518 1985 -92 65 -64 990 104 960 -74 55 0.000 
1.92 157513 498 1912 -20 -73 72 1028 100 944 -16 53 0.000 
1.94 159317 586 1804 88 -108 108 1125 117 938 70 53 0.000 
1.96 161206 590 1889 4 85 -84 1053 118 932 3 52 0.000 
1.98 163165 523 1959 -67 70 -71 973 105 922 -54 51 0.000 
2.00 165008 573 1843 50 -116 117 1071 115 916 40 51 0.000 
2.02 166878 595 1870 22 27 -28 1050 119 913 18 50 0.000 
2.04 168815 550 1937 -45 67 -67 981 110 907 -36 50 0.000 
2.06 170763 495 1948 -55 11 -10 952 99 897 -44 49 0.000 
2.08 172694 456 1931 -39 -17 16 945 91 885 -31 48 0.000 
2.10 174611 431 1917 -25 -14 14 938 86 872 -20 46 0.000 
2.12 176491 444 1880 13 -37 38 960 89 861 10 45 0.000 
2.14 178412 415 1921 -29 41 -42 909 83 849 -23 44 0.000 
2.16 180337 382 1925 -33 4 -4 886 76 836 -26 43 0.000 
2.18 182226 386 1889 4 -36 37 904 77 824 3 41 0.000 
2.20 184121 383 1895 -3 6 -7 887 77 813 -2 40 0.000 
2.22 186050 346 1929 -37 34 -34 840 69 800 -30 39 0.000 
2.24 187950 339 1900 -7 -29 30 851 68 788 -6 38 0.000 
2.26 189855 326 1905 -13 5 -6 831 65 777 -10 37 0.000 
2.28 191776 297 1921 -29 16 -16 800 59 764 -23 35 0.000 
2.30 193650 316 1874 19 -47 48 832 63 753 15 34 0.000 
2.32 195566 292 1916 -24 42 -43 782 58 742 -19 33 0.000 
2.34 197500 251 1934 -41 18 -17 747 50 729 -33 32 0.000 
2.36 199403 240 1903 -11 -31 30 756 48 716 -9 31 0.000 
2.38 201278 257 1875 17 -28 28 771 51 706 14 30 0.000 
2.40 203192 236 1914 -21 39 -38 726 47 696 -17 29 0.000 
2.42 205101 219 1909 -17 -5 4 715 44 684 -14 27 0.000 
2.44 207008 204 1907 -15 -2 2 702 41 673 -12 26 0.000 
2.46 208895 210 1887 6 -20 21 710 42 664 5 25 0.000 
2.48 210788 209 1893 -1 6 -7 696 42 655 -1 25 0.000 
2.50 212780 109 1992 -100 99 -99 581 22 639 -80 23 0.000 
2.52 214667 113 1887 4 -105 104 651 23 625 3 22 0.000 
2.54 216534 124 1867 11 -20 7 647 25 614 9 20 0.000 
2.56 218439 73 1905 -51 38 -62 573 15 599 -41 19 0.000 
2.58 220353 -23 1914 -96 9 -45 497 -5 578 -77 17 0.000 
2.60 222186 -87 1833 -64 -81 32 486 -17 554 -51 14 0.000 
2.62 223967 -160 1781 -73 -52 -9 437 -32 527 -58 12 0.000 
2.64 225653 -210 1686 -50 -95 23 417 -42 499 -40 9 0.000 
2.66 227265 -270 1612 -60 -74 -10 366 -54 468 -48 6 0.000 
2.68 228800 -351 1535 -81 -77 -21 299 -70 434 -65 2 0.000 
2.70 230237 -443 1437 -92 -98 -11 234 -89 396 -74 81 0.000 
2.72 231556 -537 1319 -94 -118 -2 90 -107 273 -75 68 0.000 
2.74 232696 -586 1140 -49 -179 45 1 -117 158 -39 57 0.000 
2.76 233578 -522 882 64 -258 113 6 -104 59 51 47 0.000 
2.78 234191 -334 613 188 -269 124 69 -67 -14 150 40 0.000 
2.80 234564 -39 373 295 -240 107 171 -8 -57 236 35 0.000 
2.82 234798 274 234 313 -139 18 235 55 -70 250 34 0.000 
2.84 235031 479 233 205 -1 -108 194 96 -66 164 34 0.000 
2.86 235304 547 273 68 40 -137 107 109 -57 54 35 0.000 
2.88 235525 583 221 36 -52 -32 100 117 -45 29 36 0.000 
2.90 235616 675 91 92 -130 56 181 135 -28 74 38 0.000 
2.92 235619 795 3 120 -88 28 253 159 -2 96 41 0.000 
2.94 235626 863 7 68 4 -52 253 173 26 54 44 0.000 
2.96 235629 898 3 35 -4 -33 262 180 54 28 46 0.000 
2.98 235631 910 2 12 -1 -23 272 182 81 10 49 0.000 
3.00 235634 910 3 0 1 -12 287 182 105 0 51 0.000 
3.02 235640 904 6 -6 3 -6 301 181 125 -5 53 0.000 
3.04 235652 892 12 -12 6 -6 312 178 143 -10 55 0.000 
3.06 235684 860 32 -32 20 -20 303 172 157 -26 57 0.000 
3.08 235740 804 56 -56 24 -24 281 161 165 -45 57 0.000 
3.10 235812 732 72 -72 16 -16 254 146 166 -58 58 0.000 
3.12 235869 675 57 -57 -15 15 252 135 162 -46 57 0.000 
3.14 235903 641 34 -34 -23 23 257 128 156 -27 57 0.000 
3.16 235929 615 26 -26 -8 8 251 123 149 -21 56 0.000 
3.18 235943 601 14 -14 -12 12 250 120 141 -11 55 0.000 
3.20 235944 600 1 -1 -13 13 253 120 134 -1 54 0.000 
3.22 235944 600 0 0 -1 1 248 120 128 0 54 0.000 
3.24 235944 600 0 0 0 0 242 120 122 0 53 0.000 
3.26 235944 600 0 0 0 0 237 120 117 0 53 0.000 
3.28 235944 600 0 0 0 0 232 120 112 0 52 0.000 
3.30 235944 600 0 0 0 0 228 120 108 0 52 0.000 
3.32 235944 600 0 0 0 0 224 120 104 0 51 0.000 
3.34 235944 600 0 0 0 0 221 120 101 0 51 0.000 
3.36 235944 600 0 0 0 0 218 120 98 0 51 0.000 
3.38 235944 600 0 0 0 0 215 120 95 0 50 0.000 
3.40 235944 600 0 0 0 0 213 120 93 0 50 0.000 
3.42 235944 600 0 0 0 0 210 120 90 0 50 0.000 
3.44 235944 600 0 0 0 0 208 120 88 0 50 0.000 
3.46 235944 600 0 0 0 0 207 120 87 0 50 0.000 
3.48 235944 600 0 0 0 0 205 120 85 0 49 0.000 
3.50 235944 600 0 0 0 0 204 120 84 0 49 0.000 
3.52 235944 600 0 0 0 0 202 120 82 0 49 0.000 
3.54 235944 600 0 0 0 0 201 120 81 0 49 0.000 
3.56 235944 600 0 0 0 0 200 120 80 0 49 0.000 
3.58 235944 600 0 0 0 0 199 120 79 0 49 0.000 
3.60 235944 600 0 0 0 0 198 120 78 0 49 0.000 
3.62 235944 600 0 0 0 0 197 120 77 0 49 0.000 
3.64 235944 600 0 0 0 0 197 120 77 0 49 0.000 
3.66 235944 600 0 0 0 0 196 120 76 0 49 0.000 
3.68 235944 600 0 0 0 0 196 120 76 0 49 0.000 
3.70 235944 600 0 0 0 0 195 120 75 0 48 0.000 
3.72 235944 600 0 0 0 0 195 120 75 0 48 0.000 
3.74 235944 600 0 0 0 0 194 120 74 0 48 0.000 
3.76 235944 600 0 0 0 0 194 120 74 0 48 0.000 
3.78 235944 600 0 0 0 0 193 120 73 0 48 0.000 
3.80 235944 600 0 0 0 0 193 120 73 0 48 0.000 
3.82 235944 600 0 0 0 0 193 120 73 0 48 0.000 
3.84 235944 600 0 0 0 0 193 120 73 0 48 0.000 
3.86 235944 600 0 0 0 0 192 120 72 0 48 0.000 
3.88 235944 600 0 0 0 0 192 120 72 0 48 0.000 
3.90 235944 600 0 0 0 0 192 120 72 0 48 0.000 
3.92 235944 600 0 0 0 0 192 120 72 0 48 0.000 
3.94 235944 600 0 0 0 0 192 120 72 0 48 0.000 
3.96 235944 600 0 0 0 0 192 120 72 0 48 0.000 
3.98 235944 600 0 0 0 0 192 120 72 0 48 0.000 
4.00 235944 600 0 0 0 0 191 120 71 0 48 0.000 