0.02 0 75 0 75 0 75 0 37 -261 0 15 0.000 
0.04 0 302 0 227 0 152 72 37 -261 0 15 71.777 
0.06 0 681 0 379 0 152 156 37 -261 0 15 155.640 
0.08 0 1211 0 530 0 151 281 37 -261 0 15 281.241 
0.10 0 1892 0 681 0 151 466 37 -261 0 15 465.820 
0.12 75 2649 75 757 75 76 692 37 -261 0 15 692.370 
0.14 445 3264 370 615 295 -142 850 37 -261 0 15 849.763 
0.16 1351 3493 906 229 536 -386 816 37 -261 0 15 815.993 
0.18 2739 3392 1388 -101 482 -330 694 37 -261 0 15 694.488 
0.20 3699 3870 960 478 -428 579 1024 37 -261 0 15 1023.761 
0.22 3948 5210 249 1340 -711 862 2006 37 -261 0 15 2006.494 
0.24 5016 5883 1068 673 819 -667 2066 37 -261 0 15 2065.782 
0.26 7244 5529 2228 -354 1160 -1027 1418 37 -261 0 15 1417.790 
0.28 9285 5380 2041 -149 -187 205 1430 37 -261 0 15 1430.470 
0.30 11015 5543 1730 163 -311 312 1639 37 -261 0 15 1638.597 
0.32 13094 5356 2079 -187 349 -350 1404 37 -261 0 15 1404.336 
0.34 15393 4949 2299 -407 220 -220 1149 37 -261 0 15 1148.754 
0.36 17110 5125 1717 176 -582 583 1441 37 -261 0 15 1441.270 
0.38 18143 5984 1033 859 -684 683 2226 37 -261 0 15 2225.622 
0.40 19636 6383 1493 399 460 -460 2228 37 -261 0 15 2228.031 
0.42 22008 5904 2372 -479 879 -878 1545 37 -261 0 15 1544.735 
0.44 24134 5670 2126 -234 -246 245 1533 37 -261 0 15 1533.312 
0.46 25542 6154 1408 484 -718 718 2132 37 -261 0 15 2132.042 
0.48 27399 6190 1857 36 449 -448 1928 37 -261 0 15 1927.511 
0.50 29817 5664 2418 -526 561 -562 1412 37 -261 0 15 1412.267 
0.52 31634 5739 1817 75 -601 601 1701 37 -261 0 15 1700.966 
0.54 32951 6315 1317 576 -500 501 2282 37 -261 0 15 2281.661 
0.56 35038 6120 2087 -195 770 -771 1780 37 -261 0 15 1779.671 
0.58 37556 5495 2518 -625 431 -430 1299 37 -261 0 15 1298.763 
0.60 39421 5522 1865 27 -653 652 1570 37 -261 0 15 1569.993 
0.62 40916 5919 1495 397 -370 370 1949 37 -261 0 15 1949.035 
0.64 42855 5873 1939 -46 444 -443 1716 37 -261 0 15 1716.361 
0.66 45080 5540 2225 -333 286 -287 1432 37 -261 0 15 1431.637 
0.68 46816 5696 1736 156 -489 489 1715 37 -261 0 15 1714.574 
0.70 48282 6123 1466 427 -270 271 2084 37 -261 0 15 2083.805 
0.72 50282 6015 2000 -108 534 -535 1763 37 -261 0 15 1763.179 
0.74 52708 5481 2426 -534 426 -426 1327 37 -261 0 15 1327.086 
0.76 54629 5453 1921 -28 -505 506 1514 37 -261 0 15 1513.893 
0.78 56043 5931 1414 478 -507 506 1996 37 -261 0 15 1996.296 
0.80 58011 5855 1968 -76 554 -554 1694 37 -261 0 15 1693.805 
0.82 60421 5338 2410 -517 442 -441 1271 37 -261 0 15 1271.205 
0.84 62245 5406 1824 68 -586 585 1531 37 -261 0 15 1530.705 
0.86 63717 5827 1472 421 -352 353 1909 37 -261 0 15 1908.553 
0.88 65787 5649 2070 -178 598 -599 1546 37 -261 0 15 1546.167 
0.90 68135 5193 2348 -456 278 -278 1232 37 -261 0 15 1231.566 
0.92 69962 5259 1827 66 -521 522 1460 37 -261 0 15 1459.875 
0.94 71478 5635 1516 376 -311 310 1782 37 -261 0 15 1782.351 
0.96 73447 5558 1969 -77 453 -453 1544 37 -261 0 15 1544.334 
0.98 75749 5149 2302 -409 333 -332 1230 37 -261 0 15 1230.145 
1.00 77651 5139 1902 -10 -400 399 1375 37 -261 0 15 1374.608 
1.02 79164 5518 1513 379 -389 389 1721 37 -261 0 15 1721.056 
1.04 81111 5464 1947 -54 434 -433 1508 37 -261 0 15 1508.449 
1.06 83488 4979 2377 -485 430 -431 1134 37 -261 0 15 1133.928 
1.08 85449 4910 1961 -69 -416 416 1252 37 -261 0 15 1252.132 
1.10 86994 5258 1545 348 -416 417 1576 37 -261 0 15 1575.544 
1.12 88897 5247 1903 -11 358 -359 1424 37 -261 0 15 1423.752 
1.14 91118 4918 2221 -329 318 -318 1163 37 -261 0 15 1163.007 
1.16 92950 4979 1832 61 -389 390 1330 37 -261 0 15 1330.212 
1.18 94501 5320 1551 341 -281 280 1604 37 -261 0 15 1603.579 
1.20 96390 5324 1889 4 338 -337 1465 37 -261 0 15 1465.360 
1.22 98599 5007 2209 -317 320 -321 1204 37 -261 0 15 1203.839 
1.24 100580 4918 1981 -89 -228 228 1248 37 -261 0 15 1248.347 
1.26 102200 5191 1620 273 -361 362 1512 37 -261 0 15 1511.627 
1.28 103999 5284 1799 93 179 -180 1483 37 -261 0 15 1482.656 
1.30 106214 4961 2215 -323 416 -416 1183 37 -261 0 15 1182.709 
1.32 108268 4800 2054 -161 -161 162 1174 37 -261 0 15 1173.541 
1.34 109947 5013 1679 213 -375 374 1404 37 -261 0 15 1404.297 
1.36 111789 5063 1842 50 163 -163 1364 37 -261 0 15 1363.867 
1.38 113917 4828 2128 -235 286 -285 1159 37 -261 0 15 1159.317 
1.40 115847 4790 1930 -38 -198 197 1213 37 -261 0 15 1213.155 
1.42 117478 5051 1631 261 -299 299 1441 37 -261 0 15 1440.958 
1.44 119282 5140 1804 89 173 -172 1414 37 -261 0 15 1413.656 
1.46 121409 4905 2127 -235 323 -324 1191 37 -261 0 15 1190.782 
1.48 123504 4703 2095 -202 -32 33 1120 37 -261 0 15 1120.494 
1.50 125334 4765 1830 62 -265 264 1238 37 -261 0 15 1238.494 
1.52 127148 4843 1814 78 -16 16 1278 37 -261 0 15 1277.528 
1.54 129175 4709 2027 -134 213 -212 1146 37 -261 0 15 1145.947 
1.56 131168 4608 1993 -101 -34 33 1117 37 -261 0 15 1117.133 
1.58 132914 4754 1746 146 -247 247 1264 37 -261 0 15 1264.234 
1.60 134710 4851 1796 97 50 -49 1288 37 -261 0 15 1287.761 
1.62 136732 4721 2022 -130 226 -227 1152 37 -261 0 15 1152.423 
1.64 138766 4579 2034 -142 12 -12 1092 37 -261 0 15 1092.105 
1.66 140643 4595 1877 16 -157 158 1152 37 -261 0 15 1152.209 
1.68 142488 4642 1845 47 -32 31 1182 37 -261 0 15 1181.790 
1.70 144418 4604 1930 -38 85 -85 1137 37 -261 0 15 1137.249 
1.72 146408 4507 1990 -97 60 -59 1079 37 -261 0 15 1078.977 
1.74 148298 4509 1890 2 -100 99 1113 37 -261 0 15 1112.791 
1.76 150148 4551 1850 42 -40 40 1143 37 -261 0 15 1143.295 
1.78 152087 4505 1939 -46 89 -88 1095 37 -261 0 15 1094.968 
1.80 154091 4393 2004 -112 65 -66 1030 37 -261 0 15 1030.245 
1.82 156023 4354 1932 -39 -72 73 1039 37 -261 0 15 1039.450 
1.84 157914 4355 1891 1 -41 40 1053 37 -261 0 15 1052.734 
1.86 159818 4343 1904 -12 13 -13 1044 37 -261 0 15 1043.959 
1.88 161756 4298 1938 -45 34 -33 1016 37 -261 0 15 1016.198 
1.90 163649 4297 1893 -1 -45 44 1030 37 -261 0 15 1030.040 
1.92 165478 4360 1829 63 -64 64 1075 37 -261 0 15 1074.935 
1.94 167387 4344 1909 -16 80 -79 1043 37 -261 0 15 1042.977 
1.96 169368 4255 1981 -89 72 -73 986 37 -261 0 15 986.377 
1.98 171343 4172 1975 -83 -6 6 958 37 -261 0 15 958.106 
2.00 173301 4107 1958 -65 -17 18 940 37 -261 0 15 940.064 
2.02 175260 4040 1959 -67 1 -2 916 37 -261 0 15 915.719 
2.04 177202 3990 1942 -50 -17 17 903 37 -261 0 15 903.439 
2.06 179116 3969 1914 -21 -28 29 905 37 -261 0 15 904.666 
2.08 180997 3980 1881 11 -33 32 918 37 -261 0 15 918.344 
2.10 182897 3973 1900 -7 19 -18 910 37 -261 0 15 910.405 
2.12 184835 3927 1938 -46 38 -39 883 37 -261 0 15 882.723 
2.14 186786 3868 1951 -59 13 -13 859 37 -261 0 15 858.917 
2.16 188716 3831 1930 -37 -21 22 853 37 -261 0 15 852.561 
2.18 190682 3757 1966 -74 36 -37 817 37 -261 0 15 817.252 
2.20 192648 3683 1966 -74 0 0 793 37 -261 0 15 792.995 
2.22 194577 3647 1929 -36 -37 38 792 37 -261 0 15 791.943 
2.24 196508 3608 1931 -39 2 -3 779 37 -261 0 15 778.680 
2.26 198439 3569 1931 -39 0 0 766 37 -261 0 15 766.092 
2.28 200372 3529 1933 -40 2 -1 753 37 -261 0 15 753.216 
2.30 202295 3498 1923 -31 -10 9 746 37 -261 0 15 745.640 
2.32 204232 3453 1937 -45 14 -14 728 37 -261 0 15 728.114 
2.34 206163 3415 1931 -38 -6 7 718 37 -261 0 15 718.004 
2.36 208100 3370 1937 -45 6 -7 703 37 -261 0 15 702.619 
2.38 210013 3349 1913 -21 -24 24 702 37 -261 0 15 702.261 
2.40 211943 3312 1930 -37 17 -16 687 37 -261 0 15 687.111 
2.42 213892 3255 1949 -57 19 -20 665 37 -261 0 15 664.969 
2.44 215843 3197 1951 -58 2 -1 648 37 -261 0 15 647.567 
2.46 217802 3130 1959 -67 8 -9 626 37 -261 0 15 625.972 
2.48 219784 3040 1982 -90 23 -23 595 37 -261 0 15 594.955 
2.50 221753 2964 1969 -76 -13 14 577 37 -261 0 15 577.032 
2.52 223713 2820 1960 -144 -9 -68 522 37 -261 0 15 522.460 
2.54 225649 2549 1936 -271 -24 -127 427 37 -261 0 15 426.714 
2.56 227499 2213 1850 -336 -86 -65 337 37 -261 0 15 336.556 
2.58 229214 1861 1715 -352 -135 -16 260 37 -261 0 15 259.658 
2.60 230770 1516 1556 -345 -159 7 194 37 -261 0 15 194.285 
2.62 232179 1167 1409 -349 -147 -4 132 37 -261 0 15 131.806 
2.64 233410 844 1231 -323 -178 26 83 37 -261 0 15 82.762 
2.66 234414 597 1004 -247 -227 76 55 37 -261 0 15 54.871 
2.68 235189 427 775 -170 -229 77 0 37 -261 0 15 0.000 
2.70 235749 321 560 -106 -215 64 0 37 -261 0 15 0.000 
2.72 236109 264 360 -57 -200 49 0 37 -261 0 15 0.000 
2.74 236380 145 271 -119 -89 -62 0 37 -261 0 15 0.000 
2.76 236571 -27 191 -172 -80 -53 0 37 -261 0 15 0.000 
2.78 236604 -60 33 -33 -158 139 0 37 -261 0 15 0.000 
2.80 236604 -60 0 0 -33 33 0 37 -261 0 15 0.000 
2.82 236604 -60 0 0 0 0 0 37 -261 0 15 0.000 
2.84 236604 -60 0 0 0 0 0 37 -261 0 15 0.000 
2.86 236604 -60 0 0 0 0 0 37 -261 0 15 0.000 
2.88 236604 -60 0 0 0 0 0 37 -261 0 15 0.000 
2.90 236604 -60 0 0 0 0 0 37 -261 0 15 0.000 
2.92 236604 -60 0 0 0 0 0 37 -261 0 15 0.000 
2.94 236604 -60 0 0 0 0 0 37 -261 0 15 0.000 
2.96 236604 -60 0 0 0 0 0 37 -261 0 15 0.000 
2.98 236604 -60 0 0 0 0 0 37 -261 0 15 0.000 
3.00 236604 -60 0 0 0 0 0 37 -261 0 15 0.000 
3.02 236604 -60 0 0 0 0 0 37 -261 0 15 0.000 
3.04 236604 -60 0 0 0 0 0 37 -261 0 15 0.000 
3.06 236604 -60 0 0 0 0 0 37 -261 0 15 0.000 
3.08 236604 -60 0 0 0 0 0 37 -261 0 15 0.000 
3.10 236604 -60 0 0 0 0 0 37 -261 0 15 0.000 
3.12 236604 -60 0 0 0 0 0 37 -261 0 15 0.000 
3.14 236604 -60 0 0 0 0 0 37 -261 0 15 0.000 
3.16 236604 -60 0 0 0 0 0 37 -261 0 15 0.000 
3.18 236604 -60 0 0 0 0 0 37 -261 0 15 0.000 
3.20 236604 -60 0 0 0 0 0 37 -261 0 15 0.000 
3.22 236604 -60 0 0 0 0 0 37 -261 0 15 0.000 
3.24 236604 -60 0 0 0 0 0 37 -261 0 15 0.000 
3.26 236604 -60 0 0 0 0 0 37 -261 0 15 0.000 
3.28 236604 -60 0 0 0 0 0 37 -261 0 15 0.000 
3.30 236604 -60 0 0 0 0 0 37 -261 0 15 0.000 
3.32 236604 -60 0 0 0 0 0 37 -261 0 15 0.000 
3.34 236604 -60 0 0 0 0 0 37 -261 0 15 0.000 
3.36 236604 -60 0 0 0 0 0 37 -261 0 15 0.000 
3.38 236604 -60 0 0 0 0 0 37 -261 0 15 0.000 
3.40 236604 -60 0 0 0 0 0 37 -261 0 15 0.000 
3.42 236604 -60 0 0 0 0 0 37 -261 0 15 0.000 
3.44 236604 -60 0 0 0 0 0 37 -261 0 15 0.000 
3.46 236604 -60 0 0 0 0 0 37 -261 0 15 0.000 
3.48 236604 -60 0 0 0 0 0 37 -261 0 15 0.000 
3.50 236604 -60 0 0 0 0 0 37 -261 0 15 0.000 
3.52 236604 -60 0 0 0 0 0 37 -261 0 15 0.000 
3.54 236604 -60 0 0 0 0 0 37 -261 0 15 0.000 
3.56 236604 -60 0 0 0 0 0 37 -261 0 15 0.000 
3.58 236604 -60 0 0 0 0 0 37 -261 0 15 0.000 
3.60 236604 -60 0 0 0 0 0 37 -261 0 15 0.000 
3.62 236604 -60 0 0 0 0 0 37 -261 0 15 0.000 
3.64 236604 -60 0 0 0 0 0 37 -261 0 15 0.000 
3.66 236604 -60 0 0 0 0 0 37 -261 0 15 0.000 
3.68 236604 -60 0 0 0 0 0 37 -261 0 15 0.000 
3.70 236604 -60 0 0 0 0 0 37 -261 0 15 0.000 
3.72 236604 -60 0 0 0 0 0 37 -261 0 15 0.000 
3.74 236604 -60 0 0 0 0 0 37 -261 0 15 0.000 
3.76 236604 -60 0 0 0 0 0 37 -261 0 15 0.000 
3.78 236604 -60 0 0 0 0 0 37 -261 0 15 0.000 
3.80 236604 -60 0 0 0 0 0 37 -261 0 15 0.000 
3.82 236604 -60 0 0 0 0 0 37 -261 0 15 0.000 
3.84 236604 -60 0 0 0 0 0 37 -261 0 15 0.000 
3.86 236604 -60 0 0 0 0 0 37 -261 0 15 0.000 
3.88 236604 -60 0 0 0 0 0 37 -261 0 15 0.000 
3.90 236604 -60 0 0 0 0 0 37 -261 0 15 0.000 
3.92 236604 -60 0 0 0 0 0 37 -261 0 15 0.000 
3.94 236604 -60 0 0 0 0 0 37 -261 0 15 0.000 
3.96 236604 -60 0 0 0 0 0 37 -261 0 15 0.000 
3.98 236604 -60 0 0 0 0 0 37 -261 0 15 0.000