0.02 0 75 0 75 0 75 0 0 0 0 0 
0.04 0 302 0 227 0 152 0 0 0 0 0 
0.06 0 681 0 379 0 152 164 0 0 0 0 
0.08 0 1211 0 530 0 151 296 0 0 0 0 
0.10 0 1892 0 681 0 151 490 0 0 0 0 
0.12 0 2724 0 832 0 151 773 0 0 0 0 
0.14 96 3613 96 889 96 57 1114 0 0 0 0 
0.16 436 4408 340 795 244 -94 1426 0 0 0 0 
0.18 1015 5116 579 708 239 -87 1744 0 0 0 0 
0.20 1964 5605 949 489 370 -219 1911 0 0 0 0 
0.22 3562 5596 1598 -9 649 -498 1673 0 0 0 0 
0.24 5531 5368 1969 -228 371 -219 1465 0 0 0 0 
0.26 7497 5276 1966 -92 -3 136 1477 0 0 0 0 
0.28 9526 5139 2029 -137 63 -45 1394 0 0 0 0 
0.30 11515 5043 1989 -96 -40 41 1366 0 0 0 0 
0.32 13262 5188 1747 145 -242 241 1533 0 0 0 0 
0.34 14882 5460 1620 272 -127 127 1728 0 0 0 0 
0.36 16675 5560 1793 100 173 -172 1703 0 0 0 0 
0.38 18711 5416 2036 -144 243 -244 1523 0 0 0 0 
0.40 20771 5248 2060 -168 24 -24 1433 0 0 0 0 
0.42 22650 5262 1879 14 -181 182 1514 0 0 0 0 
0.44 24467 5337 1817 75 -62 61 1577 0 0 0 0 
0.46 26451 5245 1984 -92 167 -167 1462 0 0 0 0 
0.48 28346 5243 1895 -2 -89 90 1498 0 0 0 0 
0.50 30040 5441 1694 198 -201 200 1684 0 0 0 0 
0.52 31925 5448 1885 7 191 -191 1603 0 0 0 0 
0.54 34041 5225 2116 -223 231 -230 1399 0 0 0 0 
0.56 36019 5139 1978 -86 -138 137 1414 0 0 0 0 
0.58 37795 5256 1776 117 -202 203 1554 0 0 0 0 
0.60 39597 5346 1802 90 26 -27 1588 0 0 0 0 
0.62 41514 5321 1917 -25 115 -115 1526 0 0 0 0 
0.64 43445 5283 1931 -38 14 -13 1502 0 0 0 0 
0.66 45240 5380 1795 97 -136 135 1609 0 0 0 0 
0.68 47086 5426 1846 46 51 -51 1609 0 0 0 0 
0.70 49164 5241 2078 -185 232 -231 1422 0 0 0 0 
0.72 51180 5117 2016 -124 -62 61 1389 0 0 0 0 
0.74 52905 5284 1725 167 -291 291 1590 0 0 0 0 
0.76 54711 5371 1806 87 81 -80 1599 0 0 0 0 
0.78 56695 5279 1984 -92 178 -179 1478 0 0 0 0 
0.80 58603 5263 1908 -16 -76 76 1502 0 0 0 0 
0.82 60394 5365 1791 102 -117 118 1603 0 0 0 0 
0.84 62292 5359 1898 -6 107 -108 1553 0 0 0 0 
0.86 64342 5202 2050 -157 152 -151 1415 0 0 0 0 
0.88 66281 5155 1939 -47 -111 110 1438 0 0 0 0 
0.90 68029 5299 1748 144 -191 191 1588 0 0 0 0 
0.92 69808 5413 1779 114 31 -30 1633 0 0 0 0 
0.94 71790 5323 1982 -90 203 -204 1501 0 0 0 0 
0.96 73720 5285 1930 -38 -52 52 1504 0 0 0 0 
0.98 75463 5435 1743 150 -187 188 1660 0 0 0 0 
1.00 77313 5477 1850 42 107 -108 1634 0 0 0 0 
1.02 79373 5309 2060 -168 210 -210 1461 0 0 0 0 
1.04 81318 5257 1945 -52 -115 116 1484 0 0 0 0 
1.06 83073 5394 1755 137 -190 189 1633 0 0 0 0 
1.08 84935 5424 1862 30 107 -107 1602 0 0 0 0 
1.10 86983 5269 2048 -155 186 -185 1448 0 0 0 0 
1.12 88948 5196 1965 -73 -83 82 1446 0 0 0 0 
1.14 90731 5305 1783 109 -182 182 1576 0 0 0 0 
1.16 92581 5348 1850 43 67 -66 1569 0 0 0 0 
1.18 94631 5190 2050 -158 200 -201 1409 0 0 0 0 
1.20 96634 5080 2003 -110 -47 48 1378 0 0 0 0 
1.22 98420 5186 1786 106 -217 216 1515 0 0 0 0 
1.24 100283 5215 1863 29 77 -77 1497 0 0 0 0 
1.26 102362 5029 2079 -186 216 -215 1325 0 0 0 0 
1.28 104340 4943 1978 -86 -101 100 1325 0 0 0 0 
1.30 106066 5109 1726 166 -252 252 1503 0 0 0 0 
1.32 107887 5181 1821 72 95 -94 1499 0 0 0 0 
1.34 109951 5009 2064 -172 243 -244 1321 0 0 0 0 
1.36 111956 4896 2005 -113 -59 59 1293 0 0 0 0 
1.38 113739 5006 1783 110 -222 223 1431 0 0 0 0 
1.40 115585 5052 1846 46 63 -64 1427 0 0 0 0 
1.42 117642 4887 2057 -165 211 -211 1270 0 0 0 0 
1.44 119613 4809 1971 -78 -86 87 1268 0 0 0 0 
1.46 121359 4955 1746 146 -225 224 1421 0 0 0 0 
1.48 123137 5070 1778 115 32 -31 1463 0 0 0 0 
1.50 125145 4954 2008 -116 230 -231 1318 0 0 0 0 
1.52 127156 4835 2011 -119 3 -3 1264 0 0 0 0 
1.54 128912 4972 1756 137 -255 256 1426 0 0 0 0 
1.56 130694 5082 1782 110 26 -27 1467 0 0 0 0 
1.58 132776 4892 2082 -190 300 -300 1263 0 0 0 0 
1.60 134869 4692 2093 -200 11 -10 1174 0 0 0 0 
1.62 136720 4733 1851 41 -242 241 1279 0 0 0 0 
1.64 138544 4801 1824 68 -27 27 1320 0 0 0 0 
1.66 140523 4715 1979 -86 155 -154 1225 0 0 0 0 
1.68 142475 4655 1952 -60 -27 26 1209 0 0 0 0 
1.70 144224 4798 1749 143 -203 203 1348 0 0 0 0 
1.72 145982 4933 1758 135 9 -8 1407 0 0 0 0 
1.74 147996 4811 2014 -122 256 -257 1253 0 0 0 0 
1.76 150134 4565 2138 -246 124 -124 1106 0 0 0 0 
1.78 152054 4538 1920 -27 -218 219 1172 0 0 0 0 
1.80 153862 4622 1808 84 -112 111 1247 0 0 0 0 
1.82 155823 4554 1961 -68 153 -152 1164 0 0 0 0 
1.84 157838 4431 2015 -123 54 -55 1094 0 0 0 0 
1.86 159651 4510 1813 79 -202 202 1198 0 0 0 0 
1.88 161453 4601 1802 91 -11 12 1241 0 0 0 0 
1.90 163411 4535 1958 -66 156 -157 1156 0 0 0 0 
1.92 165428 4410 2017 -125 59 -59 1086 0 0 0 0 
1.94 167355 4376 1927 -34 -90 91 1103 0 0 0 0 
1.96 169204 4419 1849 43 -78 77 1147 0 0 0 0 
1.98 171098 4417 1894 -2 45 -45 1131 0 0 0 0 
2.00 173085 4323 1987 -94 93 -92 1061 0 0 0 0 
2.02 175018 4282 1933 -41 -54 53 1063 0 0 0 0 
2.04 176858 4334 1840 52 -93 93 1116 0 0 0 0 
2.06 178795 4290 1937 -44 97 -96 1066 0 0 0 0 
2.08 180795 4182 2000 -108 63 -64 1003 0 0 0 0 
2.10 182738 4132 1943 -50 -57 58 1003 0 0 0 0 
2.12 184640 4122 1902 -10 -41 40 1012 0 0 0 0 
2.14 186551 4103 1911 -19 9 -9 1002 0 0 0 0 
2.16 188452 4095 1901 -8 -10 11 1002 0 0 0 0 
2.18 190357 4082 1905 -13 4 -5 996 0 0 0 0 
2.20 192213 4118 1856 36 -49 49 1025 0 0 0 0 
2.22 194086 4138 1873 20 17 -16 1028 0 0 0 0 
2.24 196050 4066 1964 -72 91 -92 971 0 0 0 0 
2.26 198070 3938 2020 -128 56 -56 906 0 0 0 0 
2.28 200023 3878 1953 -60 -67 68 906 0 0 0 0 
2.30 201970 3823 1947 -55 -6 5 888 0 0 0 0 
2.32 203925 3760 1955 -63 8 -8 864 0 0 0 0 
2.34 205853 3725 1928 -35 -27 28 860 0 0 0 0 
2.36 207750 3720 1897 -5 -31 30 867 0 0 0 0 
2.38 209625 3737 1875 17 -22 22 880 0 0 0 0 
2.40 211534 3721 1909 -16 34 -33 864 0 0 0 0 
2.42 213482 3665 1948 -56 39 -40 833 0 0 0 0 
2.44 215454 3586 1972 -79 24 -23 799 0 0 0 0 
2.46 217399 3533 1945 -53 -27 26 789 0 0 0 0 
2.48 219363 3461 1964 -72 19 -19 760 0 0 0 0 
2.50 221310 3407 1947 -54 -17 18 748 0 0 0 0 
2.52 223252 3281 1942 -126 -5 -72 689 0 0 0 0 
2.54 225142 3056 1890 -225 -52 -99 596 0 0 0 0 
2.56 226964 2748 1822 -308 -68 -83 492 0 0 0 0 
2.58 228649 2426 1685 -322 -137 -14 407 0 0 0 0 
2.60 230150 2136 1501 -290 -184 32 345 0 0 0 0 
2.62 231463 1883 1313 -253 -188 37 296 0 0 0 0 
2.64 232534 1720 1071 -163 -242 90 277 0 0 0 0 
2.66 233343 1668 809 -52 -262 111 287 0 0 0 0 
2.68 233954 1662 611 -6 -198 46 294 0 0 0 0 
2.70 234366 1704 412 42 -199 48 312 0 0 0 0 
2.72 234589 1784 223 80 -189 38 337 0 0 0 0 
2.74 234635 1890 46 106 -177 26 367 0 0 0 0 
2.76 234635 1909 0 19 -46 -87 354 0 0 0 0 
2.78 234635 1909 0 0 0 -19 350 0 0 0 0 
2.80 234635 1909 0 0 0 0 350 0 0 0 0 
2.82 234635 1909 0 0 0 0 350 0 0 0 0 
2.84 234635 1909 0 0 0 0 350 0 0 0 0 
2.86 234635 1909 0 0 0 0 350 0 0 0 0 
2.88 234635 1909 0 0 0 0 350 0 0 0 0 
2.90 234635 1909 0 0 0 0 350 0 0 0 0 
2.92 234635 1909 0 0 0 0 350 0 0 0 0 
2.94 234635 1909 0 0 0 0 350 0 0 0 0 
2.96 234635 1909 0 0 0 0 350 0 0 0 0 
2.98 234635 1909 0 0 0 0 350 0 0 0 0 
3.00 234635 1909 0 0 0 0 350 0 0 0 0 
3.02 234635 1909 0 0 0 0 350 0 0 0 0 
3.04 234635 1909 0 0 0 0 350 0 0 0 0 
3.06 234635 1909 0 0 0 0 350 0 0 0 0 
3.08 234635 1909 0 0 0 0 350 0 0 0 0 
3.10 234635 1909 0 0 0 0 350 0 0 0 0 
3.12 234635 1909 0 0 0 0 350 0 0 0 0 
3.14 234635 1909 0 0 0 0 350 0 0 0 0 
3.16 234635 1909 0 0 0 0 350 0 0 0 0 
3.18 234635 1909 0 0 0 0 350 0 0 0 0 
3.20 234635 1909 0 0 0 0 350 0 0 0 0 
3.22 234635 1909 0 0 0 0 350 0 0 0 0 
3.24 234635 1909 0 0 0 0 350 0 0 0 0 
3.26 234635 1909 0 0 0 0 350 0 0 0 0 
3.28 234635 1909 0 0 0 0 350 0 0 0 0 
3.30 234635 1909 0 0 0 0 350 0 0 0 0 
3.32 234635 1909 0 0 0 0 350 0 0 0 0 
3.34 234635 1909 0 0 0 0 350 0 0 0 0 
3.36 234635 1909 0 0 0 0 350 0 0 0 0 
3.38 234635 1909 0 0 0 0 350 0 0 0 0 
3.40 234635 1909 0 0 0 0 350 0 0 0 0 
3.42 234635 1909 0 0 0 0 350 0 0 0 0 
3.44 234635 1909 0 0 0 0 350 0 0 0 0 
3.46 234635 1909 0 0 0 0 350 0 0 0 0 
3.48 234635 1909 0 0 0 0 350 0 0 0 0 
3.50 234635 1909 0 0 0 0 350 0 0 0 0 
3.52 234635 1909 0 0 0 0 350 0 0 0 0 
3.54 234635 1909 0 0 0 0 350 0 0 0 0 
3.56 234635 1909 0 0 0 0 350 0 0 0 0 
3.58 234635 1909 0 0 0 0 350 0 0 0 0 
3.60 234635 1909 0 0 0 0 350 0 0 0 0 
3.62 234635 1909 0 0 0 0 350 0 0 0 0 
3.64 234635 1909 0 0 0 0 350 0 0 0 0 
3.66 234635 1909 0 0 0 0 350 0 0 0 0 
3.68 234635 1909 0 0 0 0 350 0 0 0 0 
3.70 234635 1909 0 0 0 0 350 0 0 0 0 
3.72 234635 1909 0 0 0 0 350 0 0 0 0 
3.74 234635 1909 0 0 0 0 350 0 0 0 0 
3.76 234635 1909 0 0 0 0 350 0 0 0 0 
3.78 234635 1909 0 0 0 0 350 0 0 0 0 
3.80 234635 1909 0 0 0 0 350 0 0 0 0 
3.82 234635 1909 0 0 0 0 350 0 0 0 0 
3.84 234635 1909 0 0 0 0 350 0 0 0 0 
3.86 234635 1909 0 0 0 0 350 0 0 0 0 
3.88 234635 1909 0 0 0 0 350 0 0 0 0 
3.90 234635 1909 0 0 0 0 350 0 0 0 0 
3.92 234635 1909 0 0 0 0 350 0 0 0 0 
3.94 234635 1909 0 0 0 0 350 0 0 0 0 
3.96 234635 1909 0 0 0 0 350 0 0 0 0 
3.98 234635 1909 0 0 0 0 350 0 0 0 0 
4.00 234635 1909 0 0 0 0 350 0 0 0 0 