0.02 0 3 0 3 0 3 12 
0.04 332 -307 332 -310 332 -313 1 
0.06 443 -356 111 -49 -221 261 1 
0.08 443 -237 0 119 -111 168 3 
0.10 443 -39 0 198 0 79 11 
0.12 823 -125 380 -86 380 -284 8 
0.14 1253 -144 430 -19 50 67 7 
0.16 1453 202 200 346 -230 365 18 
0.18 1858 499 405 297 205 -49 29 
0.20 2380 854 522 355 117 58 40 
0.22 3059 1245 679 391 157 36 51 
0.24 3948 1640 889 395 210 4 62 
0.26 4985 2120 1037 480 148 85 73 
0.28 6194 2680 1209 560 172 80 84 
0.30 7556 3359 1362 679 153 119 95 
0.32 9057 4190 1501 831 139 152 106 
0.34 10680 5209 1623 1019 122 188 117 
0.36 12553 6301 1873 1092 250 73 128 
0.38 14699 7443 2146 1142 273 50 139 
0.40 17180 8573 2481 1130 335 -12 150 
0.42 20102 9586 2922 1013 441 -117 161 
0.44 23575 10372 3473 786 551 -227 172 
0.46 27714 10814 4139 442 666 -344 178 
0.48 32579 10855 4865 41 726 -401 178 
0.50 38212 10450 5633 -405 768 -446 167 
0.52 44175 10036 5963 -414 330 -9 156 
0.54 50256 9808 6081 -228 118 186 150 
0.56 56433 9768 6177 -40 96 188 151 
0.58 62725 9879 6292 111 115 151 158 
0.60 69144 10108 6419 229 127 118 169 
0.62 75711 10416 6567 308 148 79 178 
0.64 82449 10760 6738 344 171 36 178 
0.66 89369 11109 6920 349 182 5 178 
0.68 96491 11425 7122 316 202 -33 178 
0.70 103895 11607 7404 182 282 -134 178 
0.72 111566 11652 7671 45 267 -137 178 
0.74 119538 11506 7972 -146 301 -191 175 
0.76 127814 11146 8276 -360 304 -214 164 
0.78 136431 10516 8617 -630 341 -270 153 
0.80 145126 9861 8695 -655 78 -25 142 
0.82 153310 9748 8184 -113 -511 542 140 
0.84 160982 10161 7672 413 -512 526 151 
0.86 169179 10049 8197 -112 525 -525 149 
0.88 177559 9755 8380 -294 183 -182 140 
0.90 185585 9814 8026 59 -354 353 145 
0.92 193684 9801 8099 -13 73 -72 147 
0.94 201941 9629 8257 -172 158 -159 143 
0.96 210108 9548 8167 -81 -90 91 142 
0.98 218175 9566 8067 18 -100 99 145 
1.00 226327 9500 8152 -66 85 -84 145 
1.02 234534 9378 8207 -122 55 -56 143 
1.04 242667 9331 8133 -47 -74 75 143 
1.06 250770 9313 8103 -18 -30 29 145 
1.08 258912 9257 8142 -56 39 -38 145 
1.10 267096 9158 8184 -99 42 -43 143 
1.12 275246 9094 8150 -64 -34 35 143 
1.14 283344 9081 8098 -13 -52 51 145 
1.16 291469 9042 8125 -39 27 -26 146 
1.18 299712 8884 8243 -158 118 -119 142 
1.20 307861 8821 8149 -63 -94 95 142 
1.22 315934 8833 8073 12 -76 75 145 
1.24 324083 8770 8149 -63 76 -75 145 
1.26 332286 8652 8203 -118 54 -55 143 
1.28 340415 8609 8129 -43 -74 75 143 
1.30 348528 8581 8113 -28 -16 15 144 
1.32 356665 8530 8137 -51 24 -23 144 
1.34 364812 8468 8147 -62 10 -11 144 
1.36 372955 8411 8143 -57 -4 5 144 
1.38 381088 8363 8133 -48 -10 9 144 
1.40 389254 8283 8166 -80 33 -32 143 
1.42 397388 8234 8134 -49 -32 31 143 
1.44 405502 8206 8114 -28 -20 21 144 
1.46 413639 8154 8137 -52 23 -24 144 
1.48 421786 8093 8147 -61 10 -9 144 
1.50 429951 8013 8165 -80 18 -19 143 
1.52 438062 7988 8111 -25 -54 55 144 
1.54 446208 7927 8146 -61 35 -36 144 
1.56 454356 7865 8148 -62 2 -1 144 
1.58 462492 7814 8136 -51 -12 11 144 
1.60 470647 7745 8155 -69 19 -18 143 
1.62 478759 7718 8112 -27 -43 42 144 
1.64 486912 7651 8153 -67 41 -40 143 
1.66 495047 7601 8135 -50 -18 17 143 
1.68 503152 7582 8105 -19 -30 31 144 
1.70 511300 7519 8148 -63 43 -44 143 
1.72 519412 7493 8112 -26 -36 37 144 
1.74 527543 7447 8131 -46 19 -20 144 
1.76 535688 7388 8145 -59 14 -13 144 
1.78 543825 7336 8137 -52 -8 7 144 
1.80 551971 7276 8146 -60 9 -8 143 
1.82 560102 7230 8131 -46 -15 14 143 
1.84 568176 7242 8074 12 -57 58 145 
1.86 576330 7173 8154 -69 80 -81 144 
1.88 584516 7073 8186 -100 32 -31 142 
1.90 592605 7069 8089 -4 -97 96 144 
1.92 600713 7047 8108 -22 19 -18 145 
1.94 608867 6978 8154 -69 46 -47 144 
1.96 617023 6908 8156 -70 2 -1 143 
1.98 625140 6876 8117 -32 -39 38 143 
2.00 633237 6865 8097 -11 -20 21 144 
2.02 641347 6840 8110 -25 13 -14 145 
2.04 649523 6750 8176 -90 66 -65 143 
2.06 657650 6708 8127 -42 -49 48 143 
2.08 665737 6707 8087 -1 -40 41 145 
2.10 673887 6642 8150 -65 63 -64 144 
2.12 682047 6568 8160 -74 10 -9 143 
2.14 690175 6525 8128 -43 -32 31 143 
2.16 698259 6527 8084 2 -44 45 145 
2.18 706412 6459 8153 -68 69 -70 144 
2.20 714576 6381 8164 -78 11 -10 143 
2.22 722704 6338 8128 -43 -36 35 143 
2.24 730804 6324 8100 -14 -28 29 144 
2.26 738952 6261 8148 -63 48 -49 143 
2.28 747057 6242 8105 -19 -43 44 144 
2.30 755177 6207 8120 -35 15 -16 144 
2.32 763315 6155 8138 -52 18 -17 143 
2.34 771448 6107 8133 -48 -5 4 143 
2.36 779545 6096 8097 -11 -36 37 144 
2.38 787657 6069 8112 -27 15 -16 144 
2.40 795776 6036 8119 -33 7 -6 144 
2.42 803897 6000 8121 -36 2 -3 144 
2.44 812049 5934 8152 -66 31 -30 143 
2.46 820137 5931 8088 -3 -64 63 144 
2.48 828241 5913 8104 -18 16 -15 145 
2.50 836402 5837 8161 -76 57 -58 143 
2.52 844517 5808 8115 -29 -46 47 143 
2.54 852598 5812 8081 4 -34 33 145 
2.56 860740 5756 8142 -56 61 -60 144 
2.58 868892 5689 8152 -67 10 -11 143 
2.60 876982 5685 8090 -4 -62 63 144 
2.62 885105 5647 8123 -38 33 -34 144 
2.64 893251 5587 8146 -60 23 -22 143 
2.66 901358 5565 8107 -22 -39 38 143 
2.68 909422 5587 8064 22 -43 44 145 
2.70 917539 5555 8117 -32 53 -54 145 
2.72 925682 5498 8143 -57 26 -25 144 
2.74 933833 5432 8151 -66 8 -9 143 
2.76 941945 5406 8112 -26 -39 40 143 
2.78 950020 5416 8075 10 -37 36 145 
2.80 958173 5349 8153 -67 78 -77 144 
2.82 966323 5285 8150 -64 -3 3 143 
2.84 974417 5276 8094 -9 -56 55 144 
2.86 982521 5257 8104 -19 10 -10 145 
2.88 990697 5167 8176 -90 72 -71 143 
2.90 998815 5135 8118 -32 -58 58 143 
2.92 1006900 5135 8085 0 -33 32 144 
2.94 1015019 5102 8119 -33 34 -33 144 
2.96 1023145 5061 8126 -41 7 -8 144 
2.98 1031269 5022 8124 -39 -2 2 144 
3.00 1039377 5000 8108 -22 -16 17 144 
3.02 1047480 4983 8103 -17 -5 5 145 
3.04 1055632 4916 8152 -67 49 -50 144 
3.06 1063766 4868 8134 -48 -18 19 143 
3.08 1071849 4870 8083 2 -51 50 144 
3.10 1079945 4860 8096 -10 13 -12 145 
3.12 1088054 4836 8109 -24 13 -14 145 
3.14 1096214 4762 8160 -74 51 -50 143 
3.16 1104329 4732 8115 -30 -45 44 143 
3.18 1112424 4723 8095 -9 -20 21 144 
3.20 1120512 4720 8088 -3 -7 6 145 
3.22 1128677 4641 8165 -79 77 -76 143 
3.24 1136782 4621 8105 -20 -60 59 143 
3.26 1144832 4657 8050 36 -55 56 145 
3.28 1152968 4606 8136 -51 86 -87 144 
3.30 1161105 4555 8137 -51 1 0 143 
3.32 1169213 4532 8108 -23 -29 28 143 
3.34 1177267 4564 8054 32 -54 55 145 
3.36 1185394 4522 8127 -42 73 -74 144 
3.38 1193537 4465 8143 -57 16 -15 143 
3.40 1201623 4464 8086 -1 -57 56 144 
3.42 1209715 4458 8092 -6 6 -5 145 
3.44 1217849 4409 8134 -49 42 -43 144 
3.46 1225989 4355 8140 -54 6 -5 143 
3.48 1234066 4363 8077 8 -63 62 144 
3.50 1242171 4344 8105 -19 28 -27 144 
3.52 1250285 4315 8114 -29 9 -10 144 
3.54 1258405 4281 8120 -34 6 -5 144 
3.56 1266513 4258 8108 -23 -12 11 144 
3.58 1274634 4223 8121 -35 13 -12 144 
3.60 1282751 4191 8117 -32 -4 3 144 
3.62 1290876 4152 8125 -39 8 -7 144 
3.64 1299003 4110 8127 -42 2 -3 143 
3.66 1307087 4112 8084 2 -43 44 144 
3.68 1315199 4085 8112 -27 28 -29 144 
3.70 1323318 4052 8119 -33 7 -6 144 
3.72 1331441 4014 8123 -38 4 -5 144 
3.74 1339562 3979 8121 -35 -2 3 144 
3.76 1347675 3951 8113 -28 -8 7 144 
3.78 1355770 3942 8095 -9 -18 19 145 
3.80 1363919 3878 8149 -64 54 -55 143 
3.82 1372011 3872 8092 -6 -57 58 144 
3.84 1380119 3849 8108 -23 16 -17 144 
3.86 1388238 3816 8119 -33 11 -10 144 
3.88 1396376 3763 8138 -53 19 -20 143 
3.90 1404754 3470 8378 -293 240 -240 133 
3.92 1412500 3798 7746 328 -632 621 144 
3.94 1420254 4088 7754 290 8 -38 155 
3.96 1428358 3978 8104 -110 350 -400 152 
3.98 1436733 3528 8375 -450 271 -340 141 
4.00 1444823 3275 8090 -253 -285 197 132 
4.02 1452397 3430 7574 155 -516 408 139 
4.04 1460089 3339 7692 -91 118 -246 136 
4.06 1467844 3039 7755 -300 63 -209 125 
4.08 1474927 3245 7083 206 -672 506 134 
4.10 1482120 3156 7193 -89 110 -295 131 
4.12 1489519 2656 7399 -500 206 -411 120 
4.14 1496394 2455 6875 -201 -524 299 113 
4.16 1502976 2304 6582 -151 -293 50 108 
4.18 1509252 2196 6276 -108 -306 43 104 
4.20 1515275 2058 6023 -138 -253 -30 99 
4.22 1521030 1887 5755 -171 -268 -33 93 
4.24 1526310 1872 5280 -15 -475 156 93 
4.26 1531594 1529 5284 -343 4 -328 82 
4.28 1536481 1259 4887 -270 -397 73 72 
4.30 1540786 1249 4305 -10 -582 260 72 
4.32 1544926 1080 4140 -169 -165 -159 66 
4.34 1548705 948 3779 -132 -361 37 61 
4.36 1552233 744 3528 -204 -251 -72 53 
4.38 1555359 619 3126 -125 -402 79 48 
4.40 1558220 435 2861 -184 -265 -59 41 
4.42 1560593 428 2373 -7 -488 177 41 
4.44 1562577 516 1984 88 -389 95 44 
4.46 1564140 751 1563 235 -421 147 53 
4.48 1565348 1087 1208 336 -355 101 64 
4.50 1566378 1366 1030 279 -178 -57 75 
4.52 1567518 1319 1140 -47 110 -326 74 
4.54 1568696 1038 1178 -281 38 -234 64 
4.56 1569771 684 1075 -354 -103 -73 53 
4.58 1570787 231 1016 -453 -59 -99 42 
4.60 1571590 -147 803 -378 -213 75 31 
4.62 1572149 -400 559 -253 -244 125 21 
4.64 1572639 -683 490 -283 -69 -30 10 
4.66 1573117 -1034 478 -351 -12 -68 1 
4.68 1573203 -1053 86 -19 -392 332 2 
4.70 1573195 -1019 -8 34 -94 53 1 
4.72 1573189 -1008 -6 11 2 -23 1 
4.74 1573186 -1005 -3 3 3 -8 1 
4.76 1573183 -1002 -3 3 0 0 1 
4.78 1573181 -1000 -2 2 1 -1 1 
4.80 1573180 -999 -1 1 1 -1 1 
4.82 1573179 -998 -1 1 0 0 1 
4.84 1573177 -996 -2 2 -1 1 1 
4.86 1573176 -995 -1 1 1 -1 1 
4.88 1573174 -993 -2 2 -1 1 1 
4.90 1573174 -993 0 0 2 -2 1 
4.92 1573174 -993 0 0 0 0 1 
4.94 1573173 -992 -1 1 -1 1 1 
4.96 1573173 -992 0 0 1 -1 1 
4.98 1573172 -991 -1 1 -1 1 1 
5.00 1573172 -991 0 0 1 -1 1 
5.02 1573172 -991 0 0 0 0 1 
5.04 1573172 -991 0 0 0 0 1 
5.06 1573171 -990 -1 1 -1 1 1 
5.08 1573171 -990 0 0 1 -1 1 
5.10 1573171 -990 0 0 0 0 1 
5.12 1573171 -990 0 0 0 0 1 
5.14 1573171 -990 0 0 0 0 1 
5.16 1573170 -989 -1 1 -1 1 1 
5.18 1573170 -989 0 0 1 -1 1 
5.20 1573170 -989 0 0 0 0 1 
5.22 1573170 -989 0 0 0 0 1 
5.24 1573170 -989 0 0 0 0 1 
5.26 1573170 -989 0 0 0 0 1 
5.28 1573170 -989 0 0 0 0 1 
5.30 1573170 -989 0 0 0 0 1 
5.32 1573170 -989 0 0 0 0 1 
5.34 1573170 -989 0 0 0 0 1 
5.36 1573170 -989 0 0 0 0 1 
5.38 1573170 -989 0 0 0 0 1 
5.40 1573170 -989 0 0 0 0 1 
5.42 1573170 -989 0 0 0 0 1 
5.44 1573170 -989 0 0 0 0 1 
5.46 1573170 -989 0 0 0 0 1 
5.48 1573170 -989 0 0 0 0 1 
5.50 1573170 -989 0 0 0 0 1 
5.52 1573170 -989 0 0 0 0 1 
5.54 1573170 -989 0 0 0 0 1 
5.56 1573170 -989 0 0 0 0 1 
5.58 1573170 -989 0 0 0 0 1 
5.60 1573169 -988 -1 1 -1 1 1 
5.62 1573169 -988 0 0 1 -1 1 
5.64 1573169 -988 0 0 0 0 1 
5.66 1573169 -988 0 0 0 0 1 
5.68 1573169 -988 0 0 0 0 1 
5.70 1573169 -988 0 0 0 0 1 
5.72 1573169 -988 0 0 0 0 1 
5.74 1573169 -988 0 0 0 0 1 
5.76 1573169 -988 0 0 0 0 1 
5.78 1573169 -988 0 0 0 0 1 
5.80 1573169 -988 0 0 0 0 1 
5.82 1573169 -988 0 0 0 0 1 
5.84 1573169 -988 0 0 0 0 1 
5.86 1573169 -988 0 0 0 0 1 
5.88 1573169 -988 0 0 0 0 1 
5.90 1573169 -988 0 0 0 0 1 
5.92 1573169 -988 0 0 0 0 1 
5.94 1573169 -988 0 0 0 0 1 
5.96 1573169 -988 0 0 0 0 1 
5.98 1573169 -988 0 0 0 0 1 