 0.010  0.002  0.00465  0.00420  -0.00276  -0.00285  25 
 0.020  0.007  0.02697  0.01277  -0.01968  -0.00962  9 
 0.030  0.016  0.05538  0.01341  -0.03909  -0.00846  11 
 0.040  0.029  0.06584  0.00239  -0.03696  0.00436  19 
 0.050  0.045  0.06655  0.00018  -0.02146  0.00837  21 
 0.060  0.065  0.06729  0.00064  -0.00240  0.00971  23 
 0.070  0.088  0.07066  0.00209  0.01763  0.01006  26 
 0.080  0.115  0.07718  0.00380  0.03811  0.01015  32 
 0.090  0.146  0.08721  0.00551  0.05868  0.01024  41 
 0.100  0.180  0.09532  0.00214  0.08477  0.01541  48 
 0.110  0.218  0.09830  0.00199  0.11959  0.01736  52 
 0.120  0.259  0.10426  0.00290  0.15503  0.01825  58 
 0.130  0.304  0.10820  0.00158  0.19608  0.02137  62 
 0.140  0.353  0.11308  0.00293  0.23981  0.02182  68 
 0.150  0.405  0.12040  0.00358  0.28469  0.02297  75 
 0.160  0.461  0.12162  0.00066  0.33927  0.02769  78 
 0.170  0.520  0.12607  0.00237  0.39422  0.02778  84 
 0.180  0.583  0.13244  0.00310  0.45085  0.02885  90 
 0.190  0.650  0.13679  0.00214  0.51310  0.03161  96 
 0.200  0.720  0.14181  0.00242  0.57828  0.03313  102 
 0.210  0.794  0.14606  0.00173  0.64783  0.03562  108 
 0.220  0.871  0.14724  0.00095  0.72405  0.03820  111 
 0.230  0.952  0.15175  0.00302  0.80054  0.03793  117 
 0.240  1.037  0.15602  0.00188  0.88087  0.04087  123 
 0.250  1.125  0.15963  0.00172  0.96546  0.04283  128 
 0.260  1.217  0.16372  0.00209  1.05317  0.04426  128 
 0.270  1.312  0.16891  0.00274  1.14338  0.04541  128 
 0.280  1.411  0.17503  0.00302  1.23626  0.04693  128 
 0.290  1.514  0.17995  0.00206  1.33394  0.04969  128 
 0.300  1.620  0.18312  0.00128  1.43697  0.05227  128 
 0.310  1.730  0.18348  -0.00013  1.54641  0.05548  128 
 0.320  1.843  0.17996  -0.00216  1.66333  0.05931  128 
 0.330  1.960  0.17140  -0.00481  1.78889  0.06376  125 
 0.340  2.081  0.15807  -0.00719  1.92282  0.06794  119 
 0.350  2.205  0.13970  -0.00976  2.06538  0.07231  109 
 0.360  2.333  0.11933  -0.01036  2.21356  0.07471  97 
 0.370  2.464  0.09899  -0.00963  2.36530  0.07578  85 
 0.380  2.599  0.08448  -0.00614  2.51481  0.07409  76 
 0.390  2.738  0.07713  -0.00256  2.66076  0.07231  73 
 0.400  2.880  0.07721  0.00085  2.80288  0.07070  74 
 0.410  3.026  0.08454  0.00452  2.94135  0.06883  81 
 0.420  3.175  0.09823  0.00756  3.07706  0.06759  92 
 0.430  3.328  0.11347  0.00776  3.21482  0.06919  104 
 0.440  3.485  0.12706  0.00662  3.35783  0.07213  116 
 0.450  3.645  0.13837  0.00530  3.50672  0.07525  126 
 0.460  3.809  0.14518  0.00274  3.66371  0.07961  128 
 0.470  3.976  0.14722  0.00071  3.82907  0.08344  128 
 0.480  4.147  0.14466  -0.00167  4.00263  0.08762  128 
 0.490  4.322  0.13725  -0.00415  4.18464  0.09190  125 
 0.500  4.500  0.12346  -0.00751  4.37663  0.09706  118 
 0.510  4.680  0.11067  -0.00582  4.56942  0.09582  111 
 0.520  4.860  0.10100  -0.00439  4.75909  0.09439  106 
 0.530  5.040  0.09373  -0.00323  4.94636  0.09323  103 
 0.540  5.220  0.08815  -0.00243  5.13194  0.09243  101 
 0.550  5.400  0.08462  -0.00127  5.31547  0.09127  100 
 0.560  5.580  0.08270  -0.00056  5.49739  0.09056  100 
 0.570  5.760  0.08237  0.00015  5.67771  0.08985  101 
 0.580  5.940  0.08312  0.00068  5.85697  0.08932  103 
 0.590  6.120  0.08609  0.00211  6.03400  0.08789  107 
 0.600  6.300  0.09129  0.00282  6.20880  0.08718  112 
 0.610  6.480  0.09435  0.00131  6.38574  0.08869  116 
 0.620  6.660  0.09216  -0.00163  6.56793  0.09163  116 
 0.630  6.840  0.08632  -0.00288  6.75377  0.09288  114 
 0.640  7.020  0.08109  -0.00208  6.93899  0.09208  112 
 0.650  7.200  0.07917  -0.00029  7.12092  0.09029  112 
 0.660  7.380  0.07920  0.00015  7.30089  0.08985  113 
 0.670  7.560  0.07861  -0.00021  7.48148  0.09021  114 
 0.680  7.740  0.07615  -0.00119  7.66394  0.09119  114 
 0.690  7.920  0.07307  -0.00145  7.84702  0.09145  113 
 0.700  8.100  0.07017  -0.00110  8.02992  0.09110  113 
 0.710  8.280  0.06833  -0.00065  8.21176  0.09065  113 
 0.720  8.460  0.06685  -0.00047  8.39324  0.09047  113 
 0.730  8.640  0.06564  -0.00038  8.57445  0.09038  113 
 0.740  8.820  0.06469  -0.00030  8.75540  0.09029  114 
 0.750  9.000  0.06312  -0.00083  8.93697  0.09083  114 
 0.760  9.180  0.06039  -0.00110  9.11970  0.09110  113 
 0.770  9.360  0.05838  -0.00065  9.30171  0.09065  113 
 0.780  9.540  0.05690  -0.00047  9.48319  0.09047  113 
 0.790  9.720  0.05569  -0.00038  9.66440  0.09038  113 
 0.800  9.900  0.05447  -0.00038  9.84562  0.09038  113 
 0.810  10.080  0.05308  -0.00047  10.02701  0.09047  113 
 0.820  10.260  0.05187  -0.00038  10.20822  0.09038  113 
 0.830  10.440  0.05065  -0.00038  10.38943  0.09038  113 
 0.840  10.620  0.04926  -0.00038  10.57083  0.09038  113 
 0.850  10.800  0.04778  -0.00047  10.75231  0.09047  113 
 0.860  10.980  0.04648  -0.00029  10.93361  0.09029  113 
 0.870  11.160  0.04536  -0.00029  11.11473  0.09029  113 
 0.880  11.340  0.04423  -0.00029  11.29586  0.09029  113 
 0.890  11.520  0.04311  -0.00038  11.47698  0.09038  113 
 0.900  11.700  0.04207  -0.00029  11.65802  0.09029  113 
 0.910  11.880  0.04095  -0.00029  11.83914  0.09029  113 
 0.920  12.060  0.03991  -0.00021  12.02017  0.09021  113 
 0.930  12.240  0.03870  -0.00038  12.20139  0.09038  113 
 0.940  12.420  0.03749  -0.00029  12.38260  0.09029  113 
 0.950  12.600  0.03636  -0.00029  12.56373  0.09029  113 
 0.960  12.780  0.03533  -0.00021  12.74476  0.09021  113 
 0.970  12.960  0.03438  -0.00020  12.92571  0.09021  113 
 0.980  13.140  0.03353  -0.00012  13.10656  0.09012  113 
 0.990  13.320  0.03267  -0.00021  13.28742  0.09021  113 
 1.000  13.500  0.03190  -0.00003  13.46819  0.09003  113 
 1.010  13.680  0.03113  -0.00012  13.64896  0.09012  113 
 1.020  13.860  0.03054  0.00006  13.82955  0.08994  113 
 1.030  14.040  0.02977  -0.00012  14.01031  0.09012  113 
 1.040  14.220  0.02901  -0.00003  14.19108  0.09003  113 
 1.050  14.400  0.02815  -0.00021  14.37194  0.09021  113 
 1.060  14.580  0.02756  0.00006  14.55253  0.08994  113 
 1.070  14.760  0.02688  0.00006  14.73321  0.08994  113 
 1.080  14.940  0.02638  0.00006  14.91371  0.08994  114 
 1.090  15.120  0.02526  -0.00047  15.09483  0.09047  113 
 1.100  15.300  0.02422  -0.00021  15.27587  0.09021  113 
 1.110  15.480  0.02319  -0.00029  15.45690  0.09029  113 
 1.120  15.660  0.02269  0.00015  15.63740  0.08985  113 
 1.130  15.840  0.02263  0.00015  15.81746  0.08985  113 
 1.140  16.020  0.02249  0.00015  15.99760  0.08985  113 
 1.150  16.200  0.02190  -0.00012  16.17819  0.09012  113 
 1.160  16.380  0.02140  0.00006  16.35869  0.08994  113 
 1.170  16.560  0.02081  -0.00003  16.53928  0.09003  113 
 1.180  16.740  0.02030  -0.00003  16.71978  0.09003  113 
 1.190  16.920  0.01963  -0.00011  16.90046  0.09012  113 
 1.200  17.100  0.01895  -0.00012  17.08114  0.09012  113 
 1.210  17.280  0.01818  -0.00012  17.26191  0.09012  113 
 1.220  17.460  0.01741  -0.00029  17.44268  0.09029  113 
 1.230  17.640  0.01629  -0.00029  17.62380  0.09029  112 
 1.240  17.820  0.01605  0.00015  17.80404  0.08985  112 
 1.250  18.000  0.01609  0.00033  17.98400  0.08967  113 
 1.260  18.180  0.01603  0.00015  18.16406  0.08985  113 
 1.270  18.360  0.01526  -0.00021  18.34483  0.09021  113 
 1.280  18.540  0.01441  -0.00030  18.52568  0.09029  112 
 1.290  18.720  0.01382  -0.00003  18.70627  0.09003  112 
 1.300  18.900  0.01385  0.00024  18.88624  0.08976  113 
 1.310  19.080  0.01326  -0.00020  19.06683  0.09021  112 
 1.320  19.260  0.01276  -0.00003  19.24733  0.09003  112 
 1.330  19.440  0.01244  0.00006  19.42765  0.08994  112 
 1.340  19.620  0.01238  0.00006  19.60771  0.08994  113 
 1.350  19.800  0.01161  -0.00021  19.78848  0.09021  112 
 1.360  19.980  0.01129  0.00006  19.96880  0.08994  112 
 1.370  20.160  0.01141  0.00015  20.14867  0.08985  112 
 1.380  20.340  0.01136  0.00006  20.32873  0.08994  113 
 1.390  20.520  0.01059  -0.00038  20.50950  0.09038  112 
 1.400  20.700  0.01009  -0.00012  20.69000  0.09012  112 
 1.410  20.880  0.00977  -0.00021  20.87032  0.09021  112 
 1.420  21.060  0.00944  -0.00003  21.05064  0.09003  112 
 1.430  21.240  0.00948  0.00015  21.23061  0.08985  112 
 1.440  21.420  0.00925  -0.00002  21.41084  0.09003  112 
 1.450  21.600  0.00919  -0.00003  21.59090  0.09003  112 
 1.460  21.780  0.00896  -0.00003  21.77113  0.09003  112 
 1.470  21.960  0.00908  0.00015  21.95101  0.08985  113 
 1.480  22.140  0.00867  -0.00012  22.13142  0.09012  113 
 1.490  22.320  0.00826  -0.00012  22.31183  0.09012  112 
 1.500  22.500  0.00829  0.00006  22.49180  0.08994  113 
 1.510  22.680  0.00761  -0.00047  22.67248  0.09047  112 
 1.520  22.860  0.00649  -0.00038  22.85360  0.09038  112 
 1.530  23.040  0.00625  -0.00003  23.03384  0.09003  112 
 1.540  23.220  0.00628  0.00024  23.21380  0.08976  112 
 1.550  23.400  0.00721  0.00051  23.39288  0.08949  112 
 1.560  23.580  0.00760  0.00033  23.57249  0.08967  113 
 1.570  23.760  0.00701  -0.00039  23.75308  0.09038  113 
 1.580  23.940  0.00589  -0.00047  23.93420  0.09047  112 
 1.590  24.120  0.00547  -0.00012  24.11462  0.09012  112 
 1.600  24.300  0.00542  0.00015  24.29467  0.08985  112 
 1.610  24.480  0.00536  0.00006  24.47473  0.08994  112 
 1.620  24.660  0.00566  0.00033  24.65443  0.08967  112 
 1.630  24.840  0.00579  0.00024  24.83430  0.08976  112 
 1.640  25.020  0.00573  0.00015  25.01436  0.08985  112 
 1.650  25.200  0.00550  -0.00003  25.19459  0.09003  112 
 1.660  25.380  0.00544  0.00015  25.37465  0.08985  112 
 1.670  25.560  0.00492  -0.00058  25.55497  0.09038  112 
 1.680  25.737  0.00240  -0.00136  25.73449  0.08940  110 
 1.690  25.910  -0.00186  -0.00226  25.91214  0.08851  108 
 1.700  26.080  -0.00713  -0.00255  26.08721  0.08700  104 
 1.710  26.246  -0.01190  -0.00204  26.25818  0.08468  100 
 1.720  26.409  -0.01564  -0.00152  26.42453  0.08237  97 
 1.730  26.568  -0.01863  -0.00110  26.58651  0.08014  95 
 1.740  26.723  -0.02111  -0.00094  26.74439  0.07818  93 
 1.750  26.875  -0.02399  -0.00140  26.89907  0.07685  91 
 1.760  27.023  -0.02771  -0.00186  27.05098  0.07551  87 
 1.770  27.168  -0.03075  -0.00126  27.19862  0.07311  85 
 1.780  27.309  -0.03365  -0.00128  27.34253  0.07133  82 
 1.790  27.446  -0.03571  -0.00058  27.48197  0.06883  80 
 1.800  27.580  -0.03717  -0.00060  27.61724  0.06705  78 
 1.810  27.710  -0.03725  0.00027  27.74752  0.06438  78 
 1.820  27.837  -0.03594  0.00069  27.87281  0.06216  78 
 1.830  27.960  -0.03619  -0.00031  27.99605  0.06135  77 
 1.840  28.079  -0.03977  -0.00184  28.11902  0.06109  74 
 1.850  28.195  -0.04338  -0.00168  28.23844  0.05913  71 
 1.860  28.307  -0.04632  -0.00134  28.35358  0.05699  68 
 1.870  28.416  -0.04877  -0.00100  28.46462  0.05485  65 
 1.880  28.521  -0.05098  -0.00094  28.57183  0.05298  63 
 1.890  28.622  -0.05368  -0.00149  28.67593  0.05174  60 
 1.900  28.720  -0.05615  -0.00124  28.77620  0.04969  57 
 1.910  28.814  -0.05893  -0.00144  28.87317  0.04809  54 
 1.920  28.905  -0.06112  -0.00101  28.96596  0.04586  51 
 1.930  28.992  -0.06210  -0.00023  29.05394  0.04328  50 
 1.950  29.155  -0.05438  0.00258  29.20942  0.03687  53 
 1.960  29.231  -0.04889  0.00301  29.28012  0.03464  56 
 1.970  29.304  -0.04343  0.00308  29.34727  0.03277  59 
 1.980  29.373  -0.03819  0.00270  29.41103  0.03134  62 
 1.990  29.438  -0.03219  0.00322  29.47042  0.02903  65 
 2.000  29.500  -0.02427  0.00436  29.52430  0.02609  70 
 2.010  29.558  -0.01647  0.00345  29.57470  0.02520  75 
 2.020  29.613  -0.01343  0.00076  29.62626  0.02609  4 
 2.185  30.000  -0.09189  0.00000  30.09189  0.00000  2 
 2.195  30.000  -0.09189  0.00000  30.09189  0.00000  0 
 2.205  30.000  -0.09189  0.00000  30.09189  0.00000  1 
 2.215  30.000  -0.09189  0.00000  30.09189  0.00000  2 
 2.225  30.000  -0.09189  0.00000  30.09189  0.00000  4 
 2.235  30.000  -0.09189  0.00000  30.09189  0.00000  6 
 2.245  30.000  -0.09189  0.00000  30.09189  0.00000  7 
 2.255  30.000  -0.08423  0.00579  30.08423  -0.00579  4 
 2.265  30.000  -0.07827  0.00134  30.07826  -0.00134  1 
 2.275  30.000  -0.07791  0.00000  30.07791  0.00000  2 
 2.285  30.000  -0.07791  0.00000  30.07791  0.00000  4 
 2.295  30.000  -0.07791  0.00000  30.07791  0.00000  5 
 2.305  30.000  -0.07791  0.00000  30.07791  0.00000  6 
 2.315  30.000  -0.07640  0.00151  30.07640  -0.00151  7 
 2.325  30.000  -0.06589  0.00525  30.06589  -0.00525  1 
 2.335  30.000  -0.06330  0.00062  30.06330  -0.00062  0 
 2.345  30.000  -0.06322  0.00000  30.06322  0.00000  1 
 2.355  30.000  -0.06322  0.00000  30.06322  0.00000  2 
 2.365  30.000  -0.06322  0.00000  30.06322  0.00000  4 
 2.375  30.000  -0.06322  0.00000  30.06322  0.00000  5 
 2.385  30.000  -0.06322  0.00000  30.06322  0.00000  6 
 2.395  30.000  -0.06161  0.00160  30.06161  -0.00160  6 
 2.405  30.000  -0.05725  0.00125  30.05725  -0.00125  4 
 2.415  30.000  -0.05680  0.00000  30.05680  0.00000  5 
 2.425  30.000  -0.05680  0.00000  30.05680  0.00000  6 
 2.435  30.000  -0.05680  0.00000  30.05680  0.00000  7 
 2.445  30.000  -0.05119  0.00427  30.05119  -0.00427  4 
 2.455  30.000  -0.04434  0.00240  30.04434  -0.00240  0 
 2.465  30.000  -0.04247  0.00062  30.04247  -0.00062  0 
 2.475  30.000  -0.04229  0.00000  30.04229  0.00000  0 
 2.485  30.000  -0.04229  0.00000  30.04229  0.00000  1 
 2.495  30.000  -0.04229  0.00000  30.04229  0.00000  2 
 2.505  30.000  -0.04229  0.00000  30.04229  0.00000  3 
 2.515  30.000  -0.04229  0.00000  30.04229  0.00000  3 
 2.525  30.000  -0.04229  0.00000  30.04229  0.00000  4 
 2.535  30.000  -0.04229  0.00000  30.04229  0.00000  5 
 2.545  30.000  -0.04229  0.00000  30.04229  0.00000  6 
 2.555  30.000  -0.04229  0.00000  30.04229  0.00000  7 
 2.565  30.000  -0.03775  0.00312  30.03775  -0.00312  4 
 2.575  30.000  -0.03436  0.00125  30.03436  -0.00125  2 
 2.585  30.000  -0.03330  0.00036  30.03329  -0.00036  2 
 2.595  30.000  -0.03321  0.00000  30.03321  0.00000  3 
 2.605  30.000  -0.03321  0.00000  30.03321  0.00000  3 
 2.615  30.000  -0.03321  0.00000  30.03321  0.00000  4 
 2.625  30.000  -0.03321  0.00000  30.03321  0.00000  5 
 2.635  30.000  -0.03321  0.00000  30.03321  0.00000  5 
 2.645  30.000  -0.03321  0.00000  30.03321  0.00000  6 
 2.655  30.000  -0.03321  0.00000  30.03321  0.00000  7 
 2.665  30.000  -0.02840  0.00329  30.02840  -0.00329  4 
 2.675  30.000  -0.02573  0.00080  30.02573  -0.00080  2 
 2.685  30.000  -0.02564  0.00000  30.02564  0.00000  3 
 2.695  30.000  -0.02564  0.00000  30.02564  0.00000  3 
 2.705  30.000  -0.02564  0.00000  30.02564  0.00000  4 
 2.715  30.000  -0.02564  0.00000  30.02564  0.00000  4 
 2.725  30.000  -0.02564  0.00000  30.02564  0.00000  5 
 2.735  30.000  -0.02564  0.00000  30.02564  0.00000  5 
 2.745  30.000  -0.02564  0.00000  30.02564  0.00000  6 
 2.755  30.000  -0.02564  0.00000  30.02564  0.00000  6 
 2.765  30.000  -0.02564  0.00000  30.02564  0.00000  7 
 2.775  30.000  -0.02101  0.00294  30.02101  -0.00294  4 
 2.785  30.000  -0.01994  0.00009  30.01994  -0.00009  3 
 2.795  30.000  -0.01994  0.00000  30.01994  0.00000  4 
 2.805  30.000  -0.01985  0.00000  30.01985  0.00000  4 
 2.815  30.000  -0.01985  0.00000  30.01985  0.00000  4 
 2.825  30.000  -0.01985  0.00000  30.01985  0.00000  5 
 2.835  30.000  -0.01985  0.00000  30.01985  0.00000  5 
 2.845  30.000  -0.01985  0.00000  30.01985  0.00000  6 
 2.855  30.000  -0.01985  0.00000  30.01985  0.00000  6 
 2.865  30.000  -0.01985  0.00000  30.01985  0.00000  6 
 2.875  30.000  -0.01985  0.00000  30.01985  0.00000  7 
 2.885  30.000  -0.01522  0.00294  30.01522  -0.00294  4 
 2.895  30.000  -0.01397  0.00018  30.01397  -0.00018  3 
 2.905  30.000  -0.01388  0.00000  30.01388  0.00000  3 
 2.915  30.000  -0.01388  0.00000  30.01388  0.00000  4 
 2.925  30.000  -0.01388  0.00000  30.01388  0.00000  4 
 2.935  30.000  -0.01388  0.00000  30.01388  0.00000  4 
 2.945  30.000  -0.01388  0.00000  30.01388  0.00000  4 
 2.955  30.000  -0.01388  0.00000  30.01388  0.00000  5 
 2.965  30.000  -0.01388  0.00000  30.01388  0.00000  5 
 2.975  30.000  -0.01388  0.00000  30.01388  0.00000  5 
 2.985  30.000  -0.01388  0.00000  30.01388  0.00000  5 
 2.995  30.000  -0.01388  0.00000  30.01388  0.00000  6 