
0.02 0 75 0 75 0 75 376 1 
0.04 9 293 9 218 9 143 548 1 
0.06 94 587 85 294 76 76 720 1 
0.08 293 918 199 331 114 37 892 1 
0.10 515 1377 222 459 23 128 1064 1 
0.12 753 1971 238 594 16 135 1236 1 
0.14 1085 2624 332 653 94 59 1408 1 
0.16 1491 3353 406 729 74 76 1580 1 
0.18 2155 3976 664 623 258 -106 1752 1 
0.20 3274 4295 1119 319 455 -304 1924 1 
0.22 4944 4214 1670 -81 551 -400 2096 1 
0.24 7268 3631 2324 -583 654 -502 1924 1 
0.26 10032 2741 2764 -890 440 -307 1752 1 
0.28 12942 1723 2910 -1018 146 -128 1580 1 
0.30 15871 687 2929 -1036 19 -18 1408 1 
0.32 18583 -133 2712 -820 -217 216 1236 1 
0.34 20892 -550 2309 -417 -403 403 1064 1 
0.36 22655 -420 1763 130 -546 547 1236 1 
0.38 24046 81 1391 501 -372 371 1408 1 
0.40 25361 658 1315 577 -76 76 1580 1 
0.42 26730 1182 1369 524 54 -53 1752 1 
0.44 28287 1517 1557 335 188 -189 1924 1 
0.46 30297 1399 2010 -118 453 -453 1752 1 
0.48 32650 939 2353 -460 343 -342 1580 1 
0.50 35022 459 2372 -480 19 -20 1408 1 
0.52 37229 144 2207 -315 -165 165 1236 1 
0.54 39141 125 1912 -19 -295 296 1069 1 
0.56 40603 555 1462 430 -450 449 1241 1 
0.58 41734 1317 1131 762 -331 332 1413 1 
0.60 42752 2191 1018 874 -113 112 1585 1 
0.62 43894 2941 1142 750 124 -124 1757 1 
0.64 45372 3356 1478 415 336 -335 1929 1 
0.66 47322 3298 1950 -58 472 -473 2101 1 
0.68 49858 2654 2536 -644 586 -586 1929 1 
0.70 52751 1654 2893 -1000 357 -356 1757 1 
0.72 55686 611 2935 -1043 42 -43 1585 1 
0.74 58529 -340 2843 -951 -92 92 1413 1 
0.76 61129 -1047 2600 -707 -243 244 1241 1 
0.78 63296 -1322 2167 -275 -433 432 1069 1 
0.80 64885 -1019 1589 303 -578 578 1241 1 
0.82 66062 -303 1177 716 -412 413 1413 1 
0.84 67166 485 1104 788 -73 72 1585 1 
0.86 68332 1212 1166 727 62 -61 1757 1 
0.88 69727 1709 1395 497 229 -230 1929 1 
0.90 71528 1800 1801 91 406 -406 2101 1 
0.92 73971 1250 2443 -550 642 -641 1929 1 
0.94 76783 330 2812 -920 369 -370 1757 1 
0.96 79614 -609 2831 -939 19 -19 1585 1 
0.98 82420 -1522 2806 -913 -25 26 1413 1 
1.00 85092 -2302 2672 -780 -134 133 1241 1 
1.02 87439 -2757 2347 -455 -325 325 1069 1 
1.04 89261 -2686 1822 71 -525 526 897 1 
1.06 90430 -1963 1169 723 -653 652 1069 1 
1.08 91208 -849 778 1114 -391 391 1241 1 
1.10 91892 360 684 1209 -94 95 1413 1 
1.12 92550 1594 658 1234 -26 25 1585 1 
1.14 93360 2676 810 1082 152 -152 1757 1 
1.16 94647 3282 1287 606 477 -476 1929 1 
1.18 96586 3235 1939 -47 652 -653 2101 1 
1.20 99174 2540 2588 -695 649 -648 1929 1 
1.22 102108 1498 2934 -1042 346 -347 1757 1 
1.24 105193 305 3085 -1193 151 -151 1585 1 
1.26 108350 -959 3157 -1264 72 -71 1413 1 
1.28 111435 -2152 3085 -1193 -72 71 1241 1 
1.30 114103 -2928 2668 -776 -417 417 1069 1 
1.32 116242 -3174 2139 -246 -529 530 897 1 
1.34 117919 -2959 1677 215 -462 461 1069 1 
1.36 119282 -2430 1363 529 -314 314 1241 1 
1.38 120413 -1668 1131 762 -232 233 1413 1 
1.40 121404 -767 991 901 -140 139 1585 1 
1.42 122576 -47 1172 720 181 -181 1757 1 
1.44 124261 161 1685 208 513 -512 1929 1 
1.46 126542 -228 2281 -389 596 -597 1757 1 
1.48 129166 -959 2624 -731 343 -342 1585 1 
1.50 131855 -1756 2689 -797 65 -66 1413 1 
1.52 134613 -2622 2758 -866 69 -69 1241 1 
1.54 137263 -3379 2650 -757 -108 109 1069 1 
1.56 139512 -3736 2249 -357 -401 400 897 1 
1.58 141186 -3518 1674 218 -575 575 1069 1 
1.60 142572 -3011 1386 507 -288 289 1241 1 
1.62 143978 -2525 1406 486 20 -21 1413 1 
1.64 145459 -2114 1481 411 75 -75 1585 1 
1.66 147117 -1879 1658 235 177 -176 1757 1 
1.68 149266 -2136 2149 -257 491 -492 1585 1 
1.70 151889 -2867 2623 -731 474 -474 1413 1 
1.72 154645 -3730 2756 -863 133 -132 1241 1 
1.74 157256 -4449 2611 -719 -145 144 1069 1 
1.76 159579 -4880 2323 -431 -288 288 897 1 
1.78 161616 -5024 2037 -144 -286 287 725 1 
1.80 163251 -4767 1635 257 -402 401 897 1 
1.82 164377 -4000 1126 767 -509 510 1069 1 
1.84 165317 -3048 940 952 -186 185 1241 1 
1.86 166368 -2207 1051 841 111 -111 1413 1 
1.88 167719 -1665 1351 542 300 -299 1585 1 
1.90 169517 -1571 1798 94 447 -448 1757 1 
1.92 171896 -2058 2379 -487 581 -581 1585 1 
1.94 174704 -2973 2808 -915 429 -428 1413 1 
1.96 177756 -4133 3052 -1160 244 -245 1241 1 
1.98 180818 -5303 3062 -1170 10 -10 1069 1 
2.00 183699 -6291 2881 -988 -181 182 897 1 
2.02 186291 -6991 2592 -700 -289 288 725 1 
2.04 188545 -7353 2254 -362 -338 338 553 1 
2.06 190308 -7223 1763 130 -491 492 381 1 
2.08 191523 -6546 1215 677 -548 547 553 1 
2.10 192297 -5427 774 1119 -441 442 725 1 
2.12 192843 -4081 546 1346 -228 227 897 1 
2.14 193296 -2642 453 1439 -93 93 1069 1 
2.16 193824 -1277 528 1365 75 -74 1241 1 
2.18 194664 -225 840 1052 312 -313 1413 1 
2.20 196009 322 1345 547 505 -505 1585 1 
2.22 197990 234 1981 -88 636 -635 1413 1 
2.24 200395 -279 2405 -513 424 -425 1241 1 
2.26 203003 -995 2608 -716 203 -203 1069 1 
2.28 205686 -1785 2683 -790 75 -74 897 1 
2.30 208306 -2513 2620 -728 -63 62 725 1 
2.32 210665 -2980 2359 -467 -261 261 553 1 
2.34 212694 -3116 2029 -136 -330 331 381 1 
2.36 214320 -2850 1626 266 -403 402 553 1 
2.38 215662 -2300 1342 550 -284 284 725 1 
2.40 216895 -1640 1233 660 -109 110 897 1 
2.42 218105 -958 1210 682 -23 22 1069 1 
2.44 219474 -434 1369 524 159 -158 1241 1 
2.46 221233 -301 1759 133 390 -391 1413 1 
2.48 223510 -686 2277 -385 518 -518 1241 1 
2.50 226127 -1410 2617 -724 340 -339 1069 1 
2.52 228927 -2394 2800 -984 183 -260 897 1 
2.54 231751 -3553 2824 -1159 24 -175 725 1 
2.56 234504 -4792 2753 -1239 -71 -80 553 1 
2.58 237071 -5996 2567 -1204 -186 35 381 1 
2.60 239334 -7048 2263 -1052 -304 152 209 1 
2.62 241258 -7912 1924 -864 -339 188 37 1 
2.64 242820 -8566 1562 -654 -362 210 135 0 
2.66 243935 -8924 1115 -358 -447 296 307 0 
2.68 244470 -8854 535 70 -580 428 479 0 
2.70 244451 -8381 -19 473 -554 403 307 0 
2.72 244256 -7883 -195 498 -176 25 135 0 
2.74 244070 -7545 -186 338 9 -160 307 0 
2.76 243811 -7267 -259 278 -73 -60 479 0 
2.78 243222 -6678 -589 589 -330 311 307 0 
2.80 242387 -5843 -835 835 -246 246 135 0 
2.82 241549 -5005 -838 838 -3 3 37 1 
2.84 240807 -4263 -742 742 96 -96 209 1 
2.86 240211 -3667 -596 596 146 -146 381 1 
2.88 239889 -3345 -322 322 274 -274 553 1 
2.90 239875 -3331 -14 14 308 -308 381 1 
2.92 239875 -3331 0 0 14 -14 209 1 
2.94 239875 -3331 0 0 0 0 37 1 
2.96 239875 -3331 0 0 0 0 135 0 
2.98 239843 -3299 -32 32 -32 32 307 0 
3.00 239701 -3157 -142 142 -110 110 479 0 
3.02 239327 -2783 -374 374 -232 232 307 0 
3.04 238755 -2211 -572 572 -198 198 135 0 
3.06 238089 -1545 -666 666 -94 94 37 1 
3.08 237447 -903 -642 642 24 -24 209 1 
3.10 236922 -378 -525 525 117 -117 381 1 
3.12 236660 -116 -262 262 263 -263 553 1 
3.14 236665 -121 5 -5 267 -267 408 1 
3.16 236666 -122 1 -1 -4 4 315 1 
3.18 236666 -122 0 0 -1 1 235 1 
3.20 236666 -122 0 0 0 0 155 1 
3.22 236666 -122 0 0 0 0 75 1 
3.24 236666 -122 0 0 0 0 5 0 
3.26 236666 -122 0 0 0 0 85 0 
3.28 236666 -122 0 0 0 0 165 0 
3.30 236642 -98 -24 24 -24 24 7 1 
3.32 236628 -84 -14 14 10 -10 135 1 
3.34 236628 -84 0 0 14 -14 80 1 
3.36 236628 -84 0 0 0 0 25 1 
3.38 236628 -84 0 0 0 0 30 0 
3.40 236628 -84 0 0 0 0 85 0 
3.42 236628 -84 0 0 0 0 140 0 
3.44 236628 -84 0 0 0 0 195 0 
3.46 236600 -56 -28 28 -28 28 23 0 
3.48 236573 -29 -27 27 1 -1 149 1 
3.50 236573 -29 0 0 27 -27 130 1 
3.52 236573 -29 0 0 0 0 111 1 
3.54 236573 -29 0 0 0 0 92 1 
3.56 236573 -29 0 0 0 0 73 1 
3.58 236573 -29 0 0 0 0 54 1 
3.60 236573 -29 0 0 0 0 35 1 
3.62 236573 -29 0 0 0 0 16 1 
3.64 236573 -29 0 0 0 0 3 0 
3.66 236573 -29 0 0 0 0 22 0 
3.68 236573 -29 0 0 0 0 41 0 
3.70 236573 -29 0 0 0 0 60 0 
3.72 236573 -29 0 0 0 0 79 0 
3.74 236573 -29 0 0 0 0 98 0 
3.76 236573 -29 0 0 0 0 117 0 
3.78 236573 -29 0 0 0 0 136 0 
3.80 236573 -29 0 0 0 0 155 0 
3.82 236572 -28 -1 1 -1 1 160 0 
3.84 236570 -26 -2 2 -1 1 151 0 
3.86 236569 -25 -1 1 1 -1 154 0 
3.88 236569 -25 0 0 1 -1 170 0 
3.90 236567 -23 -2 2 -2 2 159 0 
3.92 236562 -18 -5 5 -3 3 105 0 
3.94 236562 -18 0 0 5 -5 117 0 
3.96 236562 -18 0 0 0 0 129 0 
3.98 236562 -18 0 0 0 0 141 0 