
0.02 0 -75 0 -75 0 -75 618 0 -76.725 
0.04 -89 -213 -89 -138 -89 -63 626 0 -143.649 
0.06 -286 -395 -197 -182 -108 -44 637 0 -193.215 
0.08 -593 -618 -307 -223 -110 -41 650 0 -241.164 
0.10 -994 -898 -401 -280 -94 -57 667 0 -306.834 
0.12 -1465 -1259 -471 -361 -70 -81 689 0 -398.937 
0.14 -2032 -1677 -567 -418 -96 -57 715 0 -469.161 
0.16 -2697 -2147 -665 -470 -98 -52 744 0 -536.151 
0.18 -3480 -2651 -783 -504 -118 -34 776 0 -586.443 
0.20 -4391 -3178 -911 -527 -128 -23 810 0 -626.604 
0.22 -5474 -3684 -1083 -506 -172 21 844 0 -622.512 
0.24 -6785 -4114 -1311 -430 -228 76 875 0 -561.462 
0.26 -8367 -4406 -1582 -292 -271 138 899 0 -434.478 
0.28 -10208 -4457 -1841 -51 -259 241 910 0 -197.571 
0.30 -12281 -4277 -2073 180 -232 231 908 0 37.059 
0.32 -14568 -3882 -2287 395 -214 215 894 0 262.944 
0.34 -17018 -3324 -2450 558 -163 163 870 0 442.728 
0.36 -19574 -2661 -2556 663 -106 105 839 0 568.557 
0.38 -22180 -1947 -2606 714 -50 51 804 0 642.609 
0.40 -24785 -1234 -2605 713 1 -1 768 0 665.148 
0.42 -27354 -558 -2569 676 36 -37 733 0 650.826 
0.44 -29854 50 -2500 608 69 -68 700 0 603.570 
0.46 -32263 567 -2409 517 91 -91 671 0 530.541 
0.48 -34573 984 -2310 417 99 -100 647 0 445.302 
0.50 -36743 1262 -2170 278 140 -139 630 0 316.866 
0.52 -38765 1392 -2022 130 148 -148 620 0 174.636 
0.54 -40630 1364 -1865 -28 157 -158 619 0 17.292 
0.56 -42376 1218 -1746 -146 119 -118 625 0 -104.346 
0.58 -44013 962 -1637 -256 109 -110 637 0 -221.694 
0.60 -45528 585 -1515 -377 122 -121 656 0 -353.925 
0.62 -46960 125 -1432 -460 83 -83 681 0 -451.275 
0.64 -48306 -422 -1346 -547 86 -87 711 0 -555.456 
0.66 -49629 -991 -1323 -569 23 -22 743 0 -596.013 
0.68 -51017 -1495 -1388 -504 -65 65 773 0 -548.295 
0.70 -52469 -1936 -1452 -441 -64 63 800 0 -500.478 
0.72 -54030 -2267 -1561 -331 -109 110 822 0 -402.501 
0.74 -55714 -2475 -1684 -208 -123 123 838 0 -287.595 
0.76 -57539 -2543 -1825 -68 -141 140 846 0 -151.239 
0.78 -59497 -2477 -1958 66 -133 134 847 0 -16.401 
0.80 -61531 -2335 -2034 142 -76 76 844 0 63.525 
0.82 -63640 -2119 -2109 216 -75 74 836 0 143.913 
0.84 -65826 -1825 -2186 294 -77 78 823 0 230.835 
0.86 -68056 -1488 -2230 337 -44 43 807 0 284.526 
0.88 -70290 -1146 -2234 342 -4 5 791 0 300.762 
0.90 -72526 -802 -2236 344 -2 2 774 0 314.094 
0.92 -74768 -453 -2242 349 -6 5 756 0 330.561 
0.94 -76983 -130 -2215 323 27 -26 739 0 315.480 
0.96 -79159 154 -2176 284 39 -39 723 0 286.242 
0.98 -81285 387 -2126 233 50 -51 710 0 243.441 
1.00 -83350 560 -2065 173 61 -60 700 0 189.750 
1.02 -85341 659 -1991 99 74 -74 693 0 119.757 
1.04 -87266 691 -1925 32 66 -67 690 0 54.483 
1.06 -89115 648 -1849 -43 76 -75 691 0 -21.186 
1.08 -90891 532 -1776 -116 73 -73 696 0 -97.284 
1.10 -92593 341 -1702 -191 74 -75 706 0 -177.837 
1.12 -94250 106 -1657 -235 45 -44 718 0 -229.152 
1.14 -95897 -139 -1647 -245 10 -10 731 0 -247.137 
1.16 -97546 -383 -1649 -244 -2 1 745 0 -254.199 
1.18 -99221 -600 -1675 -217 -26 27 758 0 -234.630 
1.20 -100923 -791 -1702 -191 -27 26 770 0 -215.193 
1.22 -102677 -929 -1754 -138 -52 53 779 0 -167.277 
1.24 -104485 -1013 -1808 -84 -54 54 785 0 -116.589 
1.26 -106340 -1051 -1855 -38 -47 46 789 0 -72.303 
1.28 -108256 -1027 -1916 24 -61 62 790 0 -10.131 
1.30 -110201 -974 -1945 53 -29 29 789 0 20.328 
1.32 -112171 -897 -1970 77 -25 24 786 0 46.629 
1.34 -114164 -796 -1993 101 -23 24 782 0 73.722 
1.36 -116193 -659 -2029 137 -36 36 776 0 113.883 
1.38 -118249 -496 -2056 163 -27 26 768 0 145.002 
1.40 -120336 -301 -2087 195 -31 32 758 0 183.117 
1.42 -122434 -95 -2098 206 -11 11 747 0 200.805 
1.44 -124538 116 -2104 211 -6 5 735 0 212.718 
1.46 -126608 294 -2070 178 34 -33 725 0 185.922 
1.48 -128656 449 -2048 155 22 -23 716 0 168.267 
1.50 -130663 564 -2007 115 41 -40 709 0 132.462 
1.52 -132623 632 -1960 68 47 -47 704 0 88.176 
1.54 -134512 628 -1889 -4 71 -72 703 0 16.764 
1.56 -136359 583 -1847 -45 42 -41 704 0 -25.311 
1.58 -138178 510 -1819 -73 28 -28 707 0 -55.440 
1.60 -139988 427 -1810 -83 9 -10 711 0 -68.079 
1.62 -141789 336 -1801 -91 9 -8 715 0 -79.002 
1.64 -143590 245 -1801 -91 0 0 719 0 -82.005 
1.66 -145396 158 -1806 -87 -5 4 723 0 -80.916 
1.68 -147193 63 -1797 -95 9 -8 728 0 -91.971 
1.70 -149011 -11 -1818 -74 -21 21 732 0 -73.623 
1.72 -150849 -66 -1838 -55 -20 19 735 0 -56.628 
1.74 -152714 -93 -1865 -27 -27 28 737 0 -29.799 
1.76 -154589 -110 -1875 -17 -10 10 738 0 -20.460 
1.78 -156488 -104 -1899 6 -24 23 738 0 2.508 
1.80 -158421 -63 -1933 41 -34 35 736 0 38.511 
1.82 -160379 2 -1958 65 -25 24 732 0 64.416 
1.84 -162364 95 -1985 93 -27 28 727 0 95.205 
1.86 -164369 208 -2005 113 -20 20 721 0 118.734 
1.88 -166391 337 -2022 129 -17 16 713 0 138.831 
1.90 -168406 460 -2015 123 7 -6 706 0 136.950 
1.92 -170434 596 -2028 136 -13 13 698 0 154.308 
1.94 -172472 741 -2038 145 -10 9 689 0 168.003 
1.96 -174501 878 -2029 137 9 -8 680 0 164.604 
1.98 -176496 981 -1995 103 34 -34 673 0 134.343 
2.00 -178456 1048 -1960 67 35 -36 667 0 100.914 
2.02 -180383 1083 -1927 35 33 -32 663 0 70.389 
2.04 -182304 1112 -1921 29 6 -6 659 0 65.406 
2.06 -184204 1119 -1900 7 21 -22 657 0 43.857 
2.08 -186091 1114 -1887 -5 13 -12 655 0 31.812 
2.10 -187961 1091 -1870 -23 17 -18 654 0 13.233 
2.12 -189835 1073 -1874 -18 -4 5 653 0 17.589 
2.14 -191680 1026 -1845 -47 29 -29 654 0 -12.672 
2.16 -193502 955 -1822 -71 23 -24 656 0 -38.775 
2.18 -195308 869 -1806 -86 16 -15 659 0 -56.463 
2.20 -197108 777 -1800 -92 6 -6 663 0 -65.439 
2.22 -198901 677 -1793 -100 7 -8 667 0 -76.659 
2.24 -200685 569 -1784 -108 9 -8 672 0 -88.143 
2.26 -202501 493 -1816 -76 -32 32 675 0 -58.971 
2.28 -204349 448 -1848 -45 -32 31 677 0 -29.766 
2.30 -206248 455 -1899 7 -51 52 676 0 21.945 
2.32 -208191 506 -1943 51 -44 44 672 0 67.188 
2.34 -210183 605 -1992 99 -49 48 666 0 117.975 
2.36 -212207 737 -2024 132 -32 33 658 0 155.001 
2.38 -214263 901 -2056 164 -32 32 648 0 192.093 
2.40 -216334 1079 -2071 178 -15 14 636 0 211.827 
2.42 -218410 1263 -2076 184 -5 6 624 0 223.839 
2.44 -220466 1426 -2056 163 20 -21 613 0 208.428 
2.46 -222505 1573 -2039 147 17 -16 602 0 197.439 
2.48 -224521 1697 -2016 124 23 -23 592 0 178.761 
2.50 -226534 1817 -2013 120 3 -4 582 0 178.761 
2.52 -228523 1990 -1989 173 24 53 569 0 236.940 
2.54 -230487 2289 -1964 299 25 126 549 0 371.547 
2.56 -232403 2691 -1916 402 48 103 522 0 486.783 
2.58 -234252 3177 -1849 486 67 84 490 0 585.981 
2.60 -236011 3725 -1759 548 90 62 454 0 665.445 
2.62 -237674 4328 -1663 603 96 55 414 0 739.794 
2.64 -239203 4949 -1529 621 134 18 372 0 778.107 
2.66 -240552 5541 -1349 592 180 -29 330 0 768.933 
2.68 -241705 6089 -1153 548 196 -44 289 0 743.457 
2.70 -242658 6588 -953 499 200 -49 250 0 711.414 
2.72 -243384 7011 -726 423 227 -76 215 0 650.133 
2.74 -243864 7339 -480 328 246 -95 184 0 566.907 
2.76 -244075 7531 -211 192 269 -136 160 0 438.603 
2.78 -244088 7544 -13 13 198 -179 146 0 261.822 
2.80 -244088 7544 0 0 13 -13 132 0 248.952 
2.82 -244088 7544 0 0 0 0 118 0 248.952 
2.84 -244088 7544 0 0 0 0 104 0 248.952 
2.86 -244088 7544 0 0 0 0 90 0 248.952 
2.88 -244088 7544 0 0 0 0 76 0 248.952 
2.90 -244088 7544 0 0 0 0 62 0 248.952 
2.92 -244088 7544 0 0 0 0 48 0 248.952 
2.94 -244088 7544 0 0 0 0 34 0 248.952 
2.96 -244088 7544 0 0 0 0 20 0 248.952 
2.98 -244088 7544 0 0 0 0 6 0 248.952 
3.00 -244088 7544 0 0 0 0 8 1 248.952 
3.02 -244088 7544 0 0 0 0 22 1 248.952 
3.04 -244088 7544 0 0 0 0 36 1 248.952 
3.06 -244088 7544 0 0 0 0 50 1 248.952 
3.08 -244088 7544 0 0 0 0 64 1 248.952 
3.10 -244088 7544 0 0 0 0 78 1 248.952 
3.12 -244088 7544 0 0 0 0 92 1 248.952 
3.14 -244088 7544 0 0 0 0 106 1 248.952 
3.16 -244088 7544 0 0 0 0 120 1 248.952 
3.18 -244088 7544 0 0 0 0 134 1 248.952 
3.20 -244088 7544 0 0 0 0 148 1 248.952 
3.22 -244088 7544 0 0 0 0 162 1 248.952 
3.24 -244088 7544 0 0 0 0 176 1 248.952 
3.26 -244081 7537 7 -7 7 -7 189 1 241.791 
3.28 -244065 7521 16 -16 9 -9 202 1 232.353 
3.30 -244052 7508 13 -13 -3 3 215 1 234.894 
3.32 -244036 7492 16 -16 3 -3 228 1 231.396 
3.34 -244010 7466 26 -26 10 -10 240 1 220.638 
3.36 -243965 7421 45 -45 19 -19 251 1 200.343 
3.38 -243899 7355 66 -66 21 -21 261 1 177.375 
3.40 -243786 7242 113 -113 47 -47 268 1 127.116 
3.42 -243623 7079 163 -163 50 -50 272 1 72.237 
3.44 -243407 6863 216 -216 53 -53 273 1 12.639 
3.46 -243144 6600 263 -263 47 -47 271 1 -42.570 
3.48 -242857 6313 287 -287 24 -24 267 1 -75.801 
3.50 -242559 6015 298 -298 11 -11 262 1 -96.525 
3.52 -242266 5722 293 -293 -5 5 256 1 -101.244 
3.54 -242019 5475 247 -247 -46 46 253 1 -63.855 
3.56 -241819 5275 200 -200 -47 47 252 1 -23.925 
3.58 -241650 5106 169 -169 -31 31 252 1 1.188 
3.60 -241511 4967 139 -139 -30 30 253 1 26.301 
3.62 -241376 4832 135 -135 -4 4 254 1 25.806 
3.64 -241248 4704 128 -128 -7 7 256 1 28.512 
3.66 -241134 4590 114 -114 -14 14 258 1 38.610 
3.68 -241021 4477 113 -113 -1 1 260 1 35.871 
3.70 -240915 4371 106 -106 -7 7 262 1 39.303 
3.72 -240820 4276 95 -95 -11 11 265 1 47.058 
3.74 -240725 4181 95 -95 0 0 267 1 43.923 
3.76 -240602 4058 123 -123 28 -28 268 1 12.144 
3.78 -240469 3925 133 -133 10 -10 268 1 -2.145 
3.80 -240326 3782 143 -143 10 -10 267 1 -16.764 
3.82 -240159 3615 167 -167 24 -24 264 1 -46.035 
3.84 -239974 3430 185 -185 18 -18 260 1 -69.960 
3.86 -239765 3221 209 -209 24 -24 255 1 -100.617 
3.88 -239536 2992 229 -229 20 -20 248 1 -127.974 
3.90 -239283 2739 253 -253 24 -24 239 1 -160.083 
3.92 -239011 2467 272 -272 19 -19 229 1 -187.869 
3.94 -238746 2202 265 -265 -7 7 219 1 -189.684 
3.96 -238484 1940 262 -262 -3 3 208 1 -195.360 
3.98 -238236 1692 248 -248 -14 14 198 1 -189.684 