0.01 0 0 0 0 0 0 11468 
0.01 0 0 0 0 0 0 11468 
0.02 0 1 0 1 0 1 13565 
0.03 0 1 0 0 0 -1 13586 
0.03 0 2 0 1 0 1 15683 
0.04 0 3 0 1 0 0 17780 
0.04 1 3 1 0 1 -1 17843 
0.04 1 4 0 1 -1 1 19940 
0.05 2 5 1 1 1 0 22037 
0.06 2 6 0 1 -1 0 24134 
0.06 3 7 1 1 1 0 26231 
0.07 4 8 1 1 0 0 28328 
0.07 6 8 2 0 1 -1 28495 
0.07 7 9 1 1 -1 1 30592 
0.08 9 9 2 0 1 -1 30780 
0.09 11 9 2 0 0 0 30968 
0.09 13 10 2 1 0 1 33065 
0.10 16 10 3 0 1 -1 33274 
0.10 18 10 2 0 -1 0 33483 
0.10 21 10 3 0 1 0 33692 
0.11 24 10 3 0 0 0 33901 
0.12 28 10 4 0 1 0 34110 
0.12 31 10 3 0 -1 0 34319 
0.12 35 10 4 0 1 0 34528 
0.13 39 9 4 -1 0 -1 32431 
0.14 43 9 4 0 0 1 32619 
0.14 47 9 4 0 0 0 32807 
0.14 52 8 5 -1 1 -1 30710 
0.15 56 9 4 1 -1 2 32807 
0.15 61 8 5 -1 1 -2 30710 
0.16 66 7 5 -1 0 0 28613 
0.17 71 7 5 0 0 1 28759 
0.17 76 7 5 0 0 0 28905 
0.18 81 7 5 0 0 0 29051 
0.18 87 6 6 -1 1 -1 26954 
0.18 92 6 5 0 -1 1 27079 
0.19 98 6 6 0 1 0 27204 
0.20 103 6 5 0 -1 0 27329 
0.20 109 6 6 0 1 0 27454 
0.21 115 6 6 0 0 0 27579 
0.21 121 6 6 0 0 0 27704 
0.21 127 6 6 0 0 0 27829 
0.22 133 6 6 0 0 0 27954 
0.23 139 7 6 1 0 1 30051 
0.23 146 6 7 -1 1 -2 27954 
0.24 152 7 6 1 -1 2 30051 
0.24 158 8 6 1 0 0 32148 
0.24 165 8 7 0 1 -1 32315 
0.25 172 8 7 0 0 0 32482 
0.26 179 8 7 0 0 0 32649 
0.26 186 9 7 1 0 1 34746 
0.27 193 9 7 0 0 -1 34934 
0.27 200 9 7 0 0 0 35122 
0.28 208 8 8 -1 1 -1 33025 
0.28 215 8 7 0 -1 1 33192 
0.29 223 8 8 0 1 0 33359 
0.29 231 7 8 -1 0 -1 31262 
0.29 238 7 7 0 -1 1 31408 
0.30 246 6 8 -1 1 -1 29311 
0.30 254 6 8 0 0 1 29436 
0.31 262 5 8 -1 0 -1 27339 
0.32 270 4 8 -1 0 0 25242 
0.32 278 3 8 -1 0 0 23145 
0.33 286 2 8 -1 0 0 21048 
0.33 294 2 8 0 0 1 21090 
0.34 302 1 8 -1 0 -1 18993 
0.34 311 -1 9 -2 1 -1 16896 
0.35 319 -2 8 -1 -1 1 14799 
0.35 327 -2 8 0 0 1 14757 
0.35 335 -3 8 -1 0 -1 12660 
0.36 343 -4 8 -1 0 0 10563 
0.36 351 -5 8 -1 0 0 8466 
0.37 358 -5 7 0 -1 1 8361 
0.38 366 -5 8 0 1 0 8256 
0.38 374 -6 8 -1 0 -1 6159 
0.39 382 -7 8 -1 0 0 4062 
0.39 389 -7 7 0 -1 1 3916 
0.40 396 -6 7 1 0 1 6013 
0.40 404 -7 8 -1 1 -2 3916 
0.41 411 -7 7 0 -1 1 3770 
0.41 418 -7 7 0 0 0 3624 
0.42 425 -7 7 0 0 0 3478 
0.42 432 -6 7 1 0 1 5575 
0.42 439 -6 7 0 0 -1 5450 
0.43 446 -6 7 0 0 0 5325 
0.43 453 -6 7 0 0 0 5200 
0.44 460 -5 7 1 0 1 7297 
0.45 466 -4 6 1 -1 0 9394 
0.45 472 -3 6 1 0 0 11491 
0.46 479 -3 7 0 1 -1 11428 
0.46 486 -3 7 0 0 0 11365 
0.47 492 -1 6 2 -1 2 13462 
0.47 498 0 6 1 0 -1 15559 
0.48 504 1 6 1 0 0 17656 
0.48 510 2 6 1 0 0 19753 
0.48 518 2 8 0 2 -1 19795 
0.49 523 4 5 2 -3 2 21892 
0.49 529 5 6 1 1 -1 23989 
0.50 535 6 6 1 0 0 26086 
0.51 541 7 6 1 0 0 28183 
0.51 548 8 7 1 1 0 30280 
0.52 554 9 6 1 -1 0 32377 
0.52 560 10 6 1 0 0 34474 
0.53 567 10 7 0 1 -1 34683 
0.53 574 11 7 1 0 1 36780 
0.54 580 12 6 1 -1 0 38877 
0.54 587 12 7 0 1 -1 39128 
0.55 595 11 8 -1 1 -1 37031 
0.55 602 11 7 0 -1 1 37261 
0.56 609 12 7 1 0 1 39358 
0.56 617 11 8 -1 1 -2 37261 
0.57 624 11 7 0 -1 1 37491 
0.57 632 10 8 -1 1 -1 35394 
0.58 640 10 8 0 0 1 35603 
0.58 648 9 8 -1 0 -1 33506 
0.58 656 8 8 -1 0 0 31409 
0.59 663 8 7 0 -1 1 31576 
0.59 671 7 8 -1 1 -1 29479 
0.60 679 7 8 0 0 1 29625 
0.60 687 6 8 -1 0 -1 27528 
0.61 695 5 8 -1 0 0 25431 
0.61 704 3 9 -2 1 -1 23334 
0.62 712 3 8 0 -1 2 23397 
0.62 720 2 8 -1 0 -1 21300 
0.63 728 1 8 -1 0 0 19203 
0.64 736 0 8 -1 0 0 17106 
0.64 744 0 8 0 0 1 17106 
0.65 752 -1 8 -1 0 -1 15009 
0.65 760 -2 8 -1 0 0 12912 
0.66 767 -2 7 0 -1 1 12870 
0.66 775 -3 8 -1 1 -1 10773 
0.67 783 -3 8 0 0 1 10710 
0.67 790 -3 7 0 -1 0 10647 
0.68 798 -4 8 -1 1 -1 8550 
0.68 805 -4 7 0 -1 1 8466 
0.69 812 -3 7 1 0 1 10563 
0.69 819 -3 7 0 0 -1 10500 
0.70 826 -3 7 0 0 0 10437 
0.70 833 -3 7 0 0 0 10374 
0.70 840 -3 7 0 0 0 10311 
0.71 847 -2 7 1 0 1 12408 
0.71 854 -2 7 0 0 -1 12366 
0.72 860 -1 6 1 -1 1 14463 
0.72 867 -1 7 0 1 -1 14442 
0.73 873 1 6 2 -1 2 16539 
0.73 880 1 7 0 1 -2 16560 
0.74 886 2 6 1 -1 1 18657 
0.74 892 3 6 1 0 0 20754 
0.75 899 3 7 0 1 -1 20817 
0.76 905 5 6 2 -1 2 22914 
0.76 912 5 7 0 1 -2 23019 
0.77 918 6 6 1 -1 1 25116 
0.77 924 7 6 1 0 0 27213 
0.78 931 8 7 1 1 0 29310 
0.78 937 9 6 1 -1 0 31407 
0.79 944 9 7 0 1 -1 31595 
0.79 950 10 6 1 -1 1 33692 
0.80 957 10 7 0 1 -1 33901 
0.80 964 11 7 1 0 1 35998 
0.81 970 12 6 1 -1 0 38095 
0.81 977 12 7 0 1 -1 38346 
0.82 984 12 7 0 0 0 38597 
0.82 992 12 8 0 1 0 38848 
0.83 999 12 7 0 -1 0 39099 
0.83 1006 12 7 0 0 0 39350 
0.83 1014 11 8 -1 1 -1 37253 
0.84 1022 10 8 -1 0 0 35156 
0.84 1030 10 8 0 0 1 35365 
0.85 1037 10 7 0 -1 0 35574 
0.85 1045 9 8 -1 1 -1 33477 
0.86 1053 8 8 -1 0 0 31380 
0.86 1061 8 8 0 0 1 31547 
0.87 1070 6 9 -2 1 -2 29450 
0.88 1078 5 8 -1 -1 1 27353 
0.88 1086 4 8 -1 0 0 25256 
0.89 1094 3 8 -1 0 0 23159 
0.89 1102 3 8 0 0 1 23222 
0.90 1110 2 8 -1 0 -1 21125 
0.90 1118 1 8 -1 0 0 19028 
0.91 1126 0 8 -1 0 0 16931 
0.91 1134 0 8 0 0 1 16931 
0.92 1142 -1 8 -1 0 -1 14834 
0.92 1150 -2 8 -1 0 0 12737 
0.93 1157 -2 7 0 -1 1 12695 
0.93 1165 -3 8 -1 1 -1 10598 
0.94 1172 -2 7 1 -1 2 12695 
0.94 1180 -3 8 -1 1 -2 10598 
0.95 1187 -3 7 0 -1 1 10535 
0.95 1195 -4 8 -1 1 -1 8438 
0.96 1202 -3 7 1 -1 2 10535 
0.96 1209 -3 7 0 0 -1 10472 
0.96 1216 -3 7 0 0 0 10409 
0.97 1223 -3 7 0 0 0 10346 
0.97 1229 -2 6 1 -1 1 12443 
0.98 1236 -1 7 1 1 0 14540 
0.98 1242 0 6 1 -1 0 16637 
0.99 1249 0 7 0 1 -1 16637 
0.99 1255 1 6 1 -1 1 18734 
1.00 1262 2 7 1 1 0 20831 
1.01 1268 3 6 1 -1 0 22928 
1.01 1274 4 6 1 0 0 25025 
1.02 1280 5 6 1 0 0 27122 
1.02 1287 5 7 0 1 -1 27227 
1.02 1293 7 6 2 -1 2 29324 
1.03 1300 7 7 0 1 -2 29470 
1.03 1306 8 6 1 -1 1 31567 
1.04 1313 8 7 0 1 -1 31734 
1.04 1319 10 6 2 -1 2 33831 
1.05 1326 10 7 0 1 -2 34040 
1.05 1333 10 7 0 0 0 34249 
1.06 1340 10 7 0 0 0 34458 
1.06 1346 11 6 1 -1 1 36555 
1.07 1354 11 8 0 2 -1 36785 
1.07 1360 12 6 1 -2 1 38882 
1.08 1368 11 8 -1 2 -2 36785 
1.08 1375 11 7 0 -1 1 37015 
1.09 1382 12 7 1 0 1 39112 
1.09 1389 12 7 0 0 -1 39363 
1.10 1397 11 8 -1 1 -1 37266 
1.10 1404 11 7 0 -1 1 37496 
1.11 1412 11 8 0 1 0 37726 
1.11 1419 11 7 0 -1 0 37956 
1.12 1427 10 8 -1 1 -1 35859 
1.12 1435 9 8 -1 0 0 33762 
1.13 1442 9 7 0 -1 1 33950 
1.14 1450 9 8 0 1 0 34138 
1.14 1458 8 8 -1 0 -1 32041 
1.15 1466 7 8 -1 0 0 29944 
1.15 1474 6 8 -1 0 0 27847 
1.16 1482 6 8 0 0 1 27972 
1.16 1490 5 8 -1 0 -1 25875 
1.17 1498 4 8 -1 0 0 23778 
1.17 1506 3 8 -1 0 0 21681 
1.18 1513 3 7 0 -1 1 21744 
1.18 1521 3 8 0 1 0 21807 
1.19 1528 3 7 0 -1 0 21870 
1.19 1536 2 8 -1 1 -1 19773 
1.20 1543 2 7 0 -1 1 19815 
1.20 1551 2 8 0 1 0 19857 
1.21 1558 2 7 0 -1 0 19899 
1.21 1566 1 8 -1 1 -1 17802 
1.22 1573 1 7 0 -1 1 17823 
1.22 1580 1 7 0 0 0 17844 
1.23 1587 2 7 1 0 1 19941 
1.23 1594 2 7 0 0 -1 19983 
1.24 1601 2 7 0 0 0 20025 
1.24 1608 2 7 0 0 0 20067 
1.25 1615 3 7 1 0 1 22164 
1.25 1622 3 7 0 0 -1 22227 
1.26 1629 3 7 0 0 0 22290 
1.26 1636 3 7 0 0 0 22353 
1.27 1642 4 6 1 -1 1 24450 
1.27 1649 3 7 -1 1 -2 22353 
1.28 1656 3 7 0 0 1 22416 
1.28 1662 3 6 0 -1 0 22479 
1.28 1669 3 7 0 1 0 22542 
1.29 1675 3 6 0 -1 0 22605 
1.29 1682 2 7 -1 1 -1 20508 
1.30 1688 2 6 0 -1 1 20550 
1.30 1695 0 7 -2 1 -2 18453 
1.31 1701 0 6 0 -1 2 18453 
1.31 1707 -1 6 -1 0 -1 16356 
1.32 1714 -3 7 -2 1 -1 14259 
1.32 1720 -3 6 0 -1 2 14196 
1.33 1726 -4 6 -1 0 -1 12099 
1.33 1732 -6 6 -2 0 -1 10002 
1.34 1738 -7 6 -1 0 1 7905 
1.34 1743 -7 5 0 -1 1 7759 
1.35 1749 -9 6 -2 1 -2 5662 
1.35 1754 -10 5 -1 -1 1 3565 
1.36 1760 -12 6 -2 1 -1 1468 
1.36 1765 -13 5 -1 -1 1 629 
1.37 1770 -14 5 -1 0 0 2726 
1.38 1775 -15 5 -1 0 0 4823 
1.38 1780 -17 5 -2 0 -1 6920 
1.39 1784 -17 4 0 -1 2 7275 
1.39 1788 -18 4 -1 0 -1 9372 
1.40 1793 -20 5 -2 1 -1 11469 
1.40 1796 -20 3 0 -2 2 11887 
1.41 1800 -21 4 -1 1 -1 13984 
1.41 1803 -22 3 -1 -1 0 16081 
1.42 1806 -22 3 0 0 1 16541 
1.42 1808 -22 2 0 -1 0 17001 
1.43 1810 -21 2 1 0 1 14904 
1.43 1812 -21 2 0 0 -1 15343 
1.44 1814 -21 2 0 0 0 15782 
1.44 1815 -21 1 0 -1 0 16221 
1.45 1816 -20 1 1 0 1 14124 
1.45 1816 -19 0 1 -1 0 12027 
1.46 1817 -18 1 1 1 0 9930 
1.46 1817 -17 0 1 -1 0 7833 
1.47 1817 -16 0 1 0 0 5736 
1.47 1817 -15 0 1 0 0 3639 
1.48 1817 -14 0 1 0 0 1542 
1.48 1817 -14 0 0 0 -1 1835 
1.49 1816 -12 -1 2 -1 2 262 
1.49 1816 -12 0 0 1 -2 11 
1.50 1816 -12 0 0 0 0 240 
1.50 1816 -11 0 1 0 1 1857 
1.51 1816 -11 0 0 0 -1 1627 
1.51 1816 -11 0 0 0 0 1397 
1.52 1816 -11 0 0 0 0 1167 
1.52 1816 -11 0 0 0 0 937 
1.53 1816 -11 0 0 0 0 707 
1.53 1816 -11 0 0 0 0 477 
1.54 1816 -11 0 0 0 0 247 
1.54 1816 -11 0 0 0 0 17 
1.54 1816 -11 0 0 0 0 213 
1.55 1816 -11 0 0 0 0 443 
1.55 1816 -11 0 0 0 0 673 
1.56 1816 -11 0 0 0 0 903 
1.56 1816 -11 0 0 0 0 1133 
1.57 1816 -11 0 0 0 0 1363 
1.57 1816 -11 0 0 0 0 1593 
1.58 1816 -11 0 0 0 0 1823 
1.58 1816 -11 0 0 0 0 2053 
1.59 1816 -11 0 0 0 0 2283 
1.59 1816 -11 0 0 0 0 2513 
1.60 1816 -11 0 0 0 0 2743 
1.60 1816 -11 0 0 0 0 2973 
1.61 1816 -11 0 0 0 0 3203 
1.61 1816 -11 0 0 0 0 3433 
1.62 1816 -11 0 0 0 0 3663 
1.62 1816 -11 0 0 0 0 3893 
1.63 1816 -11 0 0 0 0 4123 
1.64 1816 -11 0 0 0 0 4353 
1.64 1816 -11 0 0 0 0 4583 
1.65 1816 -11 0 0 0 0 4813 
1.65 1816 -11 0 0 0 0 5043 
1.66 1816 -11 0 0 0 0 5273 
1.66 1816 -11 0 0 0 0 5503 
1.67 1816 -11 0 0 0 0 5733 
1.67 1816 -11 0 0 0 0 5963 
1.68 1816 -11 0 0 0 0 6193 
1.68 1816 -11 0 0 0 0 6423 
1.69 1816 -11 0 0 0 0 6653 
1.69 1816 -11 0 0 0 0 6883 
1.70 1816 -11 0 0 0 0 7113 
1.70 1816 -11 0 0 0 0 7343 
1.71 1816 -11 0 0 0 0 7573 
1.71 1816 -11 0 0 0 0 7803 
1.72 1816 -11 0 0 0 0 8033 
1.72 1816 -11 0 0 0 0 8263 
1.73 1816 -11 0 0 0 0 8493 
1.73 1816 -11 0 0 0 0 8723 
1.74 1816 -11 0 0 0 0 8953 
1.74 1816 -11 0 0 0 0 9183 
1.75 1816 -11 0 0 0 0 9413 
1.75 1816 -11 0 0 0 0 9643 
1.76 1816 -11 0 0 0 0 9873 
1.76 1816 -11 0 0 0 0 10103 
1.77 1816 -11 0 0 0 0 10333 
1.77 1816 -11 0 0 0 0 10563 
1.78 1816 -11 0 0 0 0 10793 
1.78 1816 -11 0 0 0 0 11023 
1.79 1816 -11 0 0 0 0 11253 
1.79 1816 -11 0 0 0 0 11483 
1.79 1816 -11 0 0 0 0 11713 
1.80 1816 -11 0 0 0 0 11943 
1.80 1816 -11 0 0 0 0 12173 
1.81 1815 -10 -1 1 -1 1 10076 
1.81 1815 -10 0 0 1 -1 10285 
1.82 1814 -9 -1 1 -1 1 8188 
1.82 1814 -9 0 0 1 -1 8376 
1.83 1813 -8 -1 1 -1 1 6279 
1.83 1813 -8 0 0 1 -1 6446 
1.84 1812 -7 -1 1 -1 1 4349 
1.84 1812 -7 0 0 1 -1 4495 
1.85 1811 -6 -1 1 -1 1 2398 
1.85 1811 -6 0 0 1 -1 2523 
1.86 1810 -5 -1 1 -1 1 426 
1.86 1810 -5 0 0 1 -1 531 
1.87 1810 -5 0 0 0 0 636 
1.88 1809 -4 -1 1 -1 1 1461 
1.88 1809 -4 0 0 1 -1 1377 
1.89 1809 -4 0 0 0 0 1293 
1.89 1809 -4 0 0 0 0 1209 
1.90 1808 -3 -1 1 -1 1 3306 
1.90 1808 -3 0 0 1 -1 3243 
1.91 1808 -3 0 0 0 0 3180 
1.91 1808 -3 0 0 0 0 3117 
1.92 1808 -3 0 0 0 0 3054 
1.92 1808 -3 0 0 0 0 2991 
1.93 1808 -3 0 0 0 0 2928 
1.93 1808 -3 0 0 0 0 2865 
1.94 1808 -3 0 0 0 0 2802 
1.94 1808 -3 0 0 0 0 2739 
1.95 1808 -3 0 0 0 0 2676 
1.95 1808 -3 0 0 0 0 2613 
1.96 1808 -3 0 0 0 0 2550 
1.96 1808 -3 0 0 0 0 2487 
1.97 1808 -3 0 0 0 0 2424 
1.97 1808 -3 0 0 0 0 2361 
1.98 1808 -3 0 0 0 0 2298 
1.98 1808 -3 0 0 0 0 2235 
1.99 1808 -3 0 0 0 0 2172 
1.99 1808 -3 0 0 0 0 2109 
2.00 1808 -3 0 0 0 0 2046 