0.02 0 -75 0 -75 0 -75 98 -15 -8 -75 80 
0.04 0 -302 0 -227 0 -152 406 -60 -118 -227 58 
0.06 -7 -674 -7 -372 -7 -145 751 -135 -244 -372 33 
0.08 -224 -987 -217 -313 -210 59 886 -197 -376 -313 7 
0.10 -891 -1001 -667 -14 -450 299 697 -200 -482 -14 -15 
0.12 -1894 -830 -1003 171 -336 185 546 -166 -551 171 -28 
0.14 -2954 -755 -1060 75 -57 -96 674 -151 -598 75 -38 
0.16 -4038 -806 -1084 -51 -24 -126 853 -161 -641 -51 -46 
0.18 -5322 -809 -1284 -3 -200 48 840 -162 -676 -3 -53 
0.20 -6871 -698 -1549 111 -265 114 721 -140 -692 111 -57 
0.22 -8548 -610 -1677 88 -128 -23 731 -122 -697 88 -57 
0.24 -10279 -620 -1731 -10 -54 -98 835 -124 -701 -10 -58 
0.26 -12119 -654 -1840 -34 -109 -24 873 -131 -708 -34 -60 
0.28 -14113 -552 -1994 102 -154 136 712 -110 -704 102 -59 
0.30 -16168 -390 -2055 162 -61 60 600 -78 -684 162 -55 
0.32 -18086 -364 -1918 26 137 -136 712 -73 -665 26 -51 
0.34 -19905 -437 -1819 -73 99 -99 818 -87 -658 -73 -50 
0.36 -21750 -485 -1845 -48 -26 25 802 -97 -657 -48 -49 
0.38 -23666 -461 -1916 24 -71 72 722 -92 -653 24 -49 
0.40 -25583 -436 -1917 25 -1 1 710 -87 -648 25 -48 
0.42 -27463 -449 -1880 -13 37 -38 748 -90 -645 -13 -47 
0.44 -29317 -487 -1854 -38 26 -25 782 -97 -647 -38 -47 
0.46 -31189 -507 -1872 -20 -18 18 772 -101 -650 -20 -48 
0.48 -33091 -498 -1902 9 -30 29 742 -100 -652 9 -48 
0.50 -34992 -489 -1901 9 1 0 741 -98 -652 9 -49 
0.52 -36867 -506 -1875 -17 26 -26 772 -101 -654 -17 -49 
0.54 -38710 -556 -1843 -50 32 -33 822 -111 -661 -50 -50 
0.56 -40559 -599 -1849 -43 -6 7 833 -120 -671 -43 -52 
0.58 -42438 -613 -1879 -14 -30 29 816 -123 -680 -14 -54 
0.60 -44377 -566 -1939 47 -60 61 748 -113 -682 47 -55 
0.62 -46330 -505 -1953 61 -14 14 718 -101 -678 61 -54 
0.64 -48232 -496 -1902 9 51 -52 764 -99 -674 9 -53 
0.66 -50093 -527 -1861 -31 41 -40 810 -105 -674 -31 -53 
0.68 -51991 -521 -1898 6 -37 37 771 -104 -673 6 -53 
0.70 -53936 -469 -1945 52 -47 46 709 -94 -667 52 -52 
0.72 -55855 -442 -1919 27 26 -25 721 -88 -660 27 -50 
0.74 -57720 -469 -1865 -27 54 -54 778 -94 -657 -27 -49 
0.76 -59575 -507 -1855 -38 10 -11 797 -101 -658 -38 -50 
0.78 -61473 -501 -1898 6 -43 44 753 -100 -658 6 -50 
0.80 -63365 -501 -1892 0 6 -6 759 -100 -659 0 -50 
0.82 -65222 -537 -1857 -36 35 -36 806 -107 -663 -36 -51 
0.84 -67083 -568 -1861 -31 -4 5 813 -114 -669 -31 -52 
0.86 -69014 -530 -1931 38 -70 69 738 -106 -670 38 -52 
0.88 -70953 -483 -1939 47 -8 9 716 -97 -666 47 -51 
0.90 -72828 -500 -1875 -17 64 -64 782 -100 -665 -17 -51 
0.92 -74665 -556 -1837 -56 38 -39 837 -111 -669 -56 -52 
0.94 -76570 -543 -1905 13 -68 69 767 -109 -672 13 -52 
0.96 -78527 -478 -1957 65 -52 52 698 -96 -667 65 -52 
0.98 -80432 -466 -1905 12 52 -53 743 -93 -662 12 -51 
1.00 -82319 -471 -1887 -5 18 -17 758 -94 -659 -5 -50 
1.02 -84112 -570 -1793 -99 94 -94 879 -114 -666 -99 -51 
1.04 -86018 -557 -1906 13 -113 112 769 -111 -670 13 -52 
1.06 -87984 -483 -1966 74 -60 61 689 -97 -666 74 -51 
1.08 -89903 -456 -1919 27 47 -47 725 -91 -661 27 -50 
1.10 -91764 -488 -1861 -32 58 -59 789 -98 -659 -32 -50 
1.12 -93655 -489 -1891 -1 -30 31 757 -98 -658 -1 -50 
1.14 -95566 -470 -1911 19 -20 20 730 -94 -655 19 -49 
1.16 -97458 -471 -1892 -1 19 -20 749 -94 -653 -1 -49 
1.18 -99336 -485 -1878 -14 14 -13 764 -97 -653 -14 -49 
1.20 -101224 -490 -1888 -5 -10 9 756 -98 -653 -5 -49 
1.22 -103123 -483 -1899 7 -11 12 742 -97 -653 7 -49 
1.24 -105025 -473 -1902 10 -3 3 736 -95 -652 10 -48 
1.26 -106912 -479 -1887 -6 15 -16 753 -96 -651 -6 -48 
1.28 -108803 -480 -1891 -1 -4 5 748 -96 -651 -1 -48 
1.30 -110706 -469 -1903 11 -12 12 732 -94 -649 11 -48 
1.32 -112593 -475 -1887 -6 16 -17 750 -95 -649 -6 -48 
1.34 -114467 -493 -1874 -18 13 -12 767 -99 -650 -18 -48 
1.36 -116355 -497 -1888 -4 -14 14 755 -99 -652 -4 -48 
1.38 -118268 -477 -1913 20 -25 24 726 -95 -651 20 -48 
1.40 -120180 -457 -1912 20 1 0 720 -91 -648 20 -48 
1.42 -122076 -453 -1896 4 16 -16 733 -91 -646 4 -47 
1.44 -123950 -472 -1874 -19 22 -23 759 -94 -646 -19 -47 
1.46 -125851 -463 -1901 9 -27 28 729 -93 -645 9 -47 
1.48 -127774 -433 -1923 30 -22 21 698 -87 -641 30 -46 
1.50 -129670 -429 -1896 4 27 -26 719 -86 -638 4 -46 
1.52 -131536 -455 -1866 -26 30 -30 755 -91 -638 -26 -46 
1.54 -133412 -472 -1876 -17 -10 9 751 -94 -639 -17 -46 
1.56 -135315 -461 -1903 11 -27 28 721 -92 -639 11 -46 
1.58 -137211 -457 -1896 4 7 -7 726 -91 -639 4 -46 
1.60 -139089 -472 -1878 -15 18 -19 750 -94 -640 -15 -46 
1.62 -140960 -493 -1871 -21 7 -6 763 -99 -643 -21 -47 
1.64 -142860 -485 -1900 8 -29 29 734 -97 -645 8 -47 
1.66 -144770 -468 -1910 17 -10 9 721 -94 -645 17 -47 
1.68 -146669 -461 -1899 7 11 -10 729 -92 -644 7 -47 
1.70 -148544 -478 -1875 -17 24 -24 757 -96 -645 -17 -47 
1.72 -150437 -478 -1893 0 -18 17 741 -96 -646 0 -47 
1.74 -152362 -445 -1925 33 -32 33 699 -89 -643 33 -47 
1.76 -154290 -409 -1928 36 -3 3 683 -82 -637 36 -46 
1.78 -156195 -397 -1905 12 23 -24 699 -79 -631 12 -44 
1.80 -158074 -410 -1879 -13 26 -25 723 -82 -628 -13 -44 
1.82 -159958 -419 -1884 -9 -5 4 719 -84 -626 -9 -43 
1.84 -161837 -432 -1879 -13 5 -4 725 -86 -626 -13 -43 
1.86 -163733 -428 -1896 4 -17 17 707 -86 -625 4 -43 
1.88 -165626 -428 -1893 0 3 -4 711 -86 -625 0 -43 
1.90 -167547 -399 -1921 29 -28 29 673 -80 -622 29 -42 
1.92 -169461 -377 -1914 22 7 -7 671 -75 -617 22 -42 
1.94 -171354 -377 -1893 0 21 -22 689 -75 -613 0 -41 
1.96 -173248 -375 -1894 2 -1 2 683 -75 -610 2 -40 
1.98 -175165 -350 -1917 25 -23 23 650 -70 -605 25 -39 
2.00 -177069 -339 -1904 11 13 -14 657 -68 -600 11 -38 
2.02 -178951 -349 -1882 -10 22 -21 676 -70 -597 -10 -37 
2.04 -180821 -371 -1870 -22 12 -12 692 -74 -596 -22 -37 
2.06 -182706 -379 -1885 -8 -15 14 681 -76 -597 -8 -37 
2.08 -184618 -359 -1912 20 -27 28 647 -72 -595 20 -37 
2.10 -186510 -360 -1892 -1 20 -21 667 -72 -594 -1 -37 
2.12 -188372 -390 -1862 -30 30 -29 704 -78 -596 -30 -37 
2.14 -190254 -400 -1882 -10 -20 20 689 -80 -599 -10 -38 
2.16 -192188 -359 -1934 41 -52 51 628 -72 -597 41 -37 
2.18 -194106 -333 -1918 26 16 -15 633 -67 -593 26 -37 
2.20 -195989 -342 -1883 -9 35 -35 668 -68 -590 -9 -36 
2.22 -197864 -360 -1875 -18 8 -9 680 -72 -590 -18 -36 
2.24 -199768 -348 -1904 12 -29 30 646 -70 -589 12 -36 
2.26 -201681 -327 -1913 21 -9 9 630 -65 -586 21 -35 
2.28 -203583 -318 -1902 9 11 -12 637 -64 -582 9 -35 
2.30 -205470 -323 -1887 -5 15 -14 650 -65 -580 -5 -34 
2.32 -207362 -323 -1892 0 -5 5 643 -65 -578 0 -34 
2.34 -209276 -302 -1914 21 -22 21 614 -60 -575 21 -33 
2.36 -211183 -287 -1907 15 7 -6 613 -57 -570 15 -32 
2.38 -213071 -291 -1888 -4 19 -19 629 -58 -567 -4 -32 
2.40 -214953 -302 -1882 -11 6 -7 637 -60 -566 -11 -31 
2.42 -216862 -285 -1909 17 -27 28 603 -57 -563 17 -31 
2.44 -218771 -269 -1909 16 0 -1 597 -54 -559 16 -30 
2.46 -220673 -259 -1902 10 7 -6 597 -52 -555 10 -29 
2.48 -222543 -281 -1870 -22 32 -32 632 -56 -554 -22 -29 
2.50 -224422 -295 -1879 -14 -9 8 628 -59 -555 -14 -29 
2.52 -226313 -220 -1891 75 -12 89 517 -44 -548 75 -28 
2.54 -228151 -47 -1838 173 53 98 361 -9 -525 173 -23 
2.56 -229821 109 -1670 156 168 -17 313 22 -491 156 -16 
2.58 -231245 170 -1424 61 246 -95 363 34 -458 61 -10 
2.60 -232467 181 -1222 11 202 -50 383 36 -430 11 -4 
2.62 -233519 173 -1052 -8 170 -19 382 35 -408 -8 0 
2.64 -234409 155 -890 -18 162 -10 380 31 -393 -18 3 
2.66 -235154 143 -745 -12 145 6 366 29 -382 -12 5 
2.68 -235764 148 -610 5 135 17 338 30 -373 5 7 
2.70 -236228 158 -464 10 146 5 323 32 -364 10 9 
2.72 -236549 176 -321 18 143 8 303 35 -356 18 11 
2.74 -236711 186 -162 10 159 -8 301 37 -348 10 12 
2.76 -236734 190 -23 4 139 -6 299 38 -341 4 14 
2.78 -236734 190 0 0 23 -4 298 38 -336 0 15 
2.80 -236734 190 0 0 0 0 294 38 -332 0 16 
2.82 -236734 190 0 0 0 0 290 38 -328 0 16 
2.84 -236734 190 0 0 0 0 287 38 -325 0 17 
2.86 -236734 190 0 0 0 0 285 38 -323 0 17 
2.88 -236734 190 0 0 0 0 284 38 -322 0 18 
2.90 -236734 190 0 0 0 0 282 38 -320 0 18 
2.92 -236734 190 0 0 0 0 281 38 -319 0 18 
2.94 -236734 190 0 0 0 0 280 38 -318 0 18 
2.96 -236734 190 0 0 0 0 279 38 -317 0 18 
2.98 -236734 190 0 0 0 0 279 38 -317 0 19 
3.00 -236734 190 0 0 0 0 278 38 -316 0 19 
3.02 -236734 190 0 0 0 0 278 38 -316 0 19 
3.04 -236734 190 0 0 0 0 278 38 -316 0 19 
3.06 -236734 190 0 0 0 0 277 38 -315 0 19 
3.08 -236734 190 0 0 0 0 277 38 -315 0 19 
3.10 -236734 190 0 0 0 0 277 38 -315 0 19 
3.12 -236734 190 0 0 0 0 277 38 -315 0 19 
3.14 -236734 190 0 0 0 0 277 38 -315 0 19 
3.16 -236734 190 0 0 0 0 277 38 -315 0 19 
3.18 -236734 190 0 0 0 0 277 38 -315 0 19 
3.20 -236734 190 0 0 0 0 277 38 -315 0 19 
3.22 -236734 190 0 0 0 0 277 38 -315 0 19 
3.24 -236734 190 0 0 0 0 277 38 -315 0 19 
3.26 -236734 190 0 0 0 0 277 38 -315 0 19 
3.28 -236734 190 0 0 0 0 277 38 -315 0 19 
3.30 -236734 190 0 0 0 0 277 38 -315 0 19 
3.32 -236734 190 0 0 0 0 277 38 -315 0 19 
3.34 -236734 190 0 0 0 0 277 38 -315 0 19 
3.36 -236734 190 0 0 0 0 277 38 -315 0 19 
3.38 -236734 190 0 0 0 0 277 38 -315 0 19 
3.40 -236734 190 0 0 0 0 277 38 -315 0 19 
3.42 -236734 190 0 0 0 0 277 38 -315 0 19 
3.44 -236734 190 0 0 0 0 277 38 -315 0 19 
3.46 -236734 190 0 0 0 0 277 38 -315 0 19 
3.48 -236734 190 0 0 0 0 277 38 -315 0 19 
3.50 -236734 190 0 0 0 0 277 38 -315 0 19 
3.52 -236734 190 0 0 0 0 277 38 -315 0 19 
3.54 -236734 190 0 0 0 0 277 38 -315 0 19 
3.56 -236734 190 0 0 0 0 277 38 -315 0 19 
3.58 -236734 190 0 0 0 0 277 38 -315 0 19 
3.60 -236734 190 0 0 0 0 277 38 -315 0 19 
3.62 -236734 190 0 0 0 0 277 38 -315 0 19 
3.64 -236734 190 0 0 0 0 277 38 -315 0 19 
3.66 -236734 190 0 0 0 0 277 38 -315 0 19 
3.68 -236734 190 0 0 0 0 277 38 -315 0 19 
3.70 -236734 190 0 0 0 0 277 38 -315 0 19 
3.72 -236734 190 0 0 0 0 277 38 -315 0 19 
3.74 -236734 190 0 0 0 0 277 38 -315 0 19 
3.76 -236734 190 0 0 0 0 277 38 -315 0 19 
3.78 -236734 190 0 0 0 0 277 38 -315 0 19 
3.80 -236734 190 0 0 0 0 277 38 -315 0 19 
3.82 -236734 190 0 0 0 0 277 38 -315 0 19 
3.84 -236734 190 0 0 0 0 277 38 -315 0 19 
3.86 -236734 190 0 0 0 0 277 38 -315 0 19 
3.88 -236734 190 0 0 0 0 277 38 -315 0 19 
3.90 -236734 190 0 0 0 0 277 38 -315 0 19 
3.92 -236734 190 0 0 0 0 277 38 -315 0 19 
3.94 -236734 190 0 0 0 0 277 38 -315 0 19 
3.96 -236734 190 0 0 0 0 277 38 -315 0 19 
3.98 -236734 190 0 0 0 0 277 38 -315 0 19 