0.04 394 -377 394 -538 394 -699 7 
0.06 693 -635 299 -258 -95 280 3 
0.08 711 -574 18 61 -281 319 1 
0.10 711 -442 0 132 -18 71 4 
0.12 711 -246 0 196 0 64 11 
0.14 1088 -349 377 -103 377 -299 7 
0.16 1392 -289 304 60 -73 163 9 
0.18 1731 -160 339 129 35 69 14 
0.20 2225 -69 494 91 155 -38 17 
0.22 2749 120 524 189 30 98 24 
0.24 3280 445 531 325 7 136 35 
0.26 3802 935 522 490 -9 165 46 
0.28 4578 1338 776 403 254 -87 57 
0.30 5580 1696 1002 358 226 -45 68 
0.32 6650 2181 1070 485 68 127 79 
0.34 7867 2726 1217 545 147 60 90 
0.36 9364 3210 1497 484 280 -61 101 
0.38 11036 3752 1672 542 175 58 112 
0.40 12874 4375 1838 623 166 81 123 
0.42 14960 5007 2086 632 248 9 134 
0.44 17384 5574 2424 567 338 -65 145 
0.46 20200 6033 2816 459 392 -108 156 
0.48 23486 6320 3286 287 470 -172 167 
0.50 27319 6370 3833 50 547 -237 170 
0.52 32019 5872 4700 -498 867 -548 159 
0.54 37226 5178 5207 -694 507 -196 148 
0.56 42756 4459 5530 -719 323 -25 137 
0.58 48316 3993 5560 -466 30 253 126 
0.60 53892 3784 5576 -209 16 257 119 
0.62 59501 3800 5609 16 33 225 121 
0.64 65164 4009 5663 209 54 193 130 
0.66 70854 4423 5690 414 27 205 141 
0.68 76553 5048 5699 625 9 211 152 
0.70 82280 5851 5727 803 28 178 163 
0.72 88141 6715 5861 864 134 61 174 
0.74 94368 7395 6227 680 366 -184 178 
0.76 100906 7931 6538 536 311 -144 178 
0.78 107644 8422 6738 491 200 -45 178 
0.80 114510 8928 6866 506 128 15 178 
0.82 121525 9414 7015 486 149 -20 178 
0.84 128736 9821 7211 407 196 -79 178 
0.86 136146 10132 7410 311 199 -96 178 
0.88 143777 10313 7631 181 221 -130 178 
0.90 151650 10329 7873 16 242 -165 178 
0.92 159767 10166 8117 -163 244 -179 174 
0.94 168087 9852 8320 -314 203 -151 164 
0.96 176776 9207 8689 -645 369 -331 153 
0.98 185480 8574 8704 -633 15 12 142 
1.00 193517 8620 8037 46 -667 679 146 
1.02 201427 8796 7910 176 -127 130 155 
1.04 209854 8454 8427 -342 517 -518 144 
1.06 218085 8309 8231 -145 -196 197 140 
1.08 226105 8374 8020 65 -211 210 144 
1.10 234182 8383 8077 9 57 -56 146 
1.12 242382 8268 8200 -115 123 -124 144 
1.14 250569 8167 8187 -101 -13 14 142 
1.16 258660 8161 8091 -6 -96 95 144 
1.18 266765 8142 8105 -19 14 -13 145 
1.20 274923 8069 8158 -73 53 -54 144 
1.22 283076 8002 8153 -67 -5 6 143 
1.24 291188 7975 8112 -27 -41 40 144 
1.26 299316 7933 8128 -42 16 -15 144 
1.28 307452 7882 8136 -51 8 -9 144 
1.30 315589 7831 8137 -51 1 0 144 
1.32 323739 7766 8150 -65 13 -14 143 
1.34 331843 7748 8104 -18 -46 47 144 
1.36 339954 7722 8111 -26 7 -8 145 
1.38 348117 7645 8163 -77 52 -51 144 
1.40 356275 7572 8158 -73 -5 4 143 
1.42 364379 7554 8104 -18 -54 55 144 
1.44 372505 7513 8126 -41 22 -23 144 
1.46 380657 7447 8152 -66 26 -25 143 
1.48 388770 7419 8113 -28 -39 38 144 
1.50 396911 7364 8141 -55 28 -27 144 
1.52 405046 7314 8135 -50 -6 5 144 
1.54 413197 7249 8151 -65 16 -15 143 
1.56 421313 7218 8116 -31 -35 34 144 
1.58 429425 7192 8112 -26 -4 5 145 
1.60 437603 7099 8178 -93 66 -67 143 
1.62 445735 7053 8132 -46 -46 47 143 
1.64 453842 7031 8107 -22 -25 24 144 
1.66 461954 7005 8112 -26 5 -4 145 
1.68 470116 6928 8162 -77 50 -51 144 
1.70 478283 6847 8167 -81 5 -4 143 
1.72 486386 6829 8103 -18 -64 63 144 
1.74 494521 6780 8135 -49 32 -31 144 
1.76 502653 6733 8132 -47 -3 2 144 
1.78 510794 6678 8141 -55 9 -8 143 
1.80 518882 6675 8088 -3 -53 52 144 
1.82 527007 6636 8125 -39 37 -36 144 
1.84 535137 6591 8130 -45 5 -6 144 
1.86 543269 6545 8132 -46 2 -1 144 
1.88 551402 6497 8133 -48 1 -2 144 
1.90 559554 6431 8152 -66 19 -18 143 
1.92 567656 6414 8102 -17 -50 49 144 
1.94 575776 6380 8120 -34 18 -17 144 
1.96 583902 6339 8126 -41 6 -7 144 
1.98 592037 6290 8135 -49 9 -8 144 
2.00 600189 6223 8152 -67 17 -18 143 
2.02 608286 6212 8097 -11 -55 56 144 
2.04 616369 6214 8083 2 -14 13 146 
2.06 624543 6126 8174 -88 91 -90 144 
2.08 632700 6054 8157 -72 -17 16 143 
2.10 640789 6051 8089 -3 -68 69 144 
2.12 648904 6021 8115 -30 26 -27 144 
2.14 657019 5992 8115 -29 0 1 144 
2.16 665132 5964 8113 -28 -2 1 144 
2.18 673270 5912 8138 -52 25 -24 143 
2.20 681365 5902 8095 -10 -43 42 144 
2.22 689474 5879 8109 -23 14 -13 145 
2.24 697650 5788 8176 -91 67 -68 143 
2.26 705770 5754 8120 -34 -56 57 143 
2.28 713853 5756 8083 2 -37 36 144 
2.30 721971 5724 8118 -32 35 -34 144 
2.32 730121 5659 8150 -65 32 -33 143 
2.34 738214 5652 8093 -7 -57 58 144 
2.36 746331 5620 8117 -32 24 -25 144 
2.38 754424 5613 8093 -7 -24 25 145 
2.40 762566 5556 8142 -57 49 -50 144 
2.42 770686 5522 8120 -34 -22 23 144 
2.44 778819 5474 8133 -48 13 -14 143 
2.46 786924 5455 8105 -19 -28 29 144 
2.48 795040 5424 8116 -31 11 -12 144 
2.50 803145 5405 8105 -19 -11 12 145 
2.52 811285 5350 8140 -55 35 -36 144 
2.54 819411 5310 8126 -40 -14 15 144 
2.56 827537 5269 8126 -41 0 -1 144 
2.58 835646 5246 8109 -23 -17 18 144 
2.60 843778 5199 8132 -47 23 -24 143 
2.62 851861 5202 8083 3 -49 50 144 
2.64 859947 5201 8086 -1 3 -4 145 
2.66 868097 5137 8150 -64 64 -63 144 
2.68 876232 5087 8135 -50 -15 14 143 
2.70 884314 5091 8082 4 -53 54 144 
2.72 892399 5091 8085 0 3 -4 145 
2.74 900516 5060 8117 -31 32 -31 145 
2.76 908670 4991 8154 -69 37 -38 144 
2.78 916802 4945 8132 -46 -22 23 143 
2.80 924889 4943 8087 -2 -45 44 144 
2.82 932994 4924 8105 -19 18 -17 144 
2.84 941107 4896 8113 -28 8 -9 144 
2.86 949238 4851 8131 -45 18 -17 143 
2.88 957340 4834 8102 -17 -29 28 144 
2.90 965437 4823 8097 -11 -5 6 145 
2.92 973589 4756 8152 -67 55 -56 144 
2.94 981729 4702 8140 -54 -12 13 143 
2.96 989838 4678 8109 -24 -31 30 143 
2.98 997915 4687 8077 9 -32 33 144 
3.00 1006005 4682 8090 -5 13 -14 145 
3.02 1014141 4632 8136 -50 46 -45 144 
3.04 1022287 4571 8146 -61 10 -11 143 
3.06 1030356 4588 8069 17 -77 78 145 
3.08 1038479 4550 8123 -38 54 -55 145 
3.10 1046631 4484 8152 -66 29 -28 144 
3.12 1054755 4445 8124 -39 -28 27 144 
3.14 1062863 4423 8108 -22 -16 17 144 
3.16 1070968 4403 8105 -20 -3 2 144 
3.18 1079063 4394 8095 -9 -10 11 145 
3.20 1087214 4328 8151 -66 56 -57 144 
3.22 1095340 4288 8126 -40 -25 26 143 
3.24 1103418 4295 8078 7 -48 47 144 
3.26 1111510 4289 8092 -6 14 -13 145 
3.28 1119655 4229 8145 -60 53 -54 144 
3.30 1127805 4165 8150 -64 5 -4 143 
3.32 1135889 4166 8084 1 -66 65 144 
3.34 1143991 4150 8102 -16 18 -17 144 
3.36 1152109 4117 8118 -33 16 -17 144 
3.38 1160220 4092 8111 -25 -7 8 144 
3.40 1168320 4078 8100 -14 -11 11 144 
3.42 1176415 4068 8095 -10 -5 4 145 
3.44 1184551 4017 8136 -51 41 -41 144 
3.46 1192671 3983 8120 -34 -16 17 144 
3.48 1200782 3957 8111 -26 -9 8 144 
3.50 1208891 3934 8109 -23 -2 3 144 
3.52 1216994 3917 8103 -17 -6 6 144 
3.54 1225109 3887 8115 -30 12 -13 144 
3.56 1233236 3846 8127 -41 12 -11 143 
3.58 1241309 3858 8073 12 -54 53 144 
3.60 1249388 3865 8079 7 6 -5 145 
3.62 1257521 3817 8133 -48 54 -55 144 
3.64 1265653 3771 8132 -46 -1 2 143 
3.66 1273743 3766 8090 -5 -42 41 144 
3.68 1281838 3757 8095 -9 5 -4 145 
3.70 1289977 3703 8139 -54 44 -45 144 
3.72 1298110 3656 8133 -47 -6 7 143 
3.74 1306170 3681 8060 25 -73 72 145 
3.76 1314281 3656 8111 -25 51 -50 145 
3.78 1322444 3578 8163 -78 52 -53 143 
3.80 1330534 3574 8090 -4 -73 74 144 
3.82 1338624 3569 8090 -5 0 -1 145 
3.84 1346749 3530 8125 -39 35 -34 144 
3.86 1354883 3481 8134 -49 9 -10 143 
3.88 1362979 3471 8096 -10 -38 39 143 
3.90 1371346 3189 8367 -282 271 -272 133 
3.92 1378960 3652 7614 463 -753 745 144 
3.94 1386658 4012 7698 360 84 -103 155 
3.96 1394671 4024 8013 12 315 -348 156 
3.98 1403006 3667 8335 -357 322 -369 145 
4.00 1411299 3294 8293 -373 -42 -16 134 
4.02 1419102 3339 7803 45 -490 418 137 
4.04 1426810 3394 7708 55 -95 10 140 
4.06 1434649 3220 7839 -174 131 -229 134 
4.08 1442357 3066 7708 -154 -131 20 129 
4.10 1449791 3063 7434 -3 -274 151 130 
4.12 1457152 2997 7361 -66 -73 -63 128 
4.14 1464449 2844 7297 -153 -64 -87 123 
4.16 1471543 2733 7094 -111 -203 42 119 
4.18 1478388 2695 6845 -38 -249 73 118 
4.20 1485129 2573 6741 -122 -104 -84 114 
4.22 1491695 2424 6566 -149 -175 -27 109 
4.24 1498005 2318 6310 -106 -256 43 106 
4.26 1504104 2195 6099 -123 -211 -17 102 
4.28 1509993 2042 5889 -153 -210 -30 97 
4.30 1515621 1897 5628 -145 -261 8 92 
4.32 1520955 1781 5334 -116 -294 29 88 
4.34 1526034 1640 5079 -141 -255 -25 83 
4.36 1530842 1479 4808 -161 -271 -20 77 
4.38 1535325 1338 4483 -141 -325 20 72 
4.40 1539525 1163 4200 -175 -283 -34 66 
4.42 1543367 1030 3842 -133 -358 42 61 
4.44 1546891 911 3524 -119 -318 14 57 
4.46 1550153 765 3262 -146 -262 -27 52 
4.48 1553145 611 2992 -154 -270 -8 46 
4.50 1555794 535 2649 -76 -343 78 43 
4.52 1558122 529 2328 -6 -321 70 43 
4.54 1560040 695 1918 166 -410 172 49 
4.56 1561583 1009 1543 314 -375 148 60 
4.58 1562810 1427 1227 418 -316 104 71 
4.60 1563972 1711 1162 284 -65 -134 82 
4.62 1565168 1773 1196 62 34 -222 85 
4.64 1566511 1514 1343 -259 147 -321 76 
4.66 1567723 1226 1212 -288 -131 -29 65 
4.68 1568802 922 1079 -304 -133 -16 54 
4.70 1569806 558 1004 -364 -75 -60 43 
4.72 1570596 286 790 -272 -214 92 33 
4.74 1571111 180 515 -106 -275 166 29 
4.76 1571604 -1 493 -181 -22 -75 22 
4.78 1572092 -259 488 -258 -5 -77 12 
4.80 1572582 -591 490 -332 2 -74 1 
4.82 1572667 -575 85 16 -405 348 1 
4.84 1572661 -512 -6 63 -91 47 3 
4.86 1572656 -482 -5 30 1 -33 4 
4.88 1572652 -472 -4 10 1 -20 4 
4.90 1572648 -467 -4 5 0 -5 4 
4.92 1572645 -464 -3 3 1 -2 4 
4.94 1572644 -463 -1 1 2 -2 4 
4.96 1572642 -461 -2 2 -1 1 4 
4.98 1572641 -460 -1 1 1 -1 4 
5.00 1572639 -458 -2 2 -1 1 4 
5.02 1572639 -458 0 0 2 -2 4 
5.04 1572639 -458 0 0 0 0 4 
5.06 1572639 -458 0 0 0 0 4 
5.08 1572638 -457 -1 1 -1 1 4 
5.10 1572638 -457 0 0 1 -1 4 
5.12 1572637 -456 -1 1 -1 1 4 
5.14 1572637 -456 0 0 1 -1 4 
5.16 1572637 -456 0 0 0 0 4 
5.18 1572637 -456 0 0 0 0 4 
5.20 1572637 -456 0 0 0 0 4 
5.22 1572636 -455 -1 1 -1 1 4 
5.24 1572636 -455 0 0 1 -1 4 
5.26 1572636 -455 0 0 0 0 4 
5.28 1572636 -455 0 0 0 0 4 
5.30 1572636 -455 0 0 0 0 4 
5.32 1572636 -455 0 0 0 0 4 
5.34 1572636 -455 0 0 0 0 4 
5.36 1572636 -455 0 0 0 0 4 
5.38 1572635 -454 -1 1 -1 1 4 
5.40 1572635 -454 0 0 1 -1 4 
5.42 1572635 -454 0 0 0 0 4 
5.44 1572635 -454 0 0 0 0 4 
5.46 1572635 -454 0 0 0 0 4 
5.48 1572635 -454 0 0 0 0 4 
5.50 1572635 -454 0 0 0 0 4 
5.52 1572635 -454 0 0 0 0 4 
5.54 1572635 -454 0 0 0 0 4 
5.56 1572635 -454 0 0 0 0 4 
5.58 1572635 -454 0 0 0 0 4 
5.60 1572635 -454 0 0 0 0 4 
5.62 1572635 -454 0 0 0 0 4 
5.64 1572635 -454 0 0 0 0 4 
5.66 1572635 -454 0 0 0 0 4 
5.68 1572635 -454 0 0 0 0 4 
5.70 1572635 -454 0 0 0 0 4 
5.72 1572635 -454 0 0 0 0 4 
5.74 1572635 -454 0 0 0 0 4 
5.76 1572635 -454 0 0 0 0 4 
5.78 1572635 -454 0 0 0 0 4 
5.80 1572635 -454 0 0 0 0 4 
5.82 1572635 -454 0 0 0 0 4 
5.84 1572635 -454 0 0 0 0 4 
5.86 1572634 -453 -1 1 -1 1 4 
5.88 1572634 -453 0 0 1 -1 4 
5.90 1572634 -453 0 0 0 0 4 
5.92 1572634 -453 0 0 0 0 4 
5.94 1572634 -453 0 0 0 0 4 
5.96 1572634 -453 0 0 0 0 4 
5.98 1572634 -453 0 0 0 0 4 
6.00 1572634 -453 0 0 0 0 4 