test1, 
kp ki kd kb = 1500 0 1500 0
Tcurve PID 

test2, 
kp ki kd kb = 1500 0 1500 0
Scurve PID


Vmax 36.0
Amax 144.0
sample time 0.02
0->45, 第一軸約20度後(因為會撞到輪子)
pmotor->controlMax = 65536* 0.7
pmotor->lowerWidth = 65536* 0.175
pmotor->integral_max = 65536*0.1