0.02 0 75 0 75 0 75 600 0 0 0 0 88.559 1.000 0.515 
0.04 163 139 163 64 163 -11 678 0 0 0 0 78.150 1.000 0.454 
0.06 708 -27 545 -166 382 -230 506 0 0 0 0 -171.960 1.000 -1.000 
0.08 1522 -311 814 -284 269 -118 334 0 0 0 0 -171.960 1.000 -1.000 
0.10 2385 -493 863 -182 49 102 162 0 0 0 0 -171.960 1.000 -1.000 
0.12 2972 -248 587 245 -276 427 334 0 0 0 0 171.960 1.000 1.000 
0.14 3063 646 91 894 -496 649 506 0 0 0 0 171.960 1.000 1.000 
0.16 3063 1781 0 1135 -91 241 678 0 0 0 0 171.960 1.000 1.000 
0.18 3105 3026 42 1245 42 110 850 0 0 0 0 171.960 1.000 1.000 
0.20 3217 4352 112 1326 70 81 1022 0 0 0 0 171.960 1.000 1.000 
0.22 3413 5745 196 1393 84 67 1194 0 0 0 0 171.960 1.000 1.000 
0.24 3711 7188 298 1443 102 50 1366 0 0 0 0 171.960 1.000 1.000 
0.26 4275 8498 564 1310 266 -133 1538 0 0 0 0 171.960 1.000 1.000 
0.28 5149 9516 874 1018 310 -292 1710 0 0 0 0 171.960 1.000 1.000 
0.30 6319 10239 1170 723 296 -295 1882 0 0 0 0 171.960 1.000 1.000 
0.32 7901 10549 1582 310 412 -413 2054 0 0 0 0 171.960 1.000 1.000 
0.34 10047 10295 2146 -254 564 -564 2117 0 0 0 0 62.880 1.000 0.366 
0.36 12787 9448 2740 -847 594 -593 1945 0 0 0 0 -171.960 1.000 -1.000 
0.38 15863 8264 3076 -1184 336 -337 1773 0 0 0 0 -171.960 1.000 -1.000 
0.40 19035 6984 3172 -1280 96 -96 1601 0 0 0 0 -171.960 1.000 -1.000 
0.42 22140 5772 3105 -1212 -67 68 1429 0 0 0 0 -171.960 1.000 -1.000 
0.44 25028 4776 2888 -996 -217 216 1257 0 0 0 0 -171.960 1.000 -1.000 
0.46 27554 4142 2526 -634 -362 362 1085 0 0 0 0 -171.960 1.000 -1.000 
0.48 29522 4067 1968 -75 -558 559 1139 0 0 0 0 53.892 1.000 0.313 
0.50 31003 4478 1481 411 -487 486 1311 0 0 0 0 171.960 1.000 1.000 
0.52 32301 5072 1298 594 -183 183 1483 0 0 0 0 171.960 1.000 1.000 
0.54 33622 5644 1321 572 23 -22 1655 0 0 0 0 171.960 1.000 1.000 
0.56 35043 6115 1421 471 100 -101 1827 0 0 0 0 171.960 1.000 1.000 
0.58 36751 6300 1708 185 287 -286 1999 0 0 0 0 171.960 1.000 1.000 
0.60 39017 5926 2266 -374 558 -559 1827 0 0 0 0 -171.960 1.000 -1.000 
0.62 41678 5157 2661 -769 395 -395 1655 0 0 0 0 -171.960 1.000 -1.000 
0.64 44331 4397 2653 -760 -8 9 1483 0 0 0 0 -171.960 1.000 -1.000 
0.66 46782 3838 2451 -559 -202 201 1311 0 0 0 0 -171.960 1.000 -1.000 
0.68 48919 3593 2137 -245 -314 314 1154 0 0 0 0 -157.298 1.000 -0.915 
0.70 50592 3813 1673 220 -464 465 1326 0 0 0 0 171.960 1.000 1.000 
0.72 51883 4414 1291 601 -382 381 1498 0 0 0 0 171.960 1.000 1.000 
0.74 52949 5240 1066 826 -225 225 1670 0 0 0 0 171.960 1.000 1.000 
0.76 54104 5978 1155 738 89 -88 1842 0 0 0 0 171.960 1.000 1.000 
0.78 55603 6371 1499 393 344 -345 2014 0 0 0 0 171.960 1.000 1.000 
0.80 57616 6250 2013 -121 514 -514 2090 0 0 0 0 76.236 1.000 0.443 
0.82 60085 5674 2469 -576 456 -455 1918 0 0 0 0 -171.960 1.000 -1.000 
0.84 62831 4820 2746 -854 277 -278 1746 0 0 0 0 -171.960 1.000 -1.000 
0.86 65642 3902 2811 -918 65 -64 1574 0 0 0 0 -171.960 1.000 -1.000 
0.88 68399 3037 2757 -865 -54 53 1402 0 0 0 0 -171.960 1.000 -1.000 
0.90 70907 2421 2508 -616 -249 249 1230 0 0 0 0 -171.960 1.000 -1.000 
0.92 72984 2237 2077 -184 -431 432 1096 0 0 0 0 -134.003 1.000 -0.779 
0.94 74524 2589 1540 352 -537 536 1268 0 0 0 0 171.960 1.000 1.000 
0.96 75769 3236 1245 647 -295 295 1440 0 0 0 0 171.960 1.000 1.000 
0.98 77021 3877 1252 641 7 -6 1612 0 0 0 0 171.960 1.000 1.000 
1.00 78426 4364 1405 487 153 -154 1784 0 0 0 0 171.960 1.000 1.000 
1.02 80138 4544 1712 180 307 -307 1956 0 0 0 0 171.960 1.000 1.000 
1.04 82347 4228 2209 -316 497 -496 1784 0 0 0 0 -171.960 1.000 -1.000 
1.06 84969 3498 2622 -730 413 -414 1612 0 0 0 0 -171.960 1.000 -1.000 
1.08 87671 2688 2702 -810 80 -80 1440 0 0 0 0 -171.960 1.000 -1.000 
1.10 90259 1993 2588 -695 -114 115 1268 0 0 0 0 -171.960 1.000 -1.000 
1.12 92613 1531 2354 -462 -234 233 1096 0 0 0 0 -171.960 1.000 -1.000 
1.14 94603 1433 1990 -98 -364 364 1033 0 0 0 0 -63.063 1.000 -0.367 
1.16 96196 1733 1593 300 -397 398 1205 0 0 0 0 171.960 1.000 1.000 
1.18 97519 2302 1323 569 -270 269 1377 0 0 0 0 171.960 1.000 1.000 
1.20 98854 2860 1335 558 12 -11 1549 0 0 0 0 171.960 1.000 1.000 
1.22 100406 3200 1552 340 217 -218 1721 0 0 0 0 171.960 1.000 1.000 
1.24 102352 3146 1946 -54 394 -394 1767 0 0 0 0 46.292 1.000 0.269 
1.26 104725 2666 2373 -480 427 -426 1595 0 0 0 0 -171.960 1.000 -1.000 
1.28 107393 1890 2668 -776 295 -296 1423 0 0 0 0 -171.960 1.000 -1.000 
1.30 110090 1085 2697 -805 29 -29 1251 0 0 0 0 -171.960 1.000 -1.000 
1.32 112664 404 2574 -681 -123 124 1079 0 0 0 0 -171.960 1.000 -1.000 
1.34 114948 12 2284 -392 -290 289 907 0 0 0 0 -171.960 1.000 -1.000 
1.36 116813 39 1865 27 -419 419 939 0 0 0 0 32.294 1.000 0.188 
1.38 118232 513 1419 474 -446 447 1111 0 0 0 0 171.960 1.000 1.000 
1.40 119443 1194 1211 681 -208 207 1283 0 0 0 0 171.960 1.000 1.000 
1.42 120647 1882 1204 688 -7 7 1455 0 0 0 0 171.960 1.000 1.000 
1.44 122047 2375 1400 493 196 -195 1627 0 0 0 0 171.960 1.000 1.000 
1.46 123848 2466 1801 91 401 -402 1799 0 0 0 0 171.960 1.000 1.000 
1.48 126210 1997 2362 -469 561 -560 1627 0 0 0 0 -171.960 1.000 -1.000 
1.50 129031 1068 2821 -929 459 -460 1455 0 0 0 0 -171.960 1.000 -1.000 
1.52 131988 3 2957 -1065 136 -136 1283 0 0 0 0 -171.960 1.000 -1.000 
1.54 134885 -1001 2897 -1004 -60 61 1111 0 0 0 0 -171.960 1.000 -1.000 
1.56 137619 -1843 2734 -842 -163 162 939 0 0 0 0 -171.960 1.000 -1.000 
1.58 140056 -2388 2437 -545 -297 297 767 0 0 0 0 -171.960 1.000 -1.000 
1.60 142076 -2515 2020 -127 -417 418 595 0 0 0 0 -171.960 1.000 -1.000 
1.62 143523 -2070 1447 445 -573 572 767 0 0 0 0 171.960 1.000 1.000 
1.64 144552 -1207 1029 863 -418 418 939 0 0 0 0 171.960 1.000 1.000 
1.66 145432 -194 880 1013 -149 150 1111 0 0 0 0 171.960 1.000 1.000 
1.68 146328 802 896 996 16 -17 1283 0 0 0 0 171.960 1.000 1.000 
1.70 147364 1658 1036 856 140 -140 1455 0 0 0 0 171.960 1.000 1.000 
1.72 148784 2131 1420 473 384 -383 1627 0 0 0 0 171.960 1.000 1.000 
1.74 150807 2000 2023 -131 603 -604 1546 0 0 0 0 -81.394 1.000 -0.473 
1.76 153276 1423 2469 -577 446 -446 1374 0 0 0 0 -171.960 1.000 -1.000 
1.78 155916 676 2640 -747 171 -170 1202 0 0 0 0 -171.960 1.000 -1.000 
1.80 158611 -127 2695 -803 55 -56 1030 0 0 0 0 -171.960 1.000 -1.000 
1.82 161201 -824 2590 -697 -105 106 858 0 0 0 0 -171.960 1.000 -1.000 
1.84 163627 -1358 2426 -534 -164 163 686 0 0 0 0 -171.960 1.000 -1.000 
1.86 165686 -1525 2059 -167 -367 367 514 0 0 0 0 -171.960 1.000 -1.000 
1.88 167255 -1201 1569 324 -490 491 686 0 0 0 0 171.960 1.000 1.000 
1.90 168507 -561 1252 640 -317 316 858 0 0 0 0 171.960 1.000 1.000 
1.92 169761 77 1254 638 2 -2 1030 0 0 0 0 171.960 1.000 1.000 
1.94 171046 685 1285 608 31 -30 1202 0 0 0 0 171.960 1.000 1.000 
1.96 172497 1126 1451 441 166 -167 1374 0 0 0 0 171.960 1.000 1.000 
1.98 174392 1123 1895 -3 444 -444 1409 0 0 0 0 35.183 1.000 0.205 
2.00 176706 702 2314 -421 419 -418 1237 0 0 0 0 -171.960 1.000 -1.000 
2.02 179276 24 2570 -678 256 -257 1065 0 0 0 0 -171.960 1.000 -1.000 
2.04 181907 -715 2631 -739 61 -61 893 0 0 0 0 -171.960 1.000 -1.000 
2.06 184424 -1339 2517 -624 -114 115 721 0 0 0 0 -171.960 1.000 -1.000 
2.08 186762 -1785 2338 -446 -179 178 549 0 0 0 0 -171.960 1.000 -1.000 
2.10 188870 -2000 2108 -215 -230 231 377 0 0 0 0 -171.960 1.000 -1.000 
2.12 190556 -1794 1686 206 -422 421 549 0 0 0 0 171.960 1.000 1.000 
2.14 191901 -1247 1345 547 -341 341 721 0 0 0 0 171.960 1.000 1.000 
2.16 193227 -680 1326 567 -19 20 893 0 0 0 0 171.960 1.000 1.000 
2.18 194667 -228 1440 452 114 -115 1065 0 0 0 0 171.960 1.000 1.000 
2.20 196285 46 1618 274 178 -178 1237 0 0 0 0 171.960 1.000 1.000 
2.22 198294 -70 2009 -116 391 -390 1102 0 0 0 0 -135.390 1.000 -0.787 
2.24 200623 -507 2329 -437 320 -321 930 0 0 0 0 -171.960 1.000 -1.000 
2.26 203085 -1077 2462 -570 133 -133 758 0 0 0 0 -171.960 1.000 -1.000 
2.28 205535 -1634 2450 -557 -12 13 586 0 0 0 0 -171.960 1.000 -1.000 
2.30 207846 -2053 2311 -419 -139 138 414 0 0 0 0 -171.960 1.000 -1.000 
2.32 209878 -2193 2032 -140 -279 279 242 0 0 0 0 -171.960 1.000 -1.000 
2.34 211615 -2037 1737 156 -295 296 351 0 0 0 0 108.782 1.000 0.633 
2.36 213075 -1605 1460 432 -277 276 523 0 0 0 0 171.960 1.000 1.000 
2.38 214364 -1002 1289 603 -171 171 695 0 0 0 0 171.960 1.000 1.000 
2.40 215711 -456 1347 546 58 -57 867 0 0 0 0 171.960 1.000 1.000 
2.42 217259 -112 1548 344 201 -202 1039 0 0 0 0 171.960 1.000 1.000 
2.44 219167 -127 1908 -15 360 -359 1017 0 0 0 0 -21.564 1.000 -0.125 
2.46 221424 -492 2257 -365 349 -350 845 0 0 0 0 -171.960 1.000 -1.000 
2.48 223933 -1109 2509 -617 252 -252 673 0 0 0 0 -171.960 1.000 -1.000 
2.50 226501 -1784 2568 -675 59 -58 501 0 0 0 0 -171.960 1.000 -1.000 
2.52 229007 -2474 2506 -690 -62 -15 329 0 0 0 0 -171.960 1.000 -1.000 
2.54 231341 -3143 2334 -669 -172 21 157 0 0 0 0 -171.960 1.000 -1.000 
2.56 233429 -3717 2088 -574 -246 95 -15 0 0 0 0 -171.960 1.000 -1.000 
2.58 235193 -4118 1764 -401 -324 173 -187 0 0 0 0 -171.960 1.000 -1.000 
2.60 236582 -4296 1389 -178 -375 223 -359 0 0 0 0 -171.960 1.000 -1.000 
2.62 237426 -4080 844 216 -545 394 -252 0 0 0 0 107.303 1.000 0.624 
2.64 237708 -3454 282 626 -562 410 -80 0 0 0 0 171.960 1.000 1.000 
2.66 237718 -2707 10 747 -272 121 92 0 0 0 0 171.960 1.000 1.000 
2.68 237797 -2181 79 526 69 -221 264 0 0 0 0 171.960 1.000 1.000 
2.70 237993 -1923 196 258 117 -268 436 0 0 0 0 171.960 1.000 1.000 
2.72 238298 -1925 305 -2 109 -260 368 0 0 0 0 -68.497 1.000 -0.398 
2.74 238703 -2178 405 -253 100 -251 196 0 0 0 0 -171.960 1.000 -1.000 
2.76 239084 -2540 381 -362 -24 -109 24 0 0 0 0 -171.960 1.000 -1.000 
2.78 239301 -2757 217 -217 -164 145 -148 0 0 0 0 -171.960 1.000 -1.000 
2.80 239309 -2765 8 -8 -209 209 -252 0 0 0 0 -104.265 1.000 -0.606 
2.82 239297 -2753 -12 12 -20 20 -333 0 0 0 0 -80.924 1.000 -0.471 
2.84 239208 -2664 -89 89 -77 77 -323 0 0 0 0 10.409 1.000 0.061 
2.86 239023 -2479 -185 185 -96 96 -196 0 0 0 0 126.826 1.000 0.738 
2.88 238867 -2323 -156 156 29 -29 -97 0 0 0 0 98.946 1.000 0.575 
2.90 238835 -2291 -32 32 124 -124 -139 0 0 0 0 -42.107 1.000 -0.245 
2.92 238835 -2291 0 0 32 -32 -218 0 0 0 0 -78.792 1.000 -0.458 
2.94 238835 -2291 0 0 0 0 -297 0 0 0 0 -78.792 1.000 -0.458 
2.96 238834 -2290 -1 1 -1 1 -375 0 0 0 0 -77.611 1.000 -0.451 
2.98 238802 -2258 -32 32 -31 31 -416 0 0 0 0 -40.972 1.000 -0.238 
3.00 238681 -2137 -121 121 -89 89 -351 0 0 0 0 65.219 1.000 0.379 
3.02 238471 -1927 -210 210 -89 89 -179 0 0 0 0 171.960 1.000 1.000 
3.04 238287 -1743 -184 184 26 -26 -28 0 0 0 0 150.992 1.000 0.878 
3.06 238251 -1707 -36 36 148 -148 -45 0 0 0 0 -17.437 1.000 -0.101 
3.08 238251 -1707 0 0 36 -36 -104 0 0 0 0 -58.707 1.000 -0.341 
3.10 238251 -1707 0 0 0 0 -163 0 0 0 0 -58.707 1.000 -0.341 
3.12 238251 -1707 0 0 0 0 -222 0 0 0 0 -58.707 1.000 -0.341 
3.14 238251 -1707 0 0 0 0 -281 0 0 0 0 -58.707 1.000 -0.341 
3.16 238232 -1688 -19 19 -19 19 -317 0 0 0 0 -36.272 1.000 -0.211 
3.18 238181 -1637 -51 51 -32 32 -315 0 0 0 0 2.167 1.000 0.013 
3.20 238078 -1534 -103 103 -52 52 -250 0 0 0 0 65.322 1.000 0.380 
3.22 237973 -1429 -105 105 -2 2 -179 0 0 0 0 71.226 1.000 0.414 
3.24 237940 -1396 -33 33 72 -72 -189 0 0 0 0 -10.180 1.000 -0.059 
3.26 237940 -1396 0 0 33 -33 -237 0 0 0 0 -48.011 1.000 -0.279 
3.28 237939 -1395 -1 1 -1 1 -284 0 0 0 0 -46.830 1.000 -0.272 
3.30 237923 -1379 -16 16 -15 15 -313 0 0 0 0 -29.084 1.000 -0.169 
3.32 237857 -1313 -66 66 -50 50 -282 0 0 0 0 30.506 1.000 0.177 
3.34 237757 -1213 -100 100 -34 34 -209 0 0 0 0 72.923 1.000 0.424 
3.36 237683 -1139 -74 74 26 -26 -163 0 0 0 0 45.661 1.000 0.266 
3.38 237671 -1127 -12 12 62 -62 -188 0 0 0 0 -25.003 1.000 -0.145 
3.40 237671 -1127 0 0 12 -12 -227 0 0 0 0 -38.760 1.000 -0.225 
3.42 237671 -1127 0 0 0 0 -266 0 0 0 0 -38.760 1.000 -0.225 
3.44 237669 -1125 -2 2 -2 2 -302 0 0 0 0 -36.398 1.000 -0.212 
3.46 237648 -1104 -21 21 -19 19 -316 0 0 0 0 -13.894 1.000 -0.081 
3.48 237586 -1042 -62 62 -41 41 -281 0 0 0 0 35.240 1.000 0.205 
3.50 237507 -963 -79 79 -17 17 -224 0 0 0 0 57.446 1.000 0.334 
3.52 237448 -904 -59 59 20 -20 -187 0 0 0 0 36.547 1.000 0.213 
3.54 237431 -887 -17 17 42 -42 -198 0 0 0 0 -11.017 1.000 -0.064 
3.56 237431 -887 0 0 17 -17 -229 0 0 0 0 -30.506 1.000 -0.177 
3.58 237431 -887 0 0 0 0 -260 0 0 0 0 -30.506 1.000 -0.177 
3.60 237428 -884 -3 3 -3 3 -287 0 0 0 0 -26.963 1.000 -0.157 
3.62 237415 -871 -13 13 -10 10 -302 0 0 0 0 -15.052 1.000 -0.088 
3.64 237380 -836 -35 35 -22 22 -291 0 0 0 0 11.372 1.000 0.066 
3.66 237324 -780 -56 56 -21 21 -254 0 0 0 0 37.373 1.000 0.217 
3.68 237268 -724 -56 56 0 0 -215 0 0 0 0 39.299 1.000 0.229 
3.70 237248 -704 -20 20 36 -36 -216 0 0 0 0 -1.284 1.000 -0.007 
3.72 237247 -703 -1 1 19 -19 -239 0 0 0 0 -23.031 1.000 -0.134 
3.74 237247 -703 0 0 1 -1 -263 0 0 0 0 -24.178 1.000 -0.141 
3.76 237243 -699 -4 4 -4 4 -282 0 0 0 0 -19.454 1.000 -0.113 
3.78 237234 -690 -9 9 -5 5 -295 0 0 0 0 -13.413 1.000 -0.078 
3.80 237202 -658 -32 32 -23 23 -281 0 0 0 0 14.055 1.000 0.082 
3.82 237143 -599 -59 59 -27 27 -234 0 0 0 0 47.037 1.000 0.274 
3.84 237097 -553 -46 46 13 -13 -200 0 0 0 0 33.716 1.000 0.196 
3.86 237093 -549 -4 4 42 -42 -214 0 0 0 0 -14.296 1.000 -0.083 
3.88 237093 -549 0 0 4 -4 -233 0 0 0 0 -18.881 1.000 -0.110 
3.90 237093 -549 0 0 0 0 -252 0 0 0 0 -18.881 1.000 -0.110 
3.92 237093 -549 0 0 0 0 -271 0 0 0 0 -18.881 1.000 -0.110 
3.94 237091 -547 -2 2 -2 2 -288 0 0 0 0 -16.520 1.000 -0.096 
3.96 237068 -524 -23 23 -21 21 -280 0 0 0 0 8.346 1.000 0.049 
3.98 237029 -485 -39 39 -16 16 -252 0 0 0 0 28.029 1.000 0.163 
4.00 236990 -446 -39 39 0 0 -223 0 0 0 0 29.371 1.000 0.171 