0.02 0 40 0 40 0 40 13 0 0 0 0 0.812 1.000 0.114 
0.04 374 -213 374 -253 374 -293 8 0 0 0 0 -5.082 1.000 -0.714 
0.06 821 -458 447 -245 73 8 3 0 0 0 0 -5.241 1.000 -0.736 
0.08 930 -284 109 174 -338 419 6 0 0 0 0 2.949 1.000 0.414 
0.10 930 80 0 364 -109 190 13 0 0 0 0 7.025 1.000 0.987 
0.12 1309 146 379 66 379 -298 14 0 0 0 0 1.441 1.000 0.202 
0.14 1829 151 520 5 141 -61 14 0 0 0 0 0.287 1.000 0.040 
0.16 2353 234 524 83 4 78 16 0 0 0 0 1.875 1.000 0.263 
0.18 2878 396 525 162 1 79 20 0 0 0 0 3.584 1.000 0.503 
0.20 3401 641 523 245 -2 83 25 0 0 0 0 5.473 1.000 0.769 
0.22 3926 965 525 324 2 79 32 0 0 0 0 7.120 1.000 1.000 
0.24 4453 1368 527 403 2 79 39 0 0 0 0 7.120 1.000 1.000 
0.26 5167 1665 714 297 187 -106 46 0 0 0 0 7.120 1.000 1.000 
0.28 6146 1777 979 112 265 -185 50 0 0 0 0 4.384 1.000 0.616 
0.30 7223 1873 1077 96 98 -16 54 0 0 0 0 4.201 1.000 0.590 
0.32 8317 2032 1094 159 17 63 60 0 0 0 0 5.601 1.000 0.787 
0.34 9417 2266 1100 234 6 75 67 0 0 0 0 7.120 1.000 1.000 
0.36 10515 2583 1098 317 -2 83 74 0 0 0 0 7.120 1.000 1.000 
0.38 11847 2747 1332 164 234 -153 81 0 0 0 0 6.603 1.000 0.927 
0.40 13452 2719 1605 -28 273 -192 84 0 0 0 0 2.915 1.000 0.409 
0.42 15236 2592 1784 -127 179 -99 85 0 0 0 0 0.871 1.000 0.122 
0.44 17233 2333 1997 -259 213 -132 83 0 0 0 0 -1.968 1.000 -0.276 
0.46 19518 1868 2285 -465 288 -206 77 0 0 0 0 -6.476 1.000 -0.910 
0.48 22091 1195 2573 -673 288 -208 70 0 0 0 0 -7.120 1.000 -1.000 
0.50 24841 426 2750 -769 177 -96 63 0 0 0 0 -7.120 1.000 -1.000 
0.52 27606 -278 2765 -704 15 65 56 0 0 0 0 -7.120 1.000 -1.000 
0.54 30355 -884 2749 -606 -16 98 49 0 0 0 0 -7.120 1.000 -1.000 
0.56 33110 -1415 2755 -531 6 75 42 0 0 0 0 -7.120 1.000 -1.000 
0.58 35635 -1636 2525 -221 -230 310 36 0 0 0 0 -6.278 1.000 -0.882 
0.60 37805 -1421 2170 215 -355 436 38 0 0 0 0 2.288 1.000 0.321 
0.62 39802 -952 1997 469 -173 254 45 0 0 0 0 7.120 1.000 1.000 
0.64 41673 -276 1871 676 -126 207 52 0 0 0 0 7.120 1.000 1.000 
0.66 43551 474 1878 750 7 74 59 0 0 0 0 7.120 1.000 1.000 
0.68 45512 1222 1961 748 83 -2 66 0 0 0 0 7.120 1.000 1.000 
0.70 47597 1926 2085 704 124 -44 73 0 0 0 0 7.120 1.000 1.000 
0.72 49858 2536 2261 610 176 -94 80 0 0 0 0 7.120 1.000 1.000 
0.74 52381 2964 2523 428 262 -182 87 0 0 0 0 7.120 1.000 1.000 
0.76 55195 3182 2814 218 291 -210 94 0 0 0 0 7.120 1.000 1.000 
0.78 58393 3097 3198 -85 384 -303 96 0 0 0 0 2.310 1.000 0.324 
0.80 61903 2781 3510 -316 312 -231 94 0 0 0 0 -2.484 1.000 -0.349 
0.82 65451 2507 3548 -274 38 42 92 0 0 0 0 -2.033 1.000 -0.285 
0.84 68978 2336 3527 -171 -21 103 92 0 0 0 0 -0.290 1.000 -0.041 
0.86 72489 2261 3511 -75 -16 96 93 0 0 0 0 1.441 1.000 0.202 
0.88 75990 2277 3501 16 -10 91 96 0 0 0 0 3.192 1.000 0.448 
0.90 79538 2327 3548 50 47 34 100 0 0 0 0 3.902 1.000 0.548 
0.92 83244 2300 3706 -27 158 -77 102 0 0 0 0 2.403 1.000 0.337 
0.94 87144 2160 3900 -140 194 -113 102 0 0 0 0 0.076 1.000 0.011 
0.96 91155 1989 4011 -171 111 -31 101 0 0 0 0 -0.730 1.000 -0.103 
0.98 95227 1839 4072 -150 61 21 100 0 0 0 0 -0.521 1.000 -0.073 
1.00 99385 1683 4158 -156 86 -6 99 0 0 0 0 -0.833 1.000 -0.117 
1.02 103678 1473 4293 -210 135 -54 97 0 0 0 0 -2.127 1.000 -0.299 
1.04 108049 1266 4371 -207 78 3 95 0 0 0 0 -2.332 1.000 -0.328 
1.06 112512 1048 4463 -218 92 -11 92 0 0 0 0 -2.818 1.000 -0.396 
1.08 117077 809 4565 -239 102 -21 88 0 0 0 0 -3.520 1.000 -0.494 
1.10 121840 453 4763 -356 198 -117 82 0 0 0 0 -6.197 1.000 -0.870 
1.12 126640 140 4800 -313 37 43 76 0 0 0 0 -5.776 1.000 -0.811 
1.14 131147 202 4507 62 -293 375 77 0 0 0 0 1.435 1.000 0.202 
1.16 135544 454 4397 252 -110 190 82 0 0 0 0 5.369 1.000 0.754 
1.18 140092 636 4548 182 151 -70 86 0 0 0 0 4.268 1.000 0.599 
1.20 144896 643 4804 7 256 -175 87 0 0 0 0 0.948 1.000 0.133 
1.22 149853 577 4957 -66 153 -73 86 0 0 0 0 -0.524 1.000 -0.074 
1.24 154809 594 4956 17 -1 83 87 0 0 0 0 1.077 1.000 0.151 
1.26 159781 675 4972 81 16 64 89 0 0 0 0 2.397 1.000 0.337 
1.28 164845 746 5064 71 92 -10 91 0 0 0 0 2.296 1.000 0.323 
1.30 170021 785 5176 39 112 -32 93 0 0 0 0 1.737 1.000 0.244 
1.32 175315 787 5294 2 118 -37 94 0 0 0 0 1.036 1.000 0.146 
1.34 180683 796 5368 9 74 7 95 0 0 0 0 1.181 1.000 0.166 
1.36 186112 824 5429 28 61 19 97 0 0 0 0 1.577 1.000 0.222 
1.38 191635 840 5523 16 94 -12 98 0 0 0 0 1.369 1.000 0.192 
1.40 197232 862 5597 22 74 6 100 0 0 0 0 1.512 1.000 0.212 
1.42 202930 865 5698 3 101 -19 101 0 0 0 0 1.154 1.000 0.162 
1.44 208701 875 5771 10 73 7 102 0 0 0 0 1.300 1.000 0.183 
1.46 214529 909 5828 34 57 24 104 0 0 0 0 1.799 1.000 0.253 
1.48 220454 927 5925 18 97 -16 106 0 0 0 0 1.518 1.000 0.213 
1.50 226498 906 6044 -21 119 -39 107 0 0 0 0 0.749 1.000 0.105 
1.52 232616 893 6118 -13 74 8 108 0 0 0 0 0.885 1.000 0.124 
1.54 238797 897 6181 4 63 17 109 0 0 0 0 1.214 1.000 0.170 
1.56 245032 928 6235 31 54 27 111 0 0 0 0 1.766 1.000 0.248 
1.58 251361 947 6329 19 94 -12 113 0 0 0 0 1.562 1.000 0.219 
1.60 257802 934 6441 -13 112 -32 114 0 0 0 0 0.937 1.000 0.132 
1.62 264319 925 6517 -9 76 4 115 0 0 0 0 1.002 1.000 0.141 
1.64 270899 935 6580 10 63 19 116 0 0 0 0 1.376 1.000 0.193 
1.66 277536 969 6637 34 57 24 118 0 0 0 0 1.875 1.000 0.263 
1.68 284263 993 6727 24 90 -10 120 0 0 0 0 1.716 1.000 0.241 
1.70 291089 999 6826 6 99 -18 121 0 0 0 0 1.381 1.000 0.194 
1.72 298007 994 6918 -5 92 -11 122 0 0 0 0 1.165 1.000 0.164 
1.74 304973 1022 6966 28 48 33 124 0 0 0 0 1.829 1.000 0.257 
1.76 312037 1033 7064 11 98 -17 126 0 0 0 0 1.519 1.000 0.213 
1.78 319223 1003 7186 -30 122 -41 127 0 0 0 0 0.701 1.000 0.098 
1.80 326462 1000 7239 -3 53 27 128 0 0 0 0 1.211 1.000 0.170 
1.82 333763 1017 7301 17 62 20 130 0 0 0 0 1.613 1.000 0.227 
1.84 341158 1020 7395 3 94 -14 131 0 0 0 0 1.350 1.000 0.190 
1.86 348613 1044 7455 24 60 21 133 0 0 0 0 1.780 1.000 0.250 
1.88 356154 1063 7541 19 86 -5 135 0 0 0 0 1.709 1.000 0.240 
1.90 363804 1054 7650 -9 109 -28 136 0 0 0 0 1.165 1.000 0.164 
1.92 371531 1048 7727 -6 77 3 137 0 0 0 0 1.215 1.000 0.171 
1.94 379315 1067 7784 19 57 25 139 0 0 0 0 1.714 1.000 0.241 
1.96 387180 1085 7865 18 81 -1 141 0 0 0 0 1.718 1.000 0.241 
1.98 395153 1077 7973 -8 108 -26 142 0 0 0 0 1.214 1.000 0.170 
2.00 403219 1056 8066 -21 93 -13 143 0 0 0 0 0.940 1.000 0.132 
2.02 411321 1039 8102 -17 36 4 144 0 0 0 0 0.994 1.000 0.140 
2.04 419469 977 8148 -62 46 -45 144 0 0 0 0 0.060 1.000 0.008 
2.06 427640 891 8171 -86 23 -24 143 0 0 0 0 -0.506 1.000 -0.071 
2.08 435780 837 8140 -54 -31 32 143 0 0 0 0 0.034 1.000 0.005 
2.10 443889 813 8109 -24 -31 30 144 0 0 0 0 0.574 1.000 0.081 
2.12 452037 751 8148 -62 39 -38 144 0 0 0 0 -0.227 1.000 -0.032 
2.14 460210 663 8173 -88 25 -26 143 0 0 0 0 -0.833 1.000 -0.117 
2.16 468326 633 8116 -30 -57 58 143 0 0 0 0 0.232 1.000 0.033 
2.18 476434 610 8108 -23 -8 7 143 0 0 0 0 0.336 1.000 0.047 
2.20 484536 594 8102 -16 -6 7 143 0 0 0 0 0.449 1.000 0.063 
2.22 492660 555 8124 -39 22 -23 143 0 0 0 0 -0.038 1.000 -0.005 
2.24 500769 532 8109 -23 -15 16 143 0 0 0 0 0.237 1.000 0.033 
2.26 508881 505 8112 -27 3 -4 143 0 0 0 0 0.127 1.000 0.018 
2.28 516987 485 8106 -20 -6 7 143 0 0 0 0 0.235 1.000 0.033 
2.30 525094 463 8107 -22 1 -2 143 0 0 0 0 0.169 1.000 0.024 
2.32 533212 431 8118 -32 11 -10 143 0 0 0 0 -0.062 1.000 -0.009 
2.34 541322 406 8110 -25 -8 7 143 0 0 0 0 0.039 1.000 0.006 
2.36 549434 380 8112 -26 2 -1 143 0 0 0 0 -0.013 1.000 -0.002 
2.38 557551 348 8117 -32 5 -6 143 0 0 0 0 -0.167 1.000 -0.024 
2.40 565660 325 8109 -23 -8 9 143 0 0 0 0 -0.025 1.000 -0.004 
2.42 573756 314 8096 -11 -13 12 143 0 0 0 0 0.189 1.000 0.027 
2.44 581854 302 8098 -12 2 -1 143 0 0 0 0 0.155 1.000 0.022 
2.46 589956 285 8102 -17 4 -5 143 0 0 0 0 0.038 1.000 0.005 
2.48 598061 266 8105 -19 3 -2 143 0 0 0 0 -0.024 1.000 -0.003 
2.50 606153 259 8092 -7 -13 12 143 0 0 0 0 0.195 1.000 0.027 
2.52 614259 239 8106 -20 14 -13 143 0 0 0 0 -0.077 1.000 -0.011 
2.54 622368 215 8109 -24 3 -4 143 0 0 0 0 -0.184 1.000 -0.026 
2.56 630483 186 8115 -29 6 -5 143 0 0 0 0 -0.316 1.000 -0.044 
2.58 638585 169 8102 -17 -13 12 143 0 0 0 0 -0.109 1.000 -0.015 
2.60 646680 160 8095 -9 -7 8 143 0 0 0 0 0.032 1.000 0.004 
2.62 654786 139 8106 -21 11 -12 143 0 0 0 0 -0.223 1.000 -0.031 
2.64 662894 117 8108 -22 2 -1 143 0 0 0 0 -0.270 1.000 -0.038 
2.66 670991 105 8097 -12 -11 10 143 0 0 0 0 -0.095 1.000 -0.013 
2.68 679086 96 8095 -9 -2 3 143 0 0 0 0 -0.049 1.000 -0.007 
2.70 687170 97 8084 1 -11 10 143 0 0 0 0 0.142 1.000 0.020 
2.72 695284 69 8114 -28 30 -29 143 0 0 0 0 -0.445 1.000 -0.063 
2.74 703385 53 8101 -16 -13 12 143 0 0 0 0 -0.237 1.000 -0.033 
2.76 711479 45 8094 -8 -7 8 143 0 0 0 0 -0.095 1.000 -0.013 
2.78 719579 30 8100 -15 6 -7 143 0 0 0 0 -0.247 1.000 -0.035 
2.80 727676 19 8097 -11 -3 4 143 0 0 0 0 -0.185 1.000 -0.026 
2.82 735790 -10 8114 -29 17 -18 142 0 0 0 0 -0.564 1.000 -0.079 
2.84 743891 -25 8101 -15 -13 14 142 0 0 0 0 -0.317 1.000 -0.045 
2.86 751971 -20 8080 5 -21 20 142 0 0 0 0 0.070 1.000 0.010 
2.88 760032 5 8061 25 -19 20 142 0 0 0 0 0.482 1.000 0.068 
2.90 768070 52 8038 47 -23 22 143 0 0 0 0 0.960 1.000 0.135 
2.92 776175 33 8105 -19 67 -66 143 0 0 0 0 -0.320 1.000 -0.045 
2.94 784281 12 8106 -21 1 -2 143 0 0 0 0 -0.384 1.000 -0.054 
2.96 792383 -4 8102 -16 -4 5 143 0 0 0 0 -0.309 1.000 -0.043 
2.98 800475 -11 8092 -7 -10 9 143 0 0 0 0 -0.147 1.000 -0.021 
3.00 808585 -35 8110 -24 18 -17 142 0 0 0 0 -0.501 1.000 -0.070 
3.02 816647 -12 8062 23 -48 47 142 0 0 0 0 0.422 1.000 0.059 
3.04 824711 10 8064 22 2 -1 142 0 0 0 0 0.431 1.000 0.061 
3.06 832753 53 8042 43 -22 21 143 0 0 0 0 0.885 1.000 0.124 
3.08 840816 76 8063 23 21 -20 144 0 0 0 0 0.534 1.000 0.075 
3.10 848928 49 8112 -27 49 -50 144 0 0 0 0 -0.451 1.000 -0.063 
3.12 857072 -9 8144 -58 32 -31 143 0 0 0 0 -1.115 1.000 -0.157 
3.14 865186 -38 8114 -29 -30 29 142 0 0 0 0 -0.600 1.000 -0.084 
3.16 873245 -11 8059 27 -55 56 142 0 0 0 0 0.500 1.000 0.070 
3.18 881302 17 8057 28 -2 1 143 0 0 0 0 0.554 1.000 0.078 
3.20 889368 37 8066 20 9 -8 143 0 0 0 0 0.427 1.000 0.060 
3.22 897458 32 8090 -5 24 -25 143 0 0 0 0 -0.055 1.000 -0.008 
3.24 905542 34 8084 2 -6 7 143 0 0 0 0 0.081 1.000 0.011 
3.26 913626 35 8084 1 0 -1 143 0 0 0 0 0.063 1.000 0.009 
3.28 921711 36 8085 1 1 0 143 0 0 0 0 0.065 1.000 0.009 
3.30 929785 47 8074 11 -11 10 143 0 0 0 0 0.269 1.000 0.038 
3.32 937886 32 8101 -15 27 -26 143 0 0 0 0 -0.245 1.000 -0.034 
3.34 945970 33 8084 1 -17 16 143 0 0 0 0 0.061 1.000 0.009 
3.36 954055 34 8085 1 1 0 143 0 0 0 0 0.062 1.000 0.009 
3.38 962150 24 8095 -10 10 -11 143 0 0 0 0 -0.160 1.000 -0.022 
3.40 970247 13 8097 -11 2 -1 143 0 0 0 0 -0.193 1.000 -0.027 
3.42 978340 5 8093 -8 -4 3 143 0 0 0 0 -0.146 1.000 -0.020 
3.44 986444 -13 8104 -18 11 -10 143 0 0 0 0 -0.359 1.000 -0.050 
3.46 994542 -26 8098 -13 -6 5 143 0 0 0 0 -0.280 1.000 -0.039 
3.48 1002639 -37 8097 -11 -1 2 143 0 0 0 0 -0.256 1.000 -0.036 
3.50 1010726 -39 8087 -2 -10 9 143 0 0 0 0 -0.087 1.000 -0.012 
3.52 1018813 -40 8087 -1 0 1 143 0 0 0 0 -0.070 1.000 -0.010 
3.54 1026918 -60 8105 -20 18 -19 143 0 0 0 0 -0.456 1.000 -0.064 
3.56 1035015 -71 8097 -11 -8 9 143 0 0 0 0 -0.299 1.000 -0.042 
3.58 1043098 -69 8083 2 -14 13 143 0 0 0 0 -0.049 1.000 -0.007 
3.60 1051192 -77 8094 -8 11 -10 143 0 0 0 0 -0.250 1.000 -0.035 
3.62 1059285 -85 8093 -8 -1 0 143 0 0 0 0 -0.260 1.000 -0.037 
3.64 1067383 -97 8098 -12 5 -4 143 0 0 0 0 -0.351 1.000 -0.049 
3.66 1075463 -92 8080 5 -18 17 143 0 0 0 0 -0.022 1.000 -0.003 
3.68 1083531 -74 8068 18 -12 13 143 0 0 0 0 0.249 1.000 0.035 
3.70 1091610 -68 8079 6 11 -12 143 0 0 0 0 0.028 1.000 0.004 
3.72 1099693 -65 8083 3 4 -3 143 0 0 0 0 -0.025 1.000 -0.004 
3.74 1107771 -58 8078 7 -5 4 143 0 0 0 0 0.060 1.000 0.008 
3.76 1115830 -31 8059 27 -19 20 143 0 0 0 0 0.474 1.000 0.067 
3.78 1123914 -30 8084 1 25 -26 143 0 0 0 0 -0.019 1.000 -0.003 
3.80 1132003 -33 8089 -3 5 -4 143 0 0 0 0 -0.099 1.000 -0.014 
3.82 1140077 -22 8074 11 -15 14 143 0 0 0 0 0.181 1.000 0.025 
3.84 1148169 -28 8092 -6 18 -17 143 0 0 0 0 -0.150 1.000 -0.021 
3.86 1156251 -25 8082 3 -10 9 143 0 0 0 0 0.025 1.000 0.004 
3.88 1164322 -10 8071 15 -11 12 143 0 0 0 0 0.273 1.000 0.038 
3.90 1172412 -27 8090 -17 19 -32 143 0 0 0 0 -0.358 1.000 -0.050 
3.92 1180497 -112 8085 -85 -5 -68 141 0 0 0 0 -1.759 1.000 -0.247 
3.94 1188546 -242 8049 -130 -36 -45 138 0 0 0 0 -2.780 1.000 -0.390 
3.96 1196441 -298 7895 -56 -154 74 137 0 0 0 0 -1.443 1.000 -0.203 
3.98 1204267 -366 7826 -68 -69 -12 135 0 0 0 0 -1.758 1.000 -0.247 
4.00 1211975 -398 7708 -32 -118 36 134 0 0 0 0 -1.113 1.000 -0.156 
4.02 1219618 -445 7643 -47 -65 -15 133 0 0 0 0 -1.458 1.000 -0.205 
4.04 1227208 -520 7590 -75 -53 -28 131 0 0 0 0 -2.086 1.000 -0.293 
4.06 1234712 -590 7504 -70 -86 5 129 0 0 0 0 -2.080 1.000 -0.292 
4.08 1242114 -638 7402 -48 -102 22 127 0 0 0 0 -1.722 1.000 -0.242 
4.10 1249390 -642 7276 -4 -126 44 126 0 0 0 0 -0.890 1.000 -0.125 
4.12 1256592 -652 7202 -10 -74 -6 125 0 0 0 0 -1.017 1.000 -0.143 
4.14 1263750 -700 7158 -48 -44 -38 123 0 0 0 0 -1.801 1.000 -0.253 
4.16 1270827 -747 7077 -47 -81 1 121 0 0 0 0 -1.841 1.000 -0.259 
4.18 1277778 -749 6951 -2 -126 45 120 0 0 0 0 -0.988 1.000 -0.139 
4.20 1284660 -763 6882 -14 -69 -12 119 0 0 0 0 -1.234 1.000 -0.173 
4.22 1291474 -789 6814 -26 -68 -12 118 0 0 0 0 -1.495 1.000 -0.210 
4.24 1298231 -840 6757 -51 -57 -25 116 0 0 0 0 -2.035 1.000 -0.286 
4.26 1304886 -869 6655 -29 -102 22 114 0 0 0 0 -1.654 1.000 -0.232 
4.28 1311437 -875 6551 -6 -104 23 113 0 0 0 0 -1.224 1.000 -0.172 
4.30 1317905 -879 6468 -4 -83 2 112 0 0 0 0 -1.191 1.000 -0.167 
4.32 1324306 -897 6401 -18 -67 -14 111 0 0 0 0 -1.480 1.000 -0.208 
4.34 1330660 -949 6354 -52 -47 -34 109 0 0 0 0 -2.192 1.000 -0.308 
4.36 1336920 -988 6260 -39 -94 13 107 0 0 0 0 -1.995 1.000 -0.280 
4.38 1343066 -993 6146 -5 -114 34 106 0 0 0 0 -1.354 1.000 -0.190 
4.40 1349133 -1001 6067 -8 -79 -3 105 0 0 0 0 -1.421 1.000 -0.200 
4.42 1355146 -1035 6013 -34 -54 -26 103 0 0 0 0 -1.959 1.000 -0.275 
4.44 1361062 -1053 5916 -18 -97 16 101 0 0 0 0 -1.678 1.000 -0.236 
4.46 1366859 -1033 5797 20 -119 38 100 0 0 0 0 -0.929 1.000 -0.131 
4.48 1372565 -1003 5706 30 -91 10 99 0 0 0 0 -0.701 1.000 -0.098 
4.50 1378216 -998 5651 5 -55 -25 98 0 0 0 0 -1.170 1.000 -0.164 
4.52 1383807 -1015 5591 -17 -60 -22 96 0 0 0 0 -1.610 1.000 -0.226 
4.54 1389312 -1026 5505 -11 -86 6 94 0 0 0 0 -1.510 1.000 -0.212 
4.56 1394703 -1004 5391 22 -114 33 93 0 0 0 0 -0.855 1.000 -0.120 
4.58 1400014 -983 5311 21 -80 -1 92 0 0 0 0 -0.847 1.000 -0.119 
4.60 1405266 -984 5252 -1 -59 -22 91 0 0 0 0 -1.267 1.000 -0.178 
4.62 1410460 -1008 5194 -24 -58 -23 89 0 0 0 0 -1.735 1.000 -0.244 
4.64 1415561 -1020 5101 -12 -93 12 87 0 0 0 0 -1.522 1.000 -0.214 
4.66 1420552 -1002 4991 18 -110 30 86 0 0 0 0 -0.928 1.000 -0.130 
4.68 1425457 -980 4905 22 -86 4 85 0 0 0 0 -0.824 1.000 -0.116 
4.70 1430308 -984 4851 -4 -54 -26 84 0 0 0 0 -1.324 1.000 -0.186 
4.72 1435094 -1004 4786 -20 -65 -16 82 0 0 0 0 -1.654 1.000 -0.232 
4.74 1439786 -1011 4692 -7 -94 13 81 0 0 0 0 -1.415 1.000 -0.199 
4.76 1444403 -1024 4617 -13 -75 -6 79 0 0 0 0 -1.546 1.000 -0.217 
4.78 1448920 -1017 4517 7 -100 20 78 0 0 0 0 -1.156 1.000 -0.162 
4.80 1453357 -1012 4437 5 -80 -2 77 0 0 0 0 -1.188 1.000 -0.167 
4.82 1457733 -1026 4376 -14 -61 -19 75 0 0 0 0 -1.567 1.000 -0.220 
4.84 1462011 -1023 4278 3 -98 17 74 0 0 0 0 -1.240 1.000 -0.174 
4.86 1466206 -1018 4195 5 -83 2 73 0 0 0 0 -1.196 1.000 -0.168 
4.88 1470344 -1037 4138 -19 -57 -24 71 0 0 0 0 -1.676 1.000 -0.235 
4.90 1474393 -1048 4049 -11 -89 8 69 0 0 0 0 -1.538 1.000 -0.216 
4.92 1478326 -1023 3933 25 -116 36 68 0 0 0 0 -0.822 1.000 -0.115 
4.94 1482179 -1000 3853 23 -80 -2 67 0 0 0 0 -0.831 1.000 -0.117 
4.96 1485969 -994 3790 6 -63 -17 66 0 0 0 0 -1.146 1.000 -0.161 
4.98 1489703 -1013 3734 -19 -56 -25 64 0 0 0 0 -1.646 1.000 -0.231 
5.00 1493337 -1013 3634 0 -100 19 63 0 0 0 0 -1.285 1.000 -0.180 
5.02 1496897 -1020 3560 -7 -74 -7 62 0 0 0 0 -1.427 1.000 -0.200 
5.04 1500398 -1049 3501 -29 -59 -22 60 0 0 0 0 -1.882 1.000 -0.264 
5.06 1503807 -1066 3409 -17 -92 12 58 0 0 0 0 -1.675 1.000 -0.235 
5.08 1507099 -1048 3292 18 -117 35 57 0 0 0 0 -0.987 1.000 -0.139 
5.10 1510306 -1025 3207 23 -85 5 56 0 0 0 0 -0.862 1.000 -0.121 
5.12 1513452 -1022 3146 3 -61 -20 55 0 0 0 0 -1.239 1.000 -0.174 
5.14 1516536 -1038 3084 -16 -62 -19 53 0 0 0 0 -1.621 1.000 -0.228 
5.16 1519526 -1041 2990 -3 -94 13 52 0 0 0 0 -1.377 1.000 -0.193 
5.18 1522433 -1042 2907 -1 -83 2 51 0 0 0 0 -1.340 1.000 -0.188 
5.20 1525271 -1054 2838 -12 -69 -11 49 0 0 0 0 -1.565 1.000 -0.220 
5.22 1528019 -1058 2748 -4 -90 8 48 0 0 0 0 -1.418 1.000 -0.199 
5.24 1530664 -1039 2645 19 -103 23 47 0 0 0 0 -0.956 1.000 -0.134 
5.26 1533131 -923 2467 116 -178 97 48 0 0 0 0 1.036 1.000 0.146 
5.28 1535342 -632 2211 291 -256 175 53 0 0 0 0 4.734 1.000 0.665 
5.30 1537347 -216 2005 416 -206 125 60 0 0 0 0 7.120 1.000 1.000 
5.32 1539264 207 1917 423 -88 7 67 0 0 0 0 7.120 1.000 1.000 
5.34 1541147 584 1883 377 -34 -46 74 0 0 0 0 7.120 1.000 1.000 
5.36 1543069 840 1922 256 39 -121 80 0 0 0 0 5.934 1.000 0.833 
5.38 1545023 984 1954 144 32 -112 84 0 0 0 0 3.987 1.000 0.560 
5.40 1547045 979 2022 -5 68 -149 85 0 0 0 0 1.146 1.000 0.161 
5.42 1549148 812 2103 -167 81 -162 83 0 0 0 0 -2.147 1.000 -0.302 
5.44 1551361 454 2213 -358 110 -191 77 0 0 0 0 -6.234 1.000 -0.876 
5.46 1553677 -88 2316 -542 103 -184 70 0 0 0 0 -7.120 1.000 -1.000 
5.48 1556051 -768 2374 -680 58 -138 63 0 0 0 0 -7.120 1.000 -1.000 
5.50 1558376 -1481 2325 -713 -49 -33 56 0 0 0 0 -7.120 1.000 -1.000 
5.52 1560563 -2136 2187 -655 -138 58 49 0 0 0 0 -7.120 1.000 -1.000 
5.54 1562551 -2673 1988 -537 -199 118 42 0 0 0 0 -7.120 1.000 -1.000 
5.56 1564298 -3050 1747 -377 -241 160 35 0 0 0 0 -7.120 1.000 -1.000 
5.58 1565730 -3193 1432 -143 -315 234 28 0 0 0 0 -6.769 1.000 -0.951 
5.60 1566794 -3048 1064 145 -368 288 27 0 0 0 0 -1.107 1.000 -0.155 
5.62 1567483 -2610 689 438 -375 293 32 0 0 0 0 5.021 1.000 0.705 
5.64 1567975 -2055 492 555 -197 117 39 0 0 0 0 7.120 1.000 1.000 
5.66 1568729 -1843 754 212 262 -343 41 0 0 0 0 1.695 1.000 0.238 
5.68 1569643 -1873 914 -30 160 -242 38 0 0 0 0 -2.946 1.000 -0.414 
5.70 1570493 -1918 850 -45 -64 -15 35 0 0 0 0 -3.288 1.000 -0.462 
5.72 1571094 -1796 601 122 -249 167 35 0 0 0 0 0.043 1.000 0.006 
5.74 1571580 -1640 486 156 -115 34 36 0 0 0 0 0.888 1.000 0.125 
5.76 1572058 -1556 478 84 -8 -72 36 0 0 0 0 -0.375 1.000 -0.053 
5.78 1572538 -1556 480 0 2 -84 34 0 0 0 0 -1.973 1.000 -0.277 
5.80 1573017 -1635 479 -79 -1 -79 30 0 0 0 0 -3.576 1.000 -0.502 
5.82 1573501 -1800 484 -165 5 -86 25 0 0 0 0 -5.421 1.000 -0.761 
5.84 1573986 -2047 485 -247 1 -82 18 0 0 0 0 -7.120 1.000 -1.000 
5.86 1574471 -2375 485 -328 0 -81 11 0 0 0 0 -7.120 1.000 -1.000 
5.88 1574954 -2782 483 -407 -2 -79 4 0 0 0 0 -7.120 1.000 -1.000 
5.90 1575041 -2860 87 -78 -396 329 -1 0 0 0 0 -5.110 1.000 -0.718 
5.92 1575034 -2853 -7 7 -94 85 -4 0 0 0 0 -3.485 1.000 -0.489 
5.94 1575031 -2850 -3 3 4 -4 -8 0 0 0 0 -3.557 1.000 -0.500 
5.96 1574651 -2470 -380 380 -377 377 -4 0 0 0 0 4.096 1.000 0.575 
5.98 1574506 -2325 -145 145 235 -235 -4 0 0 0 0 -0.190 1.000 -0.027 
6.00 1574505 -2324 -1 1 144 -144 -7 0 0 0 0 -2.928 1.000 -0.411 
6.02 1574179 -1998 -326 326 -325 325 -3 0 0 0 0 3.667 1.000 0.515 
6.04 1574027 -1846 -152 152 174 -174 -2 0 0 0 0 0.550 1.000 0.077 
6.06 1574027 -1846 0 0 152 -152 -4 0 0 0 0 -2.341 1.000 -0.329 
6.08 1574027 -1846 0 0 0 0 -6 0 0 0 0 -2.341 1.000 -0.329 
6.10 1574027 -1846 0 0 0 0 -8 0 0 0 0 -2.341 1.000 -0.329 
6.12 1573677 -1496 -350 350 -350 350 -3 0 0 0 0 4.760 1.000 0.669 
6.14 1573557 -1376 -120 120 230 -230 -2 0 0 0 0 0.538 1.000 0.076 
6.16 1573557 -1376 0 0 120 -120 -4 0 0 0 0 -1.745 1.000 -0.245 
6.18 1573557 -1376 0 0 0 0 -6 0 0 0 0 -1.745 1.000 -0.245 
6.20 1573557 -1376 0 0 0 0 -8 0 0 0 0 -1.745 1.000 -0.245 
6.22 1573179 -998 -378 378 -378 378 -2 0 0 0 0 5.924 1.000 0.832 
6.24 1573042 -861 -137 137 241 -241 0 0 0 0 0 1.514 1.000 0.213 
6.26 1573042 -861 0 0 137 -137 -1 0 0 0 0 -1.092 1.000 -0.153 
6.28 1573042 -861 0 0 0 0 -2 0 0 0 0 -1.092 1.000 -0.153 
6.30 1573042 -861 0 0 0 0 -3 0 0 0 0 -1.092 1.000 -0.153 
6.32 1573042 -861 0 0 0 0 -4 0 0 0 0 -1.092 1.000 -0.153 
6.34 1573042 -861 0 0 0 0 -5 0 0 0 0 -1.092 1.000 -0.153 
6.36 1573042 -861 0 0 0 0 -6 0 0 0 0 -1.092 1.000 -0.153 
6.38 1573042 -861 0 0 0 0 -7 0 0 0 0 -1.092 1.000 -0.153 
6.40 1572695 -514 -347 347 -347 347 -1 0 0 0 0 5.948 1.000 0.835 
6.42 1572555 -374 -140 140 207 -207 1 0 0 0 0 2.189 1.000 0.307 
6.44 1572555 -374 0 0 140 -140 1 0 0 0 0 -0.474 1.000 -0.067 
6.46 1572555 -374 0 0 0 0 1 0 0 0 0 -0.474 1.000 -0.067 
6.48 1572555 -374 0 0 0 0 1 0 0 0 0 -0.474 1.000 -0.067 
6.50 1572554 -373 -1 1 -1 1 1 0 0 0 0 -0.454 1.000 -0.064 
6.52 1572554 -373 0 0 1 -1 1 0 0 0 0 -0.473 1.000 -0.066 
6.54 1572554 -373 0 0 0 0 1 0 0 0 0 -0.473 1.000 -0.066 
6.56 1572555 -374 1 -1 1 -1 1 0 0 0 0 -0.493 1.000 -0.069 
6.58 1572555 -374 0 0 -1 1 1 0 0 0 0 -0.474 1.000 -0.067 
6.60 1572555 -374 0 0 0 0 1 0 0 0 0 -0.474 1.000 -0.067 
6.62 1572555 -374 0 0 0 0 1 0 0 0 0 -0.474 1.000 -0.067 
6.64 1572554 -373 -1 1 -1 1 1 0 0 0 0 -0.454 1.000 -0.064 
6.66 1572554 -373 0 0 1 -1 1 0 0 0 0 -0.473 1.000 -0.066 
6.68 1572554 -373 0 0 0 0 1 0 0 0 0 -0.473 1.000 -0.066 
6.70 1572554 -373 0 0 0 0 1 0 0 0 0 -0.473 1.000 -0.066 
6.72 1572554 -373 0 0 0 0 1 0 0 0 0 -0.473 1.000 -0.066 
6.74 1572554 -373 0 0 0 0 1 0 0 0 0 -0.473 1.000 -0.066 
6.76 1572554 -373 0 0 0 0 1 0 0 0 0 -0.473 1.000 -0.066 
6.78 1572554 -373 0 0 0 0 1 0 0 0 0 -0.473 1.000 -0.066 
6.80 1572554 -373 0 0 0 0 1 0 0 0 0 -0.473 1.000 -0.066 
6.82 1572554 -373 0 0 0 0 1 0 0 0 0 -0.473 1.000 -0.066 
6.84 1572554 -373 0 0 0 0 1 0 0 0 0 -0.473 1.000 -0.066 
6.86 1572554 -373 0 0 0 0 1 0 0 0 0 -0.473 1.000 -0.066 
6.88 1572554 -373 0 0 0 0 1 0 0 0 0 -0.473 1.000 -0.066 
6.90 1572554 -373 0 0 0 0 1 0 0 0 0 -0.473 1.000 -0.066 
6.92 1572555 -374 1 -1 1 -1 1 0 0 0 0 -0.493 1.000 -0.069 
6.94 1572555 -374 0 0 -1 1 1 0 0 0 0 -0.474 1.000 -0.067 
6.96 1572555 -374 0 0 0 0 1 0 0 0 0 -0.474 1.000 -0.067 
6.98 1572554 -373 -1 1 -1 1 1 0 0 0 0 -0.454 1.000 -0.064 
7.00 1572554 -373 0 0 1 -1 1 0 0 0 0 -0.473 1.000 -0.066 